12	2
12	3
12	4
12	5
12	6
12	7
12	8
12	9
12	10
12	11
12	12
12	13
11	14
12	15
12	16
11	17
10	17
10	18
9	18
9	19
8	19
8	20
8	21
9	22
9	23
10	24
11	25
12	26
12	27
11	27
10	27
9	28
9	29
9	30
10	31
11	32
12	33
12	34
12	35
12	36
12	37
12	38
12	39
12	40
12	41
12	42
12	43
12	44
12	45
12	46
12	47
12	48
12	49
11	50
12	51
12	52
12	53
12	54
12	55
12	56
12	57
11	58
10	59
9	60
8	61
8	62
8	63
9	64
10	65
11	66
12	67
12	68
12	69
12	70
12	71
11	72
10	72
10	73
10	74
10	75
11	76
12	77
12	78
12	79
12	80
12	81
12	82
11	82
10	82
9	83
9	84
9	85
10	86
11	87
12	88
12	89
12	90
12	91
12	92
12	93
12	94
11	94
10	94
9	95
9	96
8	97
7	97
7	98
8	99
9	100
10	101
9	102
8	102
8	103
7	103
7	104
6	104
6	105
7	106
7	107
7	108
8	109
8	110
8	111
8	112
8	113
8	114
8	115
8	116
9	117
10	118
11	119
12	120
12	121
12	122
12	123
12	124
12	125
12	126
12	127
12	128
11	129
10	129
9	129
8	129
8	130
8	131
7	132
8	133
9	134
10	135
10	136
10	137
11	138
12	139
12	140
12	141
12	142
12	143
12	144
12	145
12	146
11	147
10	147
10	148
9	149
8	150
7	151
6	152
5	153
5	154
6	155
7	156
8	157
9	158
10	159
11	160
12	161
12	162
12	163
12	164
12	165
12	166
12	167
12	168
12	169
12	170
12	171
11	172
