------------------------------------------------------------------------------------------------------------------------------------------------------------------------------------
------------------------------------------------------------------------------------------------------------------------------------------------------------------------------------
------------------------------------------------------------------------------------------------------------------------------------------------------------------------------------
----------------------------------------------------------------------------------------------------------------------------------------------------------------------------------x-
--------------------------------------------------------------------------------------------------------------------------------------------------------------------------------xx-x
-----------B---------------------------------BBBBBB------------xx-------------------------------------------------------------------------------------------------------------xx##--
--------------------------------------------------------------xx-x------------------------------------------------------------------------------------------------------------x###--
----------B---------------------------------------------------x---x--------------------------------xx----------------------xx----------------------------xx------------------x-###--
--------xxxxxxxxxxx----------------------------------------xxx-----xxx-----------------------------x-xx--------------------x-x---------------------------x-x----------------x#-###--
-----xxx##########-x--------------?-------o-?BBBBBBB-------xpP-----pP-x--------------------------xx-pP-x-----------------xx---xxx-------xx------------xxx---xxx------------x##-###--
----xx###-----------x--------------------------------------xpP-----pP--x------------------------xpP-pP--x---------------xpP---pP-x-----xx-xx--xx-----xxpP---pP-x--------xxx###-###--
----x-###------------x------------e------------------------xpP-----pP---x-x--B------------------xpP-pP---x--------------xpP---pP--x----x-pP-x-x-x----x-pP---pP--x-------x#####-###--
--xx-####-------------xxxxxxxxxxxxxxxxxxxxxxxxxxxxxxxxxxxxx-pP---e-pP----x-xxxxxxxxxxxxxxxxxxxxxxpP-pP----xxxxxxxxxxxxxxxpP---pP---xxxx--pP--x---xxxx--pP---pP---xxxxxxx-#####-###--
############-#-------#####################################################-############################################################--#####---#####-#######################-#####
############-#-------#####################################################-############################################################--#####---#####-#######################-#####
############-#-------#####################################################-############################################################--#####---#####-#######################-#####
