----------------------------------------------------------------------------------------------------------------------------------------------------------------------------
----------------------------------------------------------------------------------------------------------------------------------------------------------------------------
----------------------------------------------------------------------------------------------------------------------------------------------------------------------------
----------------------------------------------------------------------------------------------------------------------------------------------------------------------------
----------------------------------------------------------------------------------------------------------------------------------------------------------------------------
-----------------------------------------------------------------------?---BBBBBB----------------------------------B---B----------------------------------------------------
----------------------------------------------------------------------------------------------------------------------------------------------------------------------------
----------------------------------------------------------------------------------------------------------------------------------xx------------------------------xx--------
----------------------------------xxxxx------------------------------------------------------------------------------------------xx-x----------------------------x#-x-------
---------------------------o-----x####-x-------------------------------?--------B----------------------------B-----?-------------x---x-----------xx---------x---x##--x------
--------------------------------x#####--x----xx----B-----xx-----------------------xxxx-------xx-----xxxx----------------------xxx-----x---------x#-x-----xxx-x-x###---x-----
--------------------------x----x######---x---x-x---b-----x-x----x-----------------xpP-x------x-x----xpP-x---------------------xpP------x-------x###-x----xpP--x####----x--x-
--xxxxxxxxxxxxxxxxxxxxxxxx-xxxx######-----xxx---xxxxxxxxx---xxxx-xxxxxxxxxxxxxxxxx-pP--xxxxxx---xxxx-pP--xxxxxxxxxxxxxxxxxxxxx-pP-------xxxxxxx#####-xxxx-pP--#####-----xx-x
##########################-#########---######--##########--#####-############################--##################################-------##################################--
##########################-#########---######--##########--#####-############################--##################################-------##################################--
##########################-#########---######--##########--#####-############################--##################################-------##################################--
