-------------------------------------------------------------------------------------------------------------------------------------------------------------------------
-------------------------------------------------------------------------------------------------------------------------------------------------------------------------
-------------------------------------------------------------------------------------------------------------------------------------------------------------------------
-------------------------------------------------------------------------------------------------------------------------------------------------------------------------
-------------------------------------------------------------------------------------------------------------------------------------------------------------------------
-----------------------------------------------------------------------------------------------------------BB--BB--------------------------------------------------------
----------------------------------------------------------------------------------------------------------------------------------------------------------------------o-o
---------------------------------------------------------------------------------------------------------------------------------xx----------------------------------x--x
--------------------------------------------------o---------xxx--o---o--------xx-----------oo-------------------e----------------x-x----------BBBBBBBBBB---------xxxx-xx-
------------------------------------oo????????-------------xxpPxx------------xx-xxx----xxx-----------------BB--BB-------------xxx---xxx--------------------------x###-##-
-------------------------e--------------------------------xx-pP--x----------xx-pP--x--xpP-x-------------------------xxxx-----xxpP---pP-x-------------------------x-----#-
------------------------------------------------x---------x--pP---x---------x--pP---x-xpP--x-----------B------------xpP-x--e-x-pP---pP--x-------------------x----x-------
--xxxxxxxxxxxxxxxxxxxxxxxxxxxxxxxxxxxxxxxxxxxxxx-xxxxxxxxx---pP----xxxxxxxxx---pP----xxpP---xxxxxxxxxxxxxxxxxxxxxxxx-pP--xxxx--pP---pP---xxxxxxxxxxxxxxxxxxx-xxxx--------
################################################-###########################--################################################-#############################-####--------
################################################-###########################--################################################-#############################-####--------
################################################-###########################--################################################-#############################-####--------
