------------------------------------------------------------------------------------------------------------------------------------------------------------------------------------
------------------------------------------------------------------------------------------------------------------------------------------------------------------------------------
------------------------------------------------------------------------------------------------------------------------------------------------------------------------------------
------------------------------------------------------------------------------------------------------------------------------------------------------------------------------------
------------------------------------------------------------------------------------------------------------------------------------------------------------------------------------
-----------B---------------------------------BBBBBB-----------------------------------------------------------------------------------------------------------------------------##--
-------------------------------------------------------------------------------------------------------------------------------------------------------------------------------###--
----------B--------------------------------------------------------------------------------------------------------------------------------------------------------------------###--
----------b------------------------------------------------------------------------------------------e-----------------------------------------------------------------------#-###--
--------##########----------------?-------o-?BBBBBBB--------pP-----pP-----------------------------e-pP-------------------------e-----------------------------e--------------##-###--
------###---------------------------------------------------pP-----pP----------------------------pP-pP-------------------pP---pP-----------------------pP---pP-------------###-###--
------###-------------------------e-------------------------pP-----pP--------B-------------------pP-pP-------------------pP---pP---------pP------------pP---pP-----------#####-###--
-----####---------------------------------------------------pP---e-pP--------b------e------------pP-pP-------------------pP---pP---------pP------------pP---pP-----------#####-###--
############-#-------#####################################################-############################################################--#####---#####-#######################-#####
############-#-------#####################################################-############################################################--#####---#####-#######################-#####
############-#-------#####################################################-############################################################--#####---#####-#######################-#####
