12	2
12	3
12	4
12	5
12	6
11	6
10	6
9	7
9	8
9	9
10	10
11	11
12	12
12	13
12	14
12	15
11	16
10	16
10	17
9	17
9	18
8	18
8	19
8	20
8	21
8	22
9	23
10	24
11	25
12	26
12	27
12	28
12	29
12	30
12	31
12	32
12	33
12	34
12	35
12	36
12	37
11	37
10	37
9	38
9	39
9	40
10	41
11	42
12	43
12	44
12	45
12	46
12	47
12	48
12	49
12	50
12	51
12	52
12	53
12	54
12	55
12	56
12	57
12	58
12	59
12	60
12	61
11	62
10	62
9	62
8	62
8	63
8	64
8	65
9	66
10	67
11	68
12	69
12	70
12	71
12	72
12	73
12	74
12	75
12	76
12	77
12	78
12	79
12	80
12	81
12	82
12	83
12	84
12	85
12	86
12	87
12	88
12	89
12	90
12	91
12	92
12	93
12	94
12	95
12	96
12	97
12	98
11	99
10	99
9	99
8	99
8	100
8	101
8	102
7	103
7	104
7	105
8	106
9	107
10	108
11	109
12	110
12	111
12	112
12	113
12	114
11	115
12	116
12	117
12	118
11	119
10	119
10	120
9	120
9	121
8	121
8	122
8	123
9	124
9	125
10	126
11	127
12	128
12	129
12	130
11	130
10	130
9	131
9	132
9	133
10	134
11	135
12	136
12	137
12	138
12	139
12	140
12	141
12	142
12	143
12	144
11	144
10	144
9	145
9	146
9	147
10	148
11	149
12	150
12	151
12	152
12	153
12	154
12	155
12	156
12	157
12	158
12	159
12	160
12	161
11	162
10	162
10	163
10	164
9	165
8	166
7	167
6	168
5	168
4	168
3	168
3	169
4	170
4	171
3	172
4	173
5	174
