-----------------------------------------------------------------------------------------------------------------------------------------------------------------------
-----------------------------------------------------------------------------------------------------------------------------------------------------------------------
-----------------------------------------------------------------------------------------------------------------------------------------------------------------------
-----------------------------------------------------------------------------------------------------------------------------------------------------------------------
---------------------------------------------------------------------------------------------------------------------------------------------------xxxx----------------
---------------------e-----BBB-------------------------------B-----------------------------------B------------------------------------------------xx##-x---------------
--------------------pP----------------------------------------------------------------------------------------------------------------------------x-##--x--------------
--------------------pP---------------------------------------------------------------------------------------------------------------------------x--##---x-------------
---------------xxx--##-------------------o-----------oo----------------------------------xxx----------------------------------------xxx---------x##-##----x------------
--------------xxpPxx-------------------------------xx--------xxx-------xxx-------B---B?BxxpPxx---B---------------------------------xx-Bxx------x###-##-----x-----------
-------------xx-pP--x-------B---------------------x#-x------xpP-x-----xpP-x------------xx-pP--x--------e--------------------------xx-----x--xxx####-##------x----------
------x------x--pP---x------xx-----x------x-------x#--x-----xpP--x----xpP--x-----------x--pP---x-------------------B--------------x-------x-x######-##-------x--xx---x-
--xxxx-xxxxxx---pP----xxxxxxB-xxxxx-xxxxxx-xxxxxxxx#---xxxxxxpP---xxxxxpP---xxxxxxxxxxx---pP----xxxxxxxxxxxxxxxxxxxxxxxxxxxxxxxxxx---------x-######-##-----#--xx#-xxx-x
######-############################-######-#########-###############################################################################-----#########--#################-#
######-############################-######-#########-###############################################################################-----#########--#################-#
######-############################-######-#########-###############################################################################-----#########--#################-#
