12	2
12	3
12	4
12	5
12	6
12	7
12	8
12	9
12	10
12	11
12	12
12	13
11	14
12	15
11	16
10	16
10	17
9	17
9	18
8	18
8	19
8	20
8	21
8	22
8	23
8	24
9	25
10	26
11	27
12	28
12	29
12	30
12	31
12	32
12	33
12	34
12	35
12	36
12	37
12	38
12	39
12	40
12	41
12	42
12	43
12	44
12	45
12	46
12	47
12	48
12	49
11	50
12	51
12	52
11	53
10	53
10	54
9	54
9	55
8	55
8	56
8	57
9	58
9	59
10	60
11	61
12	62
12	63
12	64
12	65
12	66
12	67
12	68
12	69
12	70
12	71
12	72
12	73
11	74
10	74
10	75
9	75
9	76
8	76
8	77
8	78
9	79
9	80
10	81
11	82
12	83
12	84
12	85
12	86
12	87
12	88
12	89
12	90
12	91
11	92
10	92
10	93
9	93
9	94
8	94
8	95
8	96
9	97
9	98
10	99
11	100
12	101
12	102
12	103
12	104
12	105
12	106
12	107
12	108
11	109
12	110
12	111
12	112
12	113
12	114
12	115
12	116
11	116
10	116
9	117
9	118
9	119
10	120
11	121
12	122
12	123
12	124
12	125
12	126
12	127
11	128
10	129
9	130
9	131
10	132
10	133
9	134
8	135
7	136
7	137
7	138
6	139
5	139
5	140
4	140
4	141
4	142
4	143
3	144
4	145
5	146
6	147
7	148
8	149
9	150
10	151
11	152
11	153
12	154
12	155
12	156
12	157
11	158
11	159
12	160
12	161
12	162
11	163
12	164
12	165
12	166
12	167
12	168
12	169
12	170
12	171
11	172
