---------------------------------------------------------------------------------------------------------------------------------------------------------------------------------
---------------------------------------------------------------------------------------------------------------------------------------------------------------------------------
---------------------------------------------------------------------------------------------------------------------------------------------------------------------------------
---------------------------------------------------------------------------------------------------------------------------------------------------------------------------------
---------------------------------------------------------------------------------------------------------------------------------------------------------------------------------
-------------------------------------------------BB-------BBBBBBB-----BB-----B---------------------------------------------BBB-------------##------------------------------------
-------------------------------------------------------------------------------------------------------------------------------------------##------------------------------------
-----------------------------------------------------------------------------------------------------------------------------------------#-##------------------------------------
----------------------------------------------------------------------------------------------------------------------------------------##-##------------------------------------
------------------------B????--------------------BB---pP------------------------B-----------------------------------------#BB-B--------###-##-----------------------------?------
----------------------------------#-------------------pP------------------------------------------------------------------------------####-##------------------------------------
----------------------------------#-------------------pP---------------------------------pP-e-pP------------------------------------######-##------------------------------------
------------e---ee----------------#-------------------pP-e----------------e-----------e--pP---pP----e----e--------------------------######-##---------#--------------------------
###############################--###########-##################---##############################-#################################-#######-############################-#########
###############################--###########-##################---##############################-#################################-#######-############################-#########
###############################--###########-##################---##############################-#################################-#######-############################-#########
