---------------------------------------------------------------------------------------------------------------------------------------------------------------------------------
---------------------------------------------------------------------------------------------------------------------------------------------------------------------------------
---------------------------------------------------------------------------------------------------------------------------------------------------------------------------------
---------------------------------------------------------------------------------------------------------------------------------------------------------------------------------
---------------------------------------------------------------------------------------------------------------------------------------------------------------------------------
-------------------------------------------------B----------------------BB----BBB?-------------BBB--------------------------------------##----------------------------B----------
---------------------------------------------------------------------------------------------------------------------------------------###---------------------------------------
--------------------------------------------------------------------------------------------------------------------------------------####---------------------------------------
-------------------------------------------------------------------------------------------------------------------------------------#####---------------------------------------
---o--------------------????????------------------e-----------------------B--B---B--------------------------------------------------######---------------------------BBB-----###-
-------------------------------------------------pP----------------------e-------------------------------pP---------------------e--#######-------------------------------------#-
---------------------------------------B---------pP---------------------pP-----------e-------------------pP------B-------------pP-########-----------B---------------------------
---------------------------------------b-e-------pP---------------------pP--------------------------e----pP------b-------------pP#########-----------b--------------------e------
############################################-#################--#####--####--#########################################--######################################################---
############################################-#################--#####--####--#########################################--######################################################---
############################################-#################--#####--####--#########################################--######################################################---
