--------------------------------------------------------------------------------------------------------------------------------------------------------------------------------------
--------------------------------------------------------------------------------------------------------------------------------------------------------------------------------------
--------------------------------------------------------------------------------------------------------------------------------------------------------------------------------------
--------------------------------------------------------------------------------------------------------------------------------------------------------------------------------------
--------------------------------------------------------------------------------------------------------------------------------------------------------------------------------------
--------------BBB------------------------------?-------------------------------------------------------------------oo-----------------------------------------------------------------
-------------------------------------------------------------------------------------------------------------xxx-----o----------------------------------------------------------------
------------------------------------------------------------------------------------------------------------xB#-x---------------------------------------------------------------------
-----------o---o-----xxx----------B-----------------------xxx---------------------------------------------xx##---xx----------------------------------------------------------------x--
------------oBBBB#--xxpPxx---xxx---------------?-------x-x##-x-------------------------------------------xx#######-x--------B?-------------------xxx-----------------------------xx-x-
-------------------xx-pP--x-xpP-x---------------------x-x###--x-----------------------xxxxxx------------xx-###------x---------------------------xpP-x----xx----xxxx------xxxx---xpP--x
-------------------x--pP---xxpP--x------------------xx#-#####--x--x-----x---------x---xpPpP-x-----------x--###-------x----------x--B------------xpP--x-xx#-x---xpP-x-----xpP-x--xpP---
--xxxxxxxxxxxxxxxxx---pP----xpP---xxxxxxxxxxxxxxxxxx#########---xx-xxxxx-xxxxxxxxx-xxx-pPpP--xxxxxxxxxxx---###--------xxxxxxxxxx-xxxxxxxxxxxxxxxxpP---x####-xxx-pP--xxxxx-pP--xxxpP---
##################################################################-#####-#########-######################--##-------############-###########################################--########
##################################################################-#####-#########-######################--##-------############-###########################################--########
##################################################################-#####-#########-######################--##-------############-###########################################--########
