12	2
12	3
12	4
12	5
12	6
12	7
12	8
12	9
12	10
12	11
12	12
11	12
10	12
9	13
9	14
8	15
7	15
7	16
6	16
6	17
7	18
8	19
9	20
9	21
9	22
10	23
11	24
12	25
12	26
12	27
12	28
12	29
12	30
12	31
12	32
12	33
12	34
12	35
12	36
12	37
12	38
12	39
12	40
12	41
12	42
11	43
10	43
10	44
9	44
9	45
8	45
8	46
8	47
9	48
9	49
10	50
11	51
12	52
12	53
12	54
12	55
12	56
12	57
12	58
12	59
12	60
12	61
12	62
12	63
11	64
10	64
10	65
9	65
9	66
8	66
8	67
8	68
9	69
9	70
10	71
11	72
12	73
12	74
12	75
12	76
12	77
11	78
10	78
10	79
10	80
10	81
11	82
12	83
12	84
12	85
12	86
11	86
10	86
9	87
9	88
9	89
10	90
11	91
12	92
12	93
12	94
12	95
12	96
12	97
12	98
12	99
12	100
11	101
10	102
9	103
8	104
7	105
7	106
8	107
9	108
10	109
11	110
12	111
12	112
12	113
12	114
12	115
12	116
11	117
10	117
10	118
11	119
12	120
12	121
12	122
12	123
12	124
12	125
11	126
10	126
10	127
10	128
9	129
8	130
7	131
6	132
5	133
5	134
6	135
7	136
8	137
9	138
10	139
11	140
12	141
12	142
12	143
12	144
11	145
11	146
12	147
11	148
11	149
12	150
12	151
12	152
12	153
11	154
10	155
