-------------------------------------------------------------------------------------------------------------------------------------------------------------------------------
-------------------------------------------------------------------------------------------------------------------------------------------------------------------------------
-------------------------------------------------------------------------------------------------------------------------------------------------------------------------------
----------------------------------------------------------------------------------------------------------------------------------------x--------------------------------------
---------------------------------------------------------------------------------------------------------------------------------------x-x-------------------------------------
---------------------------------------------------B---------B-------BB------------------------------------------------------------e--x#--x----------------------BBB-----------
----------------------------------------------------------------------------------xx-----------------------------------------------x-x##---x-----------------------------------
---------------------------------------------------------------------------------xx-xxx---------x----------------------------------xx###----x----------------------------------
--------------------------------------------------------------------------------xx-----xxxxxxxxx-x--------------------------------x-####-----x---------------------------------
---------------------------------------------???BB??B?-----BBBB??----BB---------x-----##########--x------------------------------x#-####------x--------------------------------
---------------------------B-----------xx-------------------------------------xxe------------------xxx--xxxx-------------------xx##-####-------x-------------------------------
----------------------e----b-----------x-x------------------------------------xpP------------------pP-x-xpP-x-------------x----x###-####--------xx--x----------e--------------x
--xxxxxxxxxxxxxxxxxxxxxxxxxxxxxxxxxxxxx---xxxxxxxxxxxxxxxxxxxxxxxxxxxxxxxxxxxx-pP------------------pP--x-pP--xxxxxxxxxxxxx-xxxx-###-####--------#-xx-xxxxxxxxxxxxxxxxxxxxxxxxx-
#######################################---###########################################------------##########--#############-########-################-#########################-
#######################################---###########################################------------##########--#############-########-################-#########################-
#######################################---###########################################------------##########--#############-########-################-#########################-
