--------------------------------------------------------------------------------------------------------------------------------------------------------------------------------------------
--------------------------------------------------------------------------------------------------------------------------------------------------------------------------------------------
--------------------------------------------------------------------------------------------------------------------------------------------------------------------------------------------
--------------------------------------------------------------------------------------------------------------------------------------------------------------------------------------------
---------------------------------------------------------------e----------------------------------------------------------------------------------------------------------------------------
-------------------------------------------?-?---------------BBBB--B-----------BBBBB-----------BBBBBB---------------------------------------------------------------------------------------
-----------------------------------------------------------------------------------------e--------------------------------------------------------------------------------------------------
----------------------------------------------------------------------------------------pP--------------------------------------------------------------------------------------------------
----------------------------------------------------------------------------------------pP--------------------------------------------------------------------------------------------------
----------------------------pP-------e---???-B---------B?B??-BBBB---e------BB-B---------##BBB-B-----------------------------------------------------------B---------------------????--e-----
----------------------------pP------pP-----------------------------pP--------------------------------------------------------B---------------------------------------------e---e-----pP-----
-------------------b--------pP------pP-----------------------------pP--B-------------------------------------pP---B----------b--------------------------------------------------e----pP-----
------e-----e------b--------pP------pP-----------------------------pP--b-------------------------------e-e--epP---b-----e-e--b-----------------------#-------------------------------pP-----
########################-#########################################################----#############--#################################-#-------#########################--##--##############
########################-#########################################################----#############--#################################-#-------#########################--##--##############
########################-#########################################################----#############--#################################-#-------#########################--##--##############
