------------------------------------------------------------------------------------------------------------------------------------------------------------------------------------
------------------------------------------------------------------------------------------------------------------------------------------------------------------------------------
------------------------------------------------------------------------------------------------------------------------------------------------------------------------------------
------------------------------------------------------------------------------------------------------------------------------------------------------------------------------------
---------------------------------------------------------------------------e---------------------------------------------------------------------------------------------o------#---
-----B---------------------------------------------o-BBBBBBBBBBBBBBBBBBB--BBBBBBBBBBBBBBBBBBBB-------------------------BB------------------------------------------------------#----
------------------------------------------------------------------------------------------------------------------------------------------------------------------------------------
--------------B-------------------------------------------------------------------------------------e------------------------------------------------------------------------##-----
-----------e--b#-----------------------------------------------------------------------------------pP---------------------------------------------------e-----------###-------------
---B???---pP--#-B???------------??-o-----e-pe---o---B-B------------------BBBBBBBBBBBBBBBBBBBBBB----pP-----------B-B----BB----------e----------BBB---B--pP----------####----#-----#--
----------pP----------------------------pP-pP-------------e-e--------------------------------------pP-----------------------------pP-------------------pP---------#####-------------
----------pP----------------------------pP-pP-------------------------------#-----------#---#------pP-----------------------------pP-------------------pP--------######-------------
----------pP----------------------------pP-pP------------------------------------------------------pP-------------e------e----ee--pP-------------------pP------e#######-------------
#####################################################################-########################--################################################-----################-------------##
#####################################################################-########################--################################################-----################-------------##
#####################################################################-########################--################################################-----################-------------##
