------------------------------------------------------------------------------------------------------------------------------------------------------------------------------
------------------------------------------------------------------------------------------------------------------------------------------------------------------------------
------------------------------------------------------------------------------------------------------------------------------------------------------------------------------
------------------------------------------------------------------------------------------------------------------------------------------------------------------------------
---------------------xx-------------------------------------------------------------------------------------------------------------------------------------------------------
--------------------x#-x-------------------BB----------------------------------------------------------------------o-------------xxxx-----------------------BBBBBBB-----------
------------------xx##--x-------------------------------------------------------------------------------------------------------x#BB-x----------------------------------------
------------------x###---x-----------------------------------------------------------------------------------------------------x##----xx--------------------------------------
-----------------x-###----x----------------------------o-----------x-------oo-oo---------------oo----------o----xx------------x###----B-x-----------------xxx-----------------
---------------xx#-###---?oBBB??-----------xxx---------o---------xx-x------------oo----------------------------xx#xxx--------x####--BB---x----------------x#-x--B------------x
--------------x###-###-----x--------------xpP-x------------e----xpP--x----------------xx----------------------xx-----x------x#####--------x-------e----xxx-#--x------------xx-
--------------x###-###------x-------------xpP--x------x---------xpP---x-------x-------x-x----x----------------x-------x----x######-----B---x-e---------xpP-#---x-------xx--xpP
--xxxxxxxxxxxxx###-###-------xxxxxxxxxxxxxxpP---xxxxxx-xxxxxxxxxxpP----xxxxxxx-xxxxxxx---xxxx-xxxxxxxxxxxxxxxx---------xxxx#######----B-----xxxxxxxxxxx-pP-#----xxxxxxx#-xx-pP
######################################################-###############-#######-#######--#####-#################------#################--######################################
######################################################-###############-#######-#######--#####-#################------#################--######################################
######################################################-###############-#######-#######--#####-#################------#################--######################################
