-----------------------------------------------------------------------------------------------------------------------------------------------------------------------------
-----------------------------------------------------------------------------------------------------------------------------------------------------------------------------
----------------oo-----------------------------------------------------------------------------------------------------------------------------------------------------------
------------------------------------------------------------------------------------------------------------------------------------------------x----------------------------
--------------------------------------------------------------------------------------------------------------------------------------------xxxx-x---------------------------
----------------###------------------------------------------------------------------------------------------------------------------------xx###--x--------------------------
-------------------------------------------------------------------------------------------------------------------------------------------x-###---x-------------------------
----------------------------------------------------------------------------------------------------------------------------------------xxx--###----x------------------------
------------------xxxxxxx------------------------------xxx------------------xxx--oo-----------xxx--------------------------------------x#B#--###-----x-----------------------
-----------------xx#####-x---o???B??????????----------xxpPxx---------------xxpPxx------------xxpPxx------------------xxx----------xx--x####--###------x----------------------
----------------xx--------x--------------------------xx-pP--x-------------xx-pP--x----------xx-pP--x----------------xpP-x--------x#-xx#####--###-------x---------------------
--------------x-x----------x----------------------x--x--pP---x------------x--pP---x---------x--pP---x--------x------xpP--x------x##########--###--------xx----xx---x--------x
--xxxxxxxxxxxx-x------------xxxxxxxxxxxxxxxxxxxxxx-xx---pP----xxxxxxxxxxxx---pP----xxxxxxxxx---pP----xxxxxxxx-xxxxxxxpP---xxxxxx###########--###--------#-xxxx#-xxx-xxxxxxxx-
##############-#------------######################-##########################################################-###########################-#--######################-#########
##############-#------------######################-##########################################################-###########################-#--######################-#########
##############-#------------######################-##########################################################-###########################-#--######################-#########
