----------------------------------------------------------------------------------------------------------------------------------------------------------------------
----------------------------------------------------------------------------------------------------------------------------------------------------------------------
----------------------------------------------------------------------------------------------------------------------------------------------------------------------
----------------------------------------------------------------------------------------------------------------------------------------------------------------------
------------------------------------------------------------------------------------o---------------------------------------------------------------------------------
-----------------------------------------------------------------------------------BBB---------------BBB-----BBB------------------------------------------------------
----------------------------------------------------------------------------------------------------------------------------------------------------------------------
----------------------------------------------------------------------------------------------------------------------------------------------------------------------
----------------------------------------------------------------------------------------e-------------e---------------------------------------------------------e-----
-----------------pP--------------------------------------------------------------BB----pP------------BBBB----#BB-----------------------------------------------pP-----
-----------------pP--------------------------------------------------------------------pP--------------------#-----------------------------------pe------------pP-----
-----------------pP--------------------------------------------------------------------pP--------------------#-------------B-----pP--------------pP------e-e---pP-----
-----------------pP-------------------------------------------------------------------epP---e--------e--ee---#---e---###---b-----pP--------------pP------------pP-----
#####################################--###################---######-##########################################-########################-###-#-########################
#####################################--###################---######-##########################################-########################-###-#-########################
#####################################--###################---######-##########################################-########################-###-#-########################
