---------------------------------------------------------------------------------------------------------------------------------------------------------------------------
---------------------------------------------------------------------------------------------------------------------------------------------------------------------------
---------------------------------------------------------------------------------------------------------------------------------------------------------------------------
--------------------------------------------------------------------------------------------------------------------------------------------------------------xx--x--------
------------------------------------------------------------------------------------------------e----------------------------------------o--------------------x-xx-x-------
-----------------------BBB-BBBBBBBBBBBBBBBBBBB--------------------------------------------BBBBBBBBBB-------------------------------------BB-------------------x###--x------
--------------------------------------------------------------------------------------------------------------------------------------------------xx----------x###---x-----
--------------------------------------------------------------x-----------------------------------------------------------------------------------x-x--------x-###----x----
------------------------------------------------------------xx-x-xxxx------oooo------------------------------------------------------------xx-xxxx---x--x---x#-###-----x---
-----------------------------------------------BBBB--------x##--x###-x----o---------------BBBBBBBBBB--------------BB?------------------xx--x-x####----xx-x-x##-###------x--
----------------xx------------------------xx--------------x####-####--x-------------------e---------xx-----------xx------------------exx-xx--#####----pP--x###-###-------x-
------------x---x-x------------------x-x--x-x------------x##########---x-------B-------B------------x-x----------x-x------------------x--pP--#--------pP--####-###--------x
--xxxxxxxxxx-xxx---xxxxxxxxxxxxxxxxxx-x-xx---xxxxxxxxxxxx###########----xxxxxxxxxxxxxxxxxxxxxxxxxxxx---xxxxxxxxxx---xxxxxxxxxxxxxxxxxx---pP--#--------pP-#####-###-----##--
############-###--###################-#-##---######################---##############################--###########--###################---##--#-----#####-#####-############
############-###--###################-#-##---######################---##############################--###########--###################---##--#-----#####-#####-############
############-###--###################-#-##---######################---##############################--###########--###################---##--#-----#####-#####-############
