---------------------------------------------------------------------------------------------------------------------------------------------------------------------------------
---------------------------------------------------------------------------------------------------------------------------------------------------------------------------------
-------------------------------------------------------------------------------------------------------------------------------------------?-------------------------------------
---------------------------------------------------------------------------------------------------------------------------------------------------------------------------------
---------------------------------------------------------------------------------------------------------------------------------------------------------------------------------
-------------------------------------------------------------BB------------------------------------------BBBB----------BBBB--------------------------------------##--------------
-----------------------------------------#----------------------------------------------------------------------------------------------------------------------###--------------
----------------------------------------##---------------------------------------------------------------------------------------------------------------------####--------------
---------------------------------------###-------------------------------------------pe-----------------------------------------------------------------------#####--------------
---------??-------------##------######-####--pP-------------#######--??B????-B??---e-pP-----------------------------------------------------------------------#####--------------
-----------------------####----#######-#####-pP------------------------------e----pP-pP--------B-------e----------------------------------------------------#-#####--------------
-----B--------B----e-#######--########-#####-pP-----------------------------------pP-pP--------b------pP-----------------------pP------------B---pP--------##-#####--------------
-----b--------b------#################e#####-pP----------------------------------epP-pP--------b------pP-------------------e---pP------------b---pP-------###-#####---------#----
#####################################--#####-#########-#-#####------#######################################----##############################################-##################-
#####################################--#####-#########-#-#####------#######################################----##############################################-##################-
#####################################--#####-#########-#-#####------#######################################----##############################################-##################-
