-------------------------------------------------------------------------------------------------------------------------------------------------------------------
-------------------------------------------------------------------------------------------------------------------------------------------------------------------
-------------------------------------------------------------------------------------------------------------------------------------------------------------------
-------------------------------------------------------------------------------------------------------------------------------------------------------------------
-------------------------------------------------------------------------------------------------------------------------------------------------------------------
-----------------------------------------------------------------------BBBBBB----------------BB---------------------------------------------------##---------------
-------------------------------------------------------------------------------------------------------------------------------------------------###---------------
------------------------------------------------------------------------------------------------------------------------------------------------####---------------
-----------------------------------------------------------------------------------------------------------------------------------------------#####---------------
---------------------------------------?---------------pe------------BB-----B----------------BB----------------------#B----------?-----------#######---------------
---------------------------------pP--------------------pP------------------------------------------------------------#-----------------e----e#######---------------
-------------------e-------------pP--------------------pP--------------------------B-------------------B----pP-------#-----pP--------------pP#######----------##---
-------------e---e-----e---------pP------------e-------pP------------------------e-b----------e-----e-eb----pP------e#-----pP--------------pP#######----------##---
##########################################################################################-###################--##################################################-
##########################################################################################-###################--##################################################-
##########################################################################################-###################--##################################################-
