12	2
12	3
12	4
12	5
12	6
12	7
12	8
12	9
12	10
12	11
12	12
12	13
12	14
12	15
12	16
12	17
12	18
11	18
10	18
9	19
9	20
9	21
10	22
11	23
12	24
12	25
12	26
12	27
12	28
12	29
12	30
12	31
12	32
12	33
12	34
12	35
12	36
12	37
12	38
12	39
12	40
12	41
12	42
12	43
12	44
12	45
12	46
12	47
12	48
11	49
10	49
10	50
11	51
12	52
12	53
12	54
11	55
10	56
9	56
8	56
7	57
8	57
7	58
6	58
7	59
6	60
6	61
6	62
7	63
8	64
9	65
10	66
11	67
12	68
12	69
12	70
12	71
12	72
12	73
12	74
11	75
12	76
12	77
12	78
12	79
12	80
12	81
12	82
12	83
12	84
12	85
12	86
12	87
12	88
12	89
12	90
12	91
12	92
12	93
12	94
12	95
12	96
12	97
11	98
10	98
10	99
10	100
10	101
11	102
12	103
12	104
12	105
12	106
12	107
12	108
11	108
10	108
9	109
9	110
9	111
10	112
11	113
12	114
12	115
12	116
12	117
12	118
11	119
10	119
10	120
11	121
12	122
12	123
12	124
12	125
11	126
10	127
9	128
8	129
7	130
6	131
5	132
4	133
4	134
4	135
4	136
5	137
6	138
7	139
8	140
9	141
10	142
11	143
12	144
12	145
12	146
12	147
12	148
12	149
12	150
12	151
11	152
10	153
10	154
11	155
12	156
11	157
11	158
12	159
11	160
11	161
12	162
11	163
10	164
11	165
