------------------------------------------------------------------------------------------------------------------------------------------------------------------------------------------
------------------------------------------------------------------------------------------------------------------------------------------------------------------------------------------
------------------------------------------------------------------------------------------------------------------------------------------------------------------------------------------
------------------------------------------------------------------------------------------------------------------------------------------------------------------------------------------
-----------------------------------------------------------------------------------------------------------------------------------------xxx----------------------------------------------
-----------------------------------------------------------------------------------###-----------------------------------BBBB-----------x##-x------------------------B-B------------------
----------------------------------------------------------------------------------x----------------------------------------------------x###--x--------------------------------------------
------------------------------------------------------------------------------x---xx--------------------------------------------------x####---x-------------------------------------------
----------------------------------------------------------------------xxxxxxxx-xxx--x------------------------------------------------x#####----x------------------------------------------
------------xxx----------------???--------xxxx-----------------------x########-###---x##------------------------------------B-------x######-----x--------------------??B??????B?B-B-------
-----------xpP-x-------------------------xxpP-x-----------xxxx------xB----------------x---------xxxx--------------------------xxxx-x#######------x--------------------------------------xx
-----------xpP--x------------------------x-pP--x----------xpP-x-----xb-----------------x--------xpP-x---x---------x-----------xpP-x########-------x-------------------------------------xB
--xxxxxxxxxxpP---xxxxxxxxxxxxxxxxxxxxxxxx--pP---xxxxxxxxxx-pP-exxxxxxB------------------xxxxxxxx-pP--xxx-xxxxxxxxx-xxxxxxxxxxx-pP-#########--------xxxxxxxxxxxxxxxxxxxxxxxxxxxxxxxxxxxxx-B
##########################################-#############################----------------################-#########-#####################################################################-#
##########################################-#############################----------------################-#########-#####################################################################-#
##########################################-#############################----------------################-#########-#####################################################################-#
