12	2
12	3
12	4
12	5
12	6
12	7
11	8
10	8
10	9
11	10
12	11
12	12
12	13
12	14
12	15
12	16
11	16
10	16
9	17
9	18
9	19
10	20
11	21
12	22
12	23
12	24
11	25
10	25
10	26
9	26
9	27
9	28
9	29
10	30
11	31
12	32
12	33
12	34
12	35
11	36
10	36
10	37
11	38
12	39
12	40
12	41
12	42
12	43
12	44
12	45
12	46
12	47
11	48
10	48
9	48
8	48
8	49
8	50
8	51
8	52
8	53
7	54
8	55
8	56
8	57
7	58
6	58
6	59
5	59
5	60
6	61
7	62
8	63
8	64
8	65
7	66
6	66
7	67
8	68
9	69
10	70
11	71
12	72
11	73
12	74
12	75
12	76
12	77
12	78
12	79
12	80
12	81
12	82
12	83
12	84
12	85
12	86
11	87
10	87
10	88
9	88
9	89
8	89
8	90
9	91
9	92
9	93
10	94
10	95
10	96
11	97
12	98
12	99
12	100
12	101
12	102
12	103
12	104
12	105
12	106
12	107
12	108
11	109
10	109
10	110
10	111
10	112
11	113
12	114
12	115
12	116
12	117
12	118
12	119
12	120
12	121
12	122
11	123
12	124
12	125
12	126
12	127
12	128
12	129
12	130
12	131
12	132
12	133
12	134
11	135
10	135
10	136
10	137
10	138
11	139
12	140
12	141
12	142
12	143
12	144
11	145
10	145
10	146
9	147
8	148
7	149
6	150
5	151
4	152
4	153
4	154
4	155
3	156
4	157
5	158
