----------------------------------------------------------------------------------------------------------------------------------------------------------------------------
----------------------------------------------------------------------------------------------------------------------------------------------------------------------------
----------------------------------------------------------------------------------------------------------------------------------------------------------------------------
-------------o--------------------------------------------------------------------------------------------------------------------------------------------------------------
--------------------------------------------------------------------o-------------------------------------------------------------------------------------------------------
-----------BBB-----------------------------?-----?-?---BB--?----BB-BBBB--------------------e-------------------?B-----------------------------------------------------------
---------------------------------------------------------------------------e----------e----P--------------------------------------------------------------------------------
--------------------------------------------------------------------------pP---------pP---pP--------------------------------------------------------------------------------
--------------------------------------------------------------------------pP---------pP---pP--------------------------------------------------------------------------------
------------B---------------------e--------B-----?-?---?---?----BeB-------##BB-------pP---##-------------------BB----------------------#---#-----------------------#-----##-
---------------------------------pP-----------------------------pP-----------------e-pP------------------------------------pP----------#---#-----------e---------------####-
---------------------------------pP-----------------------------pP----------------pP-pP---------------B---B--------pP------pP----------#---##------pP-pP---------------#----
------e--------------------------pP-------e---------------------pP----------------pP-pP---------ee----b---b----e---pP------pP--------e-#---###-----pP-pP---------------#----
#####################################################################################################################---#########################################------#----
#####################################################################################################################---#########################################------#----
#####################################################################################################################---#########################################------#----
