12	2
12	3
12	4
12	5
12	6
12	7
12	8
12	9
12	10
11	11
12	12
11	13
10	13
10	14
11	15
12	16
12	17
12	18
12	19
12	20
12	21
12	22
12	23
12	24
12	25
11	25
10	25
9	26
9	27
9	28
10	29
11	30
12	31
12	32
12	33
12	34
12	35
12	36
12	37
12	38
12	39
12	40
12	41
12	42
12	43
12	44
12	45
11	46
10	46
10	47
9	47
9	48
8	48
8	49
8	50
9	51
9	52
10	53
11	54
12	55
12	56
12	57
11	58
12	59
12	60
12	61
12	62
12	63
11	64
10	64
9	64
8	64
8	65
8	66
8	67
8	68
8	69
8	70
7	71
6	71
5	71
4	71
4	72
4	73
4	74
4	75
4	76
4	77
4	78
4	79
4	80
5	81
6	82
7	83
8	84
7	85
6	85
6	86
7	87
8	88
8	89
7	90
6	90
6	91
5	91
5	92
4	92
4	93
5	94
6	95
7	96
8	97
8	98
7	99
6	99
5	99
4	99
4	100
4	101
4	102
4	103
3	104
4	105
5	106
4	107
3	108
4	109
5	110
6	111
7	112
8	113
9	114
10	115
11	116
12	117
12	118
12	119
11	120
10	120
10	121
11	122
12	123
12	124
12	125
12	126
12	127
12	128
12	129
12	130
11	130
10	130
9	131
9	132
9	133
10	134
11	135
12	136
12	137
12	138
11	139
10	140
9	141
8	142
7	143
7	144
6	145
5	146
4	146
4	147
3	147
3	148
2	148
2	149
3	150
3	151
3	152
4	153
4	154
4	155
4	156
4	157
3	158
2	158
2	159
3	160
4	161
5	162
6	163
7	164
6	165
5	166
5	167
6	168
7	169
8	170
9	171
10	172
11	173
12	174
12	175
11	176
