--------------------------------------------------------------------------------------------------------------------------------------------------------------------
--------------------------------------------------------------------------------------------------------------------------------------------------------------------
--------------------------------------------------------------------------------------------------------------------------------------------------------------------
--------------------------------------------------------------------------------------------------------------------------------------------------------------------
--------------------------------------------------------------------------------------------------------------------------------------------------xxx---------------
-------------------------------------------------------------------------------------------------------------------------------------------------x##-x--------------
------------------------------------------------------------------------------------------------------------------------------------------------x###--x-------------
-------------------------------------------------------------------------xx-------------------------------------------xx-----------------------x####---x------------
----------xxx---------------------------------------------------------xxx#-xxxxxxxxxxxx-------------------------------x-x---------------------x#####----x-----------
---------xxpPxx---BBBBBBB-------xxx--???????-------------------------x################-x----------------------------xx---x-------------------x######-----x----------
--------xx-pP--x-------------e-xpP-x-------------------x--xxxx------x###----------------x--------------------------xpP----xxx---------------x#######------x---------
--------x--pP---x--------------xpP--x------------------xx-xpP-x----x####-----------------x-------------------------xpP----pP-x-------------x########-------x#---xx-x
--xxxxxx---pP----xxxxxxxxxxxxxxxpP--exxxxxxxxxxxxxxxxxx--x-pP--xxxx#####------------------xxxxxxxxxxxxxxxxxxxxxxxxxxpP----pP--xxxxxxxxxxxxx#########-----#--xxxx#-x-
#######################################################--##############-------------------##########################################################################
#######################################################--##############-------------------##########################################################################
#######################################################--##############-------------------##########################################################################
