----------------------------------------------------------------------------------------------------------------------------------------------------------------------------
----------------------------------------------------------------------------------------------------------------------------------------------------------------------------
----------------------------------------------------------------------------------------------------------------------------------------------------------------------------
----------------------------------------------------------------------------------------------------------------------------------------------------------------------------
----------------------------------------------------------------------------------------------------------------------------------------------------------------------------
----------------------------BBB----------------------------------------------------------------------------------------?-BBBBBB-------B-------------------------------------
------------------------------------xx--------------------------------------------------------------------------------------------------------------------------------------
------------------------------------x-x---------------------------x--------------------------------------------------------------------------------------------xx-----------
---------------------------------xxx---x------------xx-----------x-xxxx-----o------------xxx---------------------------------------------------xx-------------xx-xxxxx------
--------------------xxx----BBBBB-xpP----xx---------xxpxxx--------x####-x--------???B?---xx##xx-------------------------?----BBB---------------x#-x-----------xx----pP-x-----
-------------------xpP-x---e-----xpP---pP-x-------xx-pP--x-------x####--x------e-------xx-##--x---xx---xxxx--xxxx----------------------------x##--x----xx----x-----pP--x----
-------------------xpP--x--------xpP---pP--x------x--pP---x-----x#####---x-------------x--##---x--x-x--xpP-x-xpP-x--------------------------x###---x-xx#-x--x#-----pP---x--x
--xxxxxxxxxxxxxxxxxxpP---xxxxxxxx-pP---pP---xxxxxx---pP----xxxxx######----xxxxxxxxxxxxx---##----xx---xx-pP--x-pP--xxxxxxxxxxxxxxxxxxxxxxxxxx####----x####-xx###----pP----xx-
###################################################-#################---##########################---#####-#################################################################
###################################################-#################---##########################---#####-#################################################################
###################################################-#################---##########################---#####-#################################################################
