--------------------------------------------------------------------------------------------------------------------------------------------------------------------------
--------------------------------------------------------------------------------------------------------------------------------------------------------------------------
--------------------------------------------------------------------------------------------------------------------------------------------------------------------------
-----------------------------------------------------------------------------------------------------------------------------------------------------------------------x--
---------------------------------------------------------------------------------------------------------------------------------------------------------------------xx-x-
------------------------xx------------------------------------------------------------------------------------------------------------------------------------------x##--x
-----------------------xx-xxx--xx--x----------------------------------------xx---------------------------------------B---------------------------------------------x###---
----------------------xx-----x-x-xx-x--------------------------------------xx-x--------------------------------------------------------------------------------x-xx####---
----------------------x-------x--pP--x----------------------------------xx-x---xxx--------------------------xxx-------------xx--------------------------------x-x######---
--------------------xx------??B--pP---x---------------------o----------xxpx----#B-x------------------------xxpPxx-----------x-x-------------------------------x########---
--------xxx--------xpP-----------pP----xxx---------------------xx-----xx-pP----#---x----------------------xx-pP--x--xx---xxx---xxx-xxxx-----xxxx--------------x########---
--------xp-x-------xpP-----------pP----pP-x----B---------B-----x-x----x--pP----#----x--------B--------B---x--pP---x-x-x--xpP---pP-x###-x----xpP-x--------x---x#########---
--xxxxxx-peexxxxxxxxpP-----o-----pP----pP--xxxxxxxxxxxxxxxxxxxx---xxxx---pP----#-----xxxxxxxxxxxxxxxxxxxxx---pP----x-#-xx-pP---pP-#####-xxxx-pP--xxxxxxxx-xxx##########---
###############################################################---####--###########--###############################-####################################-################
###############################################################---####--###########--###############################-####################################-################
###############################################################---####--###########--###############################-####################################-################
