--------------------------------------------------------------------------------------------------------------------------------------------------------------------------
--------------------------------------------------------------------------------------------------------------------------------------------------------------------------
--------------------------------------------------------------------------------------------------------------------------------------------------------------------------
--------------------------------------------------------------------------------------------------------------------------------------------------------------------------
--------------------------------------------------------------------------------------------------------------------------------------------------------------------------
---------------------------------------------------------------------------------------------------------------------------------------------------------------------##---
---------------------------------------------------------------------------------------------------------------------B----------------------------------------------###---
----------------------------------e--------------------------------------------------------------------------------------------------------------------------------####---
---------------------------------pP---------------------------------------------------------------------------e--------------------------------------------------######---
---------------------e------??B--pP-------------------------o------------pe----#B----------------------------pP------------------------------------------------########---
--------------------pP-----------pP-----e--------------------------------pP----#-----------------------------pP-------------------------------e----------------########---
---------p----------pP-----------pP----pP------B---------B---------------pP----#-------------B--------B------pP-----------pP---pP--###-------pP---------------#########---
---------pee--------pP-----o-----pP----pP------b---------b---------------pP----#-----------e-b--------b------pP------#----pP---pP-#####------pP--------------##########---
###############################################################---####--###########--###############################-####################################-################
###############################################################---####--###########--###############################-####################################-################
###############################################################---####--###########--###############################-####################################-################
