----------------------------------------------------------------------------------------------------------------------------------------------------------------------------
----------------------------------------------------------------------------------------------------------------------------------------------------------------------------
----------------------------------------------------------------------------------------------------------------------------------------------------------------------------
----------------------------------------------------------------------------------------------------------------------------------------------------------------------------
----------------------------------------------------------------------------------------------------------------------------------------------------------------------------
-----------B-B---------------------------------------------------------------------------------------------------------xx---------------------------------------------------
------------------------------------------------------------------------------------xxxx-------------------------xx----x-x--------------------------------------------------
------------------------------------------------------------------------------------xpP-x-----------------------xx-xxxx---x-------------------------------------------------
---------------------------------------------xx----------------o--------------------xpP--x---------------------xx----pP----x------------xxx----xxxx-------------------------
----------B??BB---??------------------------xx-xxx----------------------------------xpP---x-------------BB-----x-----pP-----x----------xxpPxx--xpP-x----------------------x-
-------------------------------------------xx--pe-x---xx--------xx---xx-----xx---xxx-pP----x----------------xxx------pP------xxx------xx-pP--xx-pP--x------------------xxx-x
-----------------------B-------------------x---pP--x--x-x--x----x-x--x-x-b--x-x--xpP-pP-----x---------------xpP------pP------pP-x-----x--pP--pP-pP---x---e-------------xpP--
--xxxxxxxxxxxxxxxxxxxxxxxxxxxxxxxxxxxxxxxxx----pP---xx---xx-xxxx---xx---xxxx---xx-pP-pP------xxxxxxxxxxxxxxx-pP------pP------pP--xxxxx---pP--pP-pP----xxxxxxxxxxxxxxxxx-pP--
###########################################----#######--###-####--###--#####---################################################################-##-#######################--
###########################################----#######--###-####--###--#####---################################################################-##-#######################--
###########################################----#######--###-####--###--#####---################################################################-##-#######################--
