------------------------------------------------------------------------------------------------------------------------------------------------------------------
------------------------------------------------------------------------------------------------------------------------------------------------------------------
------------------------------------------------------------------------------------------------------------------------------------------------------------------
------------------------------------------------------------------------------------------------------------------------------------------------------------------
------------------------------------------------------------------------------------------------------------------------------------------------------------------
------------------------------------------------------------------------------------------------------------------------------------------------------------------
------------------------------------------------------------------------------------------------------------------------------------------------------------------
------------------------------------------------------------------------------------------------------------------------------------------------------------------
----------------------------------------------BB---------------------------------------------------------------------------#-------------------------e------------
------------------------------------e--------B------BBB-------B--BB-------------------------------------------------------##------------------------pP------------
-----------------pP----------------pP----#-----------------------------------B--------e--------pPe----------e------------###---------------e--------pP------------
-----------------pP----------------pP---##-------------e---------------------b-------pP--------pP----------------pP----#####---b----------pP---B----pP--------B---
----ee-----e-----pP----------------pP--###----o-------------------------e----B-----e-pP--------pP----------------pP----#####---b----------pP---b----pP------------
##########################################--####--######################################################-###########################---#######-#----##-###########
##########################################--####--######################################################-###########################---#######-#----##-###########
##########################################--####--######################################################-###########################---#######-#----##-###########
