12	2
12	3
12	4
12	5
12	6
12	7
12	8
12	9
12	10
12	11
12	12
12	13
12	14
12	15
12	16
12	17
12	18
12	19
12	20
12	21
12	22
12	23
12	24
12	25
11	25
10	25
9	26
9	27
9	28
10	29
11	30
12	31
12	32
12	33
12	34
12	35
12	36
12	37
12	38
12	39
12	40
12	41
12	42
12	43
12	44
12	45
12	46
12	47
12	48
12	49
12	50
12	51
12	52
12	53
12	54
12	55
12	56
12	57
12	58
11	59
10	59
9	59
8	59
8	60
8	61
8	62
8	63
8	64
9	65
10	66
11	67
12	68
12	69
12	70
12	71
12	72
11	72
10	72
9	73
9	74
8	75
8	76
8	77
9	78
10	79
12	80
11	81
10	81
10	82
9	82
9	83
10	84
11	85
12	86
12	87
12	88
12	89
12	90
11	91
12	92
12	93
12	94
12	95
12	96
12	97
12	98
12	99
12	100
12	101
12	102
12	103
12	104
12	105
12	106
12	107
12	108
12	109
12	110
12	111
12	112
12	113
12	114
12	115
12	116
12	117
12	118
12	119
12	120
12	121
12	122
12	123
12	124
12	125
12	126
12	127
12	128
12	129
12	130
12	131
12	132
12	133
12	134
12	135
12	136
12	137
12	138
12	139
12	140
12	141
12	142
11	143
10	143
11	144
12	145
11	146
12	147
11	148
10	148
10	149
9	149
9	150
8	150
8	151
8	152
8	153
8	154
9	155
10	156
11	157
12	158
11	159
10	159
10	160
10	161
9	162
9	163
8	164
8	165
8	166
9	167
10	168
11	169
12	170
12	171
12	172
11	173
