-----------------------------------------------------------------------------------------------------------------------------------------------------------------------------------------
-----------------------------------------------------------------------------------------------------------------------------------------------------------------------------------------
-----------------------------------------------------------------------------------------------------------------------------------------------------------------------------------------
-----------------------------------------------------------------------------------------------------------------------------------------------------------------------------------------
-----------------------------------------------------------------------------------------------------------------------------------------------------------------------------------------
-----------------------------------------------B-----------------?-----------------------B--------BBBB----------------------BBBBB?-------------------------------------------------------
-----------------------------------------------------------------------------------------------------------------------------------------------------------------------------------------
-----------------------------------------------------------------------------------------------------------------------------------------------------------------------------------------
-----------------------------------------------------------------------------------------------------------------------------------------------------------------------------------------
---------------e-------------------------------???----e---------??-------------??------B--e-----------B---B----------------#--BB-B-------#---#--------------?-?--------------o----##-----
--------------pP--------------pP---------------------pPB---------------------------------pP-----------------------------e--#-------------#---#-----------------------------------####---#
--------------pP--------------pP---------------------pPb---------------------------------pP---------------------pP-----pP--#-------------#---##---------------------------B-----######-##
--------------pP--------------pP---------------------pPb-----------e---------------------pP------e----e---e-----pP-----pP--#-----e----e--#---###------------------e-------b----##########
####################-#-###########################################################################################-##############################-#######################################
####################-#-###########################################################################################-##############################-#######################################
####################-#-###########################################################################################-##############################-#######################################
