-------------------------------------------------------------------------------------------------------------------------------------------------------------------------
-------------------------------------------------------------------------------------------------------------------------------------------------------------------------
-------------------------------------------------------------------------------------------------------------------------------------------------------------------------
-------------------------------------------------------------------------------------------------------------------------------------------------------------------------
-------------------------------------------------------------------------------------------------------------------------------------------------------------------------
--------B------------------------------------------------------------B---------B-B--------------------------------######---------------------------------------------#---
-----------------------------------------------------------------------------------------------------------------------------------------------------------------#---#---
----------------------------------------------------------------------------------------------------------------------------------------------------------------##---#---
-------------------------------------------------------------e------------------------------------------------------------##-----------------------------------###---#---
---------pP-----------------------##---------------------------------B---------B?BB---##################--------##-----###-----#-------BB--e------------------####---#---
---------pP----------------------#####------------------------------------------------#---------------------------------------------------pP-----------------#####---#---
---------pP------------BpP-------#####---------B-------B---------B--------------------#---------------------------------------------------pP---------------#######-------
---------pP------------bpP-------####----------b-----------------b--------------------#---------------------------------------------------pP---------------#######---#---
####################################--###############################################-#------------------###------######-------------####################################
####################################--###############################################-#------------------###------######-------------####################################
####################################--###############################################-#------------------###------######-------------####################################
