-------------------------------------------------------------------------------------------------------------------------------------------------------------------------------------------
-------------------------------------------------------------------------------------------------------------------------------------------------------------------------------------------
-------------------------------------------------------------------------------------------------------------------------------------------------------------------------------------------
-------------------------------------------------------------------------------------------------------------------------------------------------------------------------------------------
---------------------------------------------------------------------------------------------------------------xxxxxxx---------------------------------------------------------------------
-------------------------B-B-BB-------------------------------BBB----o-o--------------------------------------x######-##-------------------------------------------------?------------BBBBB
--------------------------------------------------------------------o-----------------------------------------x-------x--------------------------------------------------------------------
----------------------------------------------------------------------------------------------------------xxxxx--------x-------------------------------------------------------------------
-------xxx--------------------------------------------------xxxxxxxxxxxxxxxxxxxxxxxxxxxxxxxxxxxxxxxxxxxxxx#####---------x------------------------------------xxx---------------------------
------xxpPxx--------?-??-BBBBBB-------------oo--------------x#################################################-----------x----------------------------------xxpPxx-------B????-xxx---------
-----xx-pP--x-----------------------------------------------x#------##########--------------------------------------------x----------xx--------------------xx-pP--x-----------xpP-x--------
-----x--pP---x------------#-----------x-x-------------------x#-------------------------------------------------------------x-------xx#-x----B--------------x--pP---x----------xpP--x------x
--xxx---pP----xxxxxxxxxxxxxxxxxxxxxxxx-x-xxxxxxxxxxxxxxxxxxx-#--------------------------------------------------------------xxxxxxx####-xxxxxxxxxxxxxxxxxxx---pP----xxxxxxxxxxxpP---xxxxxx-
######################################-#-#######################--------------------------------------------------------#-################################################################-
######################################-#-#######################--------------------------------------------------------#-################################################################-
######################################-#-#######################--------------------------------------------------------#-################################################################-
