---------------------------------------------------------------------------------------------------------------------------------------------------------------------------
---------------------------------------------------------------------------------------------------------------------------------------------------------------------------
---BBBBBBBBBBBBBBBBBBBBBBBBBBBBBB--BBBBBBBBBBBBBBBBBBBBBBBBBBBBBBBBBBBBBBBBBBBBBBBBBBBBBBBBBBBBBBBBBBBBBBBBBBBBBBBBBBBBBBBBBBB---BBBBBBBBBBBBBBBBBBBBBB--------BB----------
---------------------------------------------------------------------BBB-B-B-BB--------------------------------------------------------------------------------------------
----------------------------------------------------xx---------------BBB-B-B-BB---------------------------------------------------xx-----------------------##--------------
------------------------------------xx-------------xx-xxx-----------------------ooooo-------xx-----------------------------------xx-xxx--------------------------BB--------
-----------------------o-----------xx-xxx--xx--x--xx-----x---------------------------------xx-xxx-----xx------------------------xx-----x----------------------xx-----------
---------------x--------------B---xx-----x-x-x-xx-x-------x--------------------BBBBBB-----xx-----x---xx-x---xx---xx-------------x-------x---------------x-x--xx-x----------
-------------xx-xx------------x---x-------x---x--x---------x-------------------BBBBBB-----x-------x--x---x--x-x--x-x--xx-------x---------x-------------x-x-x-x---xx--------
--------?-B?-x#-#-x-----???--x-xxx-------pP--BB--#------e---x---------BB-BBB-BBB--------xx-----e---xx-----xx---xx---x-x-xx---xx#----------xx---------xx#-#--x---BP-x-------
-------------x#-#--x--------x#-###-------pP------#-----pP----xxx-----------------------xpP----pP---pP--#--pP---pP----x-pP-x-x###---BB----pP-x-------x##-----#---pP--x------
-------------x#-#---x-------x#####-------pP------#-----pP----pP-x----------------------xpP----pP---pP--#--pP---pP----#-pP--x####---BB----pP--x-----x###---------pP---x----x
--xxxxxxxxxxxe#-#----xxxxxxxx####--------pP-e---e#-e---pP----pP--xxxxxxxxxxxxxxxxxxxxxxxpP--eepP---pP--#--pP---pP----#-pP--#####---BB----pP--exxxxx####---------pP----xxxx-
################################---############################################################################################----##--###############--------#############
################################---############################################################################################----##--###############--------#############
################################---############################################################################################----##--###############--------#############
