-------------------------------------------------------------------------------------------------------------------------------------------------------------------------
-------------------------------------------------------------------------------------------------------------------------------------------------------------------------
---BBBBBBBBBBBBBBBBBBBBBBBBBBBBBBBBBB--BBBBBBBBBBBBBBBBBBBBBBBBBBBBBBBBBBBBBBBBBBBBBBBBBB----BB--BBBBBBBBBB--------------------------------------------------------------
-------------B-----------------B----------------B--BB-BBBBBB--BB---------------------------------------------------------------------------------------------------------
-------------------------------B----------------B--BB-BBBBBB--BB---------------------------------------------------------------------------------------------e-----------
-------------------------------BB-----B------------B-B-----B---B-------------------------------------oo----------------------------------------------------BBBB----------
--------------------------------B--------------------B-----B---B---------------------------------------------B-------------------------------------------oo--------------
--------------------------------B-B--#--B-B-B--------B-----B---BB------------------------------------BB----------------------------------------------------------------##
-------------Bo-B---------------B----#-BBoB----B----oBoooooB---B----------------e-------------------BBBBBBB--------------------------------------------e-------B------###
--------------------------------B----#--BBB-----B---BBBBBBBB--B--------------e-pP-------------#---B-BB---------------e--------------------------------pP----BBBBB?B--####
---------------------#-#------------##--------------------------------------pP-pP-------####--##--------------------pP--------------------------------pP-------------####
---------------------#-#------------##--------------------------------------pP-pP------###----##-------------#------pP--------------------------------pP-------------####
-------------------#-#-#------------##--------------------e----------e------pP-pP------###----##-----------e-#------pP-------e--------------------e-e-pP-------------####
#################################################################################--######-----##--#######################################################################
#################################################################################--######-----##--#######################################################################
#################################################################################--######-----##--#######################################################################
