---------------------------------------------------------------------------------------------------------------------------------------------------------------------------
---------------------------------------------------------------------------------------------------------------------------------------------------------------------------
---BBBBBBBBBBBBBBBBBBBBBBBBBBBBBBBB----------------------------------------------------------------------------------------------------------------------------------------
---------------------------------------------------------------------------------------------------------------------------------------------------------------------------
-------------------------------------------------------------------------------------------------------------------------------------------------------------------xxx-----
-------------------B---------------BB--xx---B---------------------------------------------------------------------------------------------------------------------xx##xx---
--------------------------------------xx-xxx---------------------------------------------------------------------------------------xxx--xx-----------------------xx-##--x--
--------------xx---------------------xx-----x---------------------------------------------------------e------------------------xxxxBB-x-x-xxx--------------------x-###---x-
--------------x-xx-------------------x-------x----------xxx-----------------------xx------------------------------------------x#####---x--BB-x---xx-------------x-####----x
----------xxxx--#-x------B???------xxB----pP--xxx------xxpPxx------B--------------x-x---------------B------------------------x######-BBB------x--x-xx----------x#-####-----
----------x###--#--x--------------xpP-----pP--pP-x----xx-pP--x-----xxxx--------xxx---xxx------------------xxxx--------------x#######-----------xx-pP-x--------x##-####-----
---------x-###--#---x--------x----xpP-----pP--pP--x---x--pP---x----xpP-x-------xpP---pP-x-----------------xpP-x------------x########-----------pP-pP--x------x###-####-----
--xxxxxxx#-###--#----xxxxxxxx-xxxxxpP---e-pP--pP-eexxx---pP----xxxx-pP--xxxxxxxepP---pP--xxxxxxxxxxxxxxxxx-pP--xxxxxxxxxxxx#########-----------pP-pP---xxxxxx####-####-----
##############-##############-###############################################################################--##################-#------########################-#########
##############-##############-###############################################################################--##################-#------########################-#########
##############-##############-###############################################################################--##################-#------########################-#########
