---------------------------------------------------------------------------------------------------------------------------------------------------------------------------
---------------------------------------------------------------------------------------------------------------------------------------------------------------------------
---BBBBBBBBBBBBBBBBBBBBBBBB--BBBBBBBBBB------------------------BBBBBBBBBBBBBBBBBBBBBBBBBBBBBBBBBBBBBBBBBBBBBBBBBB------BB--BBBBBBBBBBB-----BBBBBBBBBBBBBBBBBB--BBBBBBBBBBBB
---------------------------------------------------------------BBBBBBBBB-------------------------B-------------------------------------------------------------------------
---------------------------------------------------------------BBBBBBBBB-------------------------B-----------------#-------------------------------------------------------
-----------------------B---------------BBBB-----------------BBBBB---B----------------------------B------------------xx--------------------B--------------------------------
-------------xx------xx-----------------------------------------B--------------------------------------------------xx-xxx--------------------------------------------------
-------------x-x----xx-xxx-----xx-------------------------------B-------------------------------------------------xx-----x-----------------------------------x-------------
---------xxxx---x--xx-----xx--xx-xxx-------------------------e-oB---------xx---------------------------------e----x-------x----------xxxx-B----------------xx-x------------
--------xx-pP--#-x-x------#-x-x--pP-x---------------B-------BBBBBBBBBBBBBxx-xxx----xxx-----------BBB-----------xxx---------xx-------x###-x----------------x##--x-----------
-------xx--pP--#--x-------#--x-#-pP--x---------------------------BBBBBB-xx#--##xxxx##-x-----------------------x###---------#-x----xx####--x--e-----------x###---x-x--xx-x-x
-------x---pP--#-p#-------##-#-#-pP---x--------------------------BBBBBBBx-#--########--x----------------------x###---------#--x---x#####---x---xx------xx####----x-xx#-x-x-
--xxxxx----pP--#-pP-------####-#-pP----xxxxxxxxxxxxxxxxxxxxxxxxxxxxxxxxx--#--########---xxxxxxxxxxxxxxxxxxxxxxx###---------#---xxx-#####----xxxB-xxxxxx######--#-#-###-#-##
#######--###########################################################################--###########################---------#############----##################-#############
#######--###########################################################################--###########################---------#############----##################-#############
#######--###########################################################################--###########################---------#############----##################-#############
