12	2
12	3
12	4
12	5
11	6
10	6
10	7
11	8
12	9
12	10
12	11
12	12
12	13
11	13
10	13
9	14
9	15
10	16
11	17
12	18
12	19
12	20
12	21
12	22
12	23
12	24
12	25
12	26
12	27
12	28
12	29
12	30
12	31
12	32
12	33
12	34
12	35
12	36
12	37
12	38
12	39
12	40
12	41
12	42
12	43
12	44
12	45
12	46
12	47
12	48
12	49
12	50
12	51
12	52
12	53
12	54
12	55
12	56
12	57
12	58
12	59
12	60
12	61
12	62
12	63
12	64
12	65
12	66
12	67
12	68
12	69
12	70
12	71
12	72
12	73
12	74
12	75
12	76
12	77
12	78
12	79
12	80
12	81
12	82
12	83
12	84
12	85
12	86
12	87
12	88
12	89
12	90
12	91
12	92
12	93
12	94
12	95
12	96
11	97
10	97
10	98
10	99
10	100
11	101
12	102
12	103
12	104
12	105
12	106
12	107
11	108
10	109
9	110
8	111
7	112
6	113
6	114
6	115
5	116
4	117
4	118
4	119
5	120
6	121
7	122
8	123
9	124
10	125
11	126
12	127
12	128
11	129
11	130
10	131
9	132
8	133
7	134
8	135
9	136
10	137
11	138
10	139
9	140
8	141
7	142
6	143
6	144
6	145
7	146
8	147
9	148
10	149
11	150
12	151
12	152
12	153
12	154
12	155
12	156
12	157
12	158
12	159
11	160
10	160
10	161
10	162
11	163
12	164
12	165
12	166
12	167
12	168
11	169
