----------------------------------------------------------------------------------------------------------------------------------------------------------------------------
----------------------------------------------------------------------------------------------------------------------------------------------------------------------------
---BBBBBBBBBBBBBBBBBBBBBBBBBBBBBBBBBBBBBBBBBBBBBBBBBBBBBBBBBB----BBBBBBBBBBBBBBBBBBBBBBBBBBBBBBBBBBBBBBBBBBBBBBBBBB----BBBBBBBBBBBBBBBBBBBBBBBBBBBBBBBBBBBB----------BB-----
---------------------------B----------------BBBB-BBBBB-----------------------------------------------------------------------------------------------------------#----------
---------------------------B-----------xx---BBBB-BBBBB------------------------------------------------------------------------------------------------------------#---------
--------------xx--------xx-B-ooo-oooox-x-x----------------------xx------xx----------------------------------------------------------------------xx-----------------##-------
-------------xx-xxx----xx-xxxxxxxxxxx-x---x--------------------xx-xxx--xx-x--------xx----------------------------------------------------------xx-xxx-----------------------
------------xx-----x--xx----BBBBBBBBB-B----x-----------x------xx-----x-x---xxxx-x--x-x--------------------------------------------------------xx-----x--------x-x-x---------
------------x-------x-x-----BB-BBBBBB?B-----xxxxxxxxxxx-x-----x-------x----BBB-x-xx---x--------xx------------------x--------------------------x-----e-x--xxxxx-x-x-x---BBBBo
-----------x--#------x--#---BB--B-B-BBB-----BBBBBBBBBBB--xx-xx-------pP--------B-pP----xx-----xx-xxx-------------xx-x-----------------------xx-----pP--xx#####-#-#--x-------
----------x#--##-#---#--##-B----------------BB------BB---#-x##-------pP----------pP----#-x---xx#--pPx----------xx##--x----xxxx---------e---xpP-----pP--#######-------x------
----------x#--##-#---#--##------------------BB------BB---#-###-------pP----------pP----#--x--x-#--pP-x--------x####---x---xpP-x------------xpP-----pP--#######--------x----x
--xxxxxxxxx#--##-#---#--##----e---------------------B----#####-------pP----------pP----#---xx--#-epP-exxxxxxxx#####----xxx-pP--xxxxxxxxxxxxxpP-----pP--B######---------xxxx-
#############-#########-#####################################---#######---#########--#############################-----##############################--######----------#####
#############-#########-#####################################---#######---#########--#############################-----##############################--######----------#####
#############-#########-#####################################---#######---#########--#############################-----##############################--######----------#####
