--------------------------------------------------------------------------------------------------------------------------------------------------------------------------
--------------------------------------------------------------------------------------------------------------------------------------------------------------------------
---BBBBBBBBBBBBBB---------------------------------------------------------------------------------------------------------------------------------------------------------
--------------------------------------------------------------------------------------------------------------------------------------------------------------------------
--------------------------------------------------------------------------------------------------------------------------------------------------------------------------
------------------BBBBBBBBBBBBBBBBBBBBBBBBBBBBBBBBBBBBBBBBB---------------------------------------------------------------------------------------x-----------------------
---------------------------------B--------------------------------------------xx-----------------------------------------------------------------x-x----------------------
--------------xx-------------------------------------------------------------xx-xxx-------------------------------------------------------------x#--x---------------------
--------------x-x----------------------------------------xxe----------------xx-----xx----------------------------------------------------------x##---xxx------------------
--------xx--xx---xxx------------------------------------xx-xxx--------------x-----pP-x--------------------------?-----------------------------x###---##-x-----------------
-------xx-xx##---pP-x-----------------------xx---------xx-----x-e--xxxx---xxe-----pP--x-------------xxxx-----------e-------------------------x####---##--x----------------
-------x-#####---pP--x----------x-----------x-x----x---x-------x---xpPex--xpP-----pP---x----B-------xpP-x-----------------------------------x#####---##---xe-------------x
--xxxxx--######--BP---xxxxxxxxxx-xxxxxxxxxxx---xxxx-xxx---------xxx-pP-exx-pP----epP----xxxxxxxxxxxx-pP--xxxxxxxxxxxxxxxxxxxxxxxxxxxxxxxxxxx######---##----xxxxxxxxxxxxxxe
#######--#######################-###########---####-###------#############################################################################################-###############
#######--#######################-###########---####-###------#############################################################################################-###############
#######--#######################-###########---####-###------#############################################################################################-###############
