12	2
12	3
12	4
12	5
12	6
12	7
12	8
12	9
12	10
12	11
12	12
12	13
12	14
12	15
12	16
12	17
11	18
10	18
10	19
11	20
12	21
12	22
12	23
12	24
12	25
12	26
12	27
12	28
12	29
12	30
12	31
12	32
12	33
12	34
12	35
12	36
12	37
12	38
12	39
12	40
12	41
12	42
12	43
12	44
12	45
12	46
12	47
12	48
12	49
12	50
11	50
10	50
9	51
9	52
9	53
10	54
11	55
12	56
12	57
12	58
12	59
12	60
12	61
12	62
12	63
12	64
12	65
12	66
12	67
12	68
12	69
12	70
12	71
12	72
12	73
12	74
11	74
10	74
9	75
9	76
10	77
11	78
12	79
11	80
10	80
10	81
10	82
10	83
11	84
12	85
12	86
12	87
12	88
12	89
12	90
12	91
12	92
12	93
12	94
12	95
12	96
12	97
12	98
12	99
12	100
12	101
12	102
12	103
12	104
11	104
10	104
9	105
9	106
9	107
10	108
11	109
12	110
12	111
12	112
12	113
12	114
12	115
12	116
11	117
10	117
10	118
11	119
12	120
12	121
11	122
10	122
9	122
8	122
8	123
8	124
8	125
9	126
10	127
11	128
12	129
12	130
12	131
12	132
12	133
12	134
12	135
12	136
12	137
12	138
12	139
12	140
12	141
12	142
12	143
12	144
12	145
12	146
12	147
12	148
12	149
11	150
10	151
9	152
8	153
7	154
6	155
5	156
4	157
4	158
3	159
4	160
5	161
6	162
7	163
8	164
9	165
10	166
