---------------------------------------------------------------------------------------------------------------------------------------------------------------------------------------------
---------------------------------------------------------------------------------------------------------------------------------------------------------------------------------------------
---BBBBBBBBBBBBBBBBBBBBBBBBBBBBBBBBBBBBBBBBBBBBBBBBBBBBBBBBBBBBBBBBBBBBBBBBBBBBBBBBBBBBBBBBBB------BB----------------------------------------------------------------------------------------
-------------------B---------------------------------------------------------------------------#e--------------------------------------------------------------------------------------------
-------------------B----------------------------------------------------------------------------#--B-----------------o-----------------------------------------------------------------------
---------------------------------------------------------------------------------------------------?B---------------B?BB----------------###--------------------?-?-----------BB--------------
------------------------------------------------------------------------------------------------------------------------------------o---###--------------------------------------------------
----------------------------------------------------------------------------------------------------------------------------------------###--------------------------------------------------
----------------e----------------------------------------------------------------------B----------B-------------e----------------------####--------------------------------------------------
---------------pP--------???----------------------------------------B----------------e-----##-##--BBB-----B----pP-?-B?B---------------#####-----------------?--?BB--????-----B??B------------
---------------pP----------------------------------------e--------------------#-----pP---####------------------pP---------------e----######--------------------------------------------------
-------------#-pP---------------#-----------------------pP--------------------#-----pP---####------------------pP--------------pP----######--------------------------------------------------
-------------#-pP---------------#------------e-------e--pP-----------------e-e#e----pP---####-----------e------pP---------e#---pP---#######------#---------------------------------ee-----e--
##########--#################--########--####################-##############################------##########################################################################################-
##########--#################--########--####################-##############################------##########################################################################################-
##########--#################--########--####################-##############################------##########################################################################################-
