----------------------------------------------------------------------------------------------------------------------------------------------------------------------------
----------------------------------------------------------------------------------------------------------------------------------------------------------------------------
------BBBBBBBBBBBBBBBBBBBBBBBBBBBBBBBBBBBBBBBBBBBB---BBBB-------------------------------------------------------------------------------------------------------------------
-----------------------B----------------------------------------------------------------------------------------------------------------------------------------------------
-----------------------B----------------------------------------------------------------------------------------------------------------------------------------------------
----------------------------------xx----------------B----BBBBB----------------------------------?---------------------------------------xB-?--o--------?--------------------
--------------------------o------xx-xxx------------xx---------------------xx-----------------------------------------------------------x-x----------------------------------
------------------------xx------xx-----x-x-x--xx---x-x--------------------x-xx--------------------------------------------------------xB--x---------------------------------
----------------x-x----xx-xxx---x-------x-x-x-x-xxx-B-x------------------x--#-xxx------------------------------------------xx--x-----x##---xx--BBBBB-BB-?-------------------
----------?-----xx-x--xx-----xxx-------pP-B--x--###----x-------xxx------x#--####-x----?---------B--------------------------x-xx-x---x###-B-B-x--------BB------------------B-
---------------x-#--x-x---#--###-e-#-#-pP----#--###-----xx----xpP-x----x###-####--x-------------------------------e-----xxx--pP--x-x####------x-----------xxxx--------------
--------------x#-#---x----#--###-#-#-#-pP----#--###----pP-x---xpP--x--x####-####---x------------------------------------xpP--pP---x#####-------x----------xpP-x------------x
--xxxxxxxxxxxx##-#---#----#--#####-#-#-pP----#--###----pP--xxxxpP---xx#####-####----xxxxxxxxxxxxxxxxxxxxxxxxxxxxxxxxxxxx-pP#-pP---######--B-----xxxxxxxxxx-pP--xxxxxxxxxxxx-
##################################################---#####################--###--######################################################--------#############################
##################################################---#####################--###--######################################################--------#############################
##################################################---#####################--###--######################################################--------#############################
