12	2
12	3
12	4
12	5
12	6
11	7
10	7
10	8
11	9
12	10
11	11
10	11
10	12
9	12
9	13
8	13
8	14
9	15
9	16
9	17
10	18
10	19
11	20
12	21
12	22
12	23
12	24
12	25
12	26
12	27
11	27
10	27
9	28
9	29
9	30
10	31
10	32
10	33
10	34
11	35
11	36
10	37
10	38
10	39
9	40
10	41
10	42
9	43
8	44
7	45
7	46
8	47
9	48
10	49
11	50
12	51
12	52
12	53
12	54
12	55
12	56
11	57
10	57
10	58
9	58
9	59
8	59
8	60
8	61
9	62
9	63
10	64
11	65
12	66
12	67
12	68
12	69
12	70
12	71
12	72
12	73
12	74
12	75
12	76
12	77
12	78
12	79
12	80
12	81
12	82
12	83
12	84
12	85
12	86
12	87
12	88
12	89
12	90
12	91
11	92
10	92
10	93
9	93
9	94
8	94
8	95
8	96
9	97
9	98
10	99
11	100
12	101
12	102
12	103
12	104
11	105
10	105
10	106
10	107
10	108
11	109
12	110
12	111
11	112
10	113
9	114
8	115
7	116
6	117
6	118
5	119
4	119
4	120
5	121
6	122
7	123
8	124
9	125
10	126
9	127
8	127
8	128
7	128
7	129
6	129
6	130
7	131
7	132
7	133
8	134
8	135
8	136
9	137
10	138
11	139
12	140
12	141
12	142
11	143
10	143
10	144
10	145
10	146
11	147
12	148
12	149
12	150
11	151
10	152
9	153
8	154
7	155
6	156
5	157
4	158
4	159
4	160
4	161
5	162
6	163
7	164
8	165
9	166
10	167
11	168
11	169
12	170
11	171
