12	2
12	3
12	4
12	5
12	6
12	7
12	8
12	9
12	10
12	11
12	12
12	13
12	14
11	15
10	15
10	16
9	16
9	17
8	17
8	18
9	19
9	20
9	21
10	22
11	23
12	24
12	25
12	26
12	27
12	28
12	29
12	30
12	31
12	32
12	33
12	34
12	35
12	36
12	37
12	38
12	39
12	40
12	41
12	42
12	43
11	43
10	43
9	44
8	45
8	46
8	47
9	48
10	49
11	50
12	51
12	52
12	53
12	54
11	55
10	55
10	56
10	57
10	58
11	59
12	60
12	61
12	62
12	63
12	64
12	65
12	66
12	67
12	68
12	69
12	70
12	71
12	72
12	73
12	74
12	75
12	76
12	77
12	78
12	79
12	80
12	81
12	82
12	83
12	84
12	85
12	86
11	87
11	88
10	89
10	90
9	91
8	91
8	92
8	93
9	94
10	95
10	96
10	97
9	98
8	99
7	99
7	100
8	101
9	102
9	103
8	104
7	104
7	105
6	105
6	106
7	107
8	108
9	109
9	110
9	111
10	112
11	113
12	114
12	115
12	116
12	117
12	118
12	119
12	120
12	121
12	122
12	123
12	124
12	125
12	126
11	127
12	128
12	129
12	130
12	131
12	132
12	133
12	134
12	135
11	136
10	136
10	137
10	138
10	139
11	140
12	141
12	142
12	143
12	144
12	145
12	146
12	147
11	148
10	149
9	150
8	151
7	152
6	153
5	153
4	153
3	154
4	155
3	156
4	157
5	158
6	159
7	160
8	161
9	162
10	163
11	164
11	165
11	166
12	167
12	168
12	169
12	170
12	171
12	172
12	173
12	174
11	175
