----------------------------------------------------------------------------------------------------------------------------------------------------------------------------
----------------------------------------------------------------------------------------------------------------------------------------------------------------------------
---BBBBBBBBBB--BBBBBBBBBB--BBBB--BBBBBBBBBBBBBBBBBBBBBBBBBBBBBBBBBBBBBBBBBBBBBBBBBBBBBBBBBBBBBBBBBB---#---BBBBBBBBBBBBBBBBBBBBBBBBBBBBBBBBBBBBBBBBBBBBBBBBBBBBB----BB-BBBBB-
---------------------------------------BB------------------------------------------------------------#----------------------------------------------------------------------
----------------------------------------B---------------------------------------------------------------e-------------------------------------------------------------------
---------------------------------------B---B--------------------------------------------------------------------------------------------------------------------B----------B
----------------------------------------------------------------------------------------------------------------------------------------------------------------------------
----------------------------------------------------------------------------------------------------------------------------------------------------------------------------
--------------------------------------------------------------------B---------------------------------------------------------------------------------------------------BB--
-------------#-------#-----------------------------------------e---B--------e------------e-------###-#---B-------------e----------e-----------e---BB----e-------------------
-------e----##----#--#####---###------------------------#-----pP-----------pP-----------pP------####----#-------------pP--------epP---------epP--------pP-----##------------
----------#-##----##-#####-########---------------------#-----pP-----------pP-------e---pP------b###----#-------------pP-----#---pP----------pP--------pP----###------------
---------##-##--#-##-#####-#########-------------------e#-e---pP----e------pP----------epP------####----#-------------pP----##---pP----------pP--------pP----###----B-------
##############-##########-#####-#-#-#----######--##################################################-----#########################################-#############-----#---###-
##############-##########-#####-#-#-#----######--##################################################-----#########################################-#############-----#---###-
##############-##########-#####-#-#-#----######--##################################################-----#########################################-#############-----#---###-
