12	2
12	3
12	4
12	5
12	6
12	7
12	8
11	8
10	8
9	9
8	10
7	11
6	11
6	12
5	12
5	13
6	14
7	15
8	16
9	17
9	18
8	19
7	19
7	20
8	21
7	22
8	23
9	24
9	25
8	26
7	26
7	27
6	27
6	28
7	29
8	30
10	31
11	32
12	33
12	34
12	35
12	36
12	37
12	38
12	39
12	40
12	41
12	42
12	43
12	44
12	45
12	46
12	47
12	48
12	49
12	50
12	51
12	52
12	53
11	54
10	54
10	55
9	56
8	56
8	57
7	57
7	58
6	58
6	59
7	60
8	61
7	61
6	61
5	61
4	61
4	62
3	62
2	62
1	63
1	64
1	65
1	66
1	67
1	68
1	69
1	70
1	71
1	72
1	73
1	74
1	75
1	76
1	77
1	78
1	79
1	80
1	81
1	82
1	83
1	84
1	85
1	86
1	87
1	88
1	89
1	90
1	91
1	92
1	93
1	94
1	95
1	96
1	97
1	98
1	99
1	100
1	101
1	102
1	103
1	104
1	105
1	106
1	107
1	108
1	109
1	110
1	111
1	112
1	113
1	114
1	115
1	116
1	117
1	118
0	119
1	120
2	121
1	122
0	122
0	123
1	124
1	125
1	126
1	127
1	128
1	129
1	130
1	131
1	132
1	133
1	134
1	135
1	136
0	137
1	138
2	139
1	140
0	140
0	141
1	142
1	143
1	144
1	145
1	146
1	147
1	148
1	149
1	150
1	151
1	152
1	153
1	154
1	155
1	156
1	157
1	158
1	159
1	160
1	161
1	162
1	163
1	164
1	165
1	166
1	167
1	168
1	169
1	170
1	171
0	172
