12	2
12	3
12	4
12	5
12	6
12	7
12	8
11	9
10	9
10	10
10	11
11	12
12	13
11	14
10	14
10	15
9	16
9	17
8	18
7	18
7	19
6	19
6	20
7	21
8	22
8	23
8	24
8	25
8	26
8	27
8	28
8	29
8	30
9	31
10	32
11	33
12	34
12	35
12	36
12	37
12	38
12	39
12	40
12	41
12	42
12	43
12	44
12	45
12	46
12	47
12	48
11	48
10	48
9	49
8	50
9	51
9	52
9	53
8	54
7	54
7	55
6	55
6	56
7	57
8	58
9	59
9	60
9	61
10	62
11	63
12	64
12	65
12	66
12	67
12	68
11	69
10	69
10	70
11	71
12	72
12	73
12	74
12	75
12	76
11	77
11	78
12	79
12	80
12	81
11	81
10	81
9	82
9	83
8	84
7	84
7	85
6	85
6	86
7	87
8	88
9	89
9	90
10	91
11	92
12	93
12	94
12	95
11	95
10	95
9	96
9	97
8	98
7	98
7	99
8	100
9	101
9	102
8	103
7	103
7	104
8	105
9	106
9	107
8	108
7	108
7	109
8	110
9	111
10	112
10	113
11	114
12	115
12	116
12	117
12	118
12	119
12	120
12	121
11	122
10	122
9	122
8	122
8	123
7	123
6	123
5	124
6	125
7	126
8	127
9	128
11	129
10	130
9	130
9	131
8	131
8	132
7	132
7	133
8	134
8	135
8	136
9	137
9	138
9	139
8	140
7	140
7	141
8	142
8	143
7	144
6	144
6	145
7	146
7	147
7	148
7	149
7	150
7	151
8	152
9	153
10	154
9	155
8	155
8	156
9	157
9	158
10	159
9	160
8	160
8	161
9	162
10	163
9	164
8	164
8	165
8	166
7	167
6	168
5	168
4	168
3	169
