---------------------------------------------------------------------------------------------------------------------------------xx----------------------------xx--------x
---------------------------------------------------------------------------------------------------------------xxxxxxxxxxxxxxxxxx--xxxxxxxxxxxxxxxxxxxxxxxxxxxx--xxxxxxxx-
---BBBBBBBBBBBBBBBBBBBBBBBBBBBBBBBBBBBBBBBBBBBBBBBBBBBBBBBBBBBBBBBBBBBBBBBBBBBBBBBBBBBBBBBBBBBBBBBB--BBBBBB---xBBBBBBBBBBBBBBBBBB--BBBBBBBBBBBBBBBBBBBBBBBBBBBB--BBBBBBBB-
----------------BBBBBBBBBBBB----------------------------------------------------------------------------------x-----------------------------------------------------------
----------------BBBBBBBBBBBB---------------------------------------------------------------------------------xx-----------------------------------------------------------
----------------B-BBBBB---B----------------------------------B----------------------------------------------xxB-------------------B---------------------------------------
-----------------------------------------------------------------------------------------------------------xx-------------------------------------------------------------
---------------------------------------------------------------------------------------------------xx------x--------------------------------------------------------------
---------------------------------B--xx------------------B-------------------xx--------------------xx-xxx-xx---------------------------------------------------------------
-------?----------?B?BBBBBBB-------xx-xxx-------BBB-----B---xxx--B----------x-x------------------xx-----x###--------------------e------e--------------e-------#---e-------
----------xxxxxx-----BBBBBBB------xx#--pPx-----------------xpP-x----------xx---xx----------------x##----####-----e-------------##-----pP-------e-----pP------##-----------
----------x####-xx---BBBBBBB------x-#--pP-x----------x-----xpP--x---------x#--pP-x-x----x-x----xx###----####----pP------------###-----pP-pe----------pP----####-----------
--xxxxxxxx-######-xxxxxxxxxxxxxxxx--#--pP--xxxxxxxxxx-xxxxxxpP-e-xxxxxxxxxe#-epP--x-xxxx-x-xxxx#####---#####----pP--e------e-####-----pP-pP---------epP--#-####-----------
###############-#####################################-#############################-####-#-########-#######----##################--############################-##########
###############-#####################################-#############################-####-##########-#######----##################--############################-##########
###############-#####################################-#############################-####-##########-#######----##################--############################-##########
