12	2
12	3
12	4
12	5
12	6
11	7
12	8
12	9
12	10
11	11
10	11
10	12
10	13
11	14
10	15
9	15
9	16
10	17
10	18
9	19
8	19
8	20
7	20
7	21
8	22
9	23
9	24
8	25
7	25
6	25
5	25
4	25
4	24
3	24
2	24
1	25
1	26
1	27
1	28
1	29
1	30
1	31
1	32
1	33
1	34
1	35
1	36
1	37
1	38
1	39
1	40
1	41
1	42
1	43
1	44
1	45
1	46
1	47
1	48
1	49
1	50
1	51
1	52
1	53
1	54
1	55
1	56
1	57
1	58
1	59
1	60
1	61
1	62
1	63
1	64
1	65
2	66
3	67
4	68
5	69
6	70
7	71
8	72
9	73
10	74
11	75
12	76
12	77
11	77
10	77
9	78
9	79
8	80
7	80
7	81
8	82
9	83
9	84
8	85
7	85
7	86
6	86
6	87
5	87
5	88
6	89
6	90
6	91
7	92
8	93
9	94
8	95
7	95
7	96
6	97
7	98
8	99
8	100
9	101
10	102
11	103
12	104
12	105
12	106
12	107
12	108
11	109
10	110
9	110
9	111
9	112
8	113
8	114
8	115
9	116
10	117
11	118
12	119
12	120
12	121
12	122
12	123
12	124
12	125
12	126
12	127
12	128
12	129
11	130
10	130
10	131
10	132
9	133
9	134
8	135
7	136
8	137
9	138
10	139
9	140
9	141
8	142
7	142
7	143
6	143
6	144
5	144
5	145
6	146
6	147
6	148
7	149
8	150
9	151
9	152
8	153
7	153
7	154
8	155
9	156
10	157
10	158
11	159
11	160
12	161
12	162
12	163
11	164
10	164
10	165
10	166
9	167
8	168
