-------------------------------------------------------------------------------------------------------------------------------------------------------------------------
---------------------------------xxxxxxxxxxxxxxxxxxxxxxxxxxxxxxxxxxxxxxxxx---------------------------------------------------------------xx------------------------------
---BBBBBBBBBBBBBBBBBBBBBBBB--BB-xBBBBBBBBBBBBBBBBBBBBBBBBBBBBBBBBBBBBBBBB-x--BBBB-------------------------------------------------------xx-xxx---------------------------
--------------------------------x----------------------------------B-------x-----------------------------------------------------------xx-----x-------------------------x
-------------------------------xx----------------------------------B--------xx-------------e-------------------------------------------x-------x----------------------xx-
----------------------------B--xB--oooooooo--??--------------------------BBBB-x-----------BBBB---------------BBBB---------------------x##-------x--------------------x###
-------------------------------x-----------------------------------------------x---------B------------------------------------------xx###--------x------------------x####
-----------x-------------------x---B-BBBBBB-------------------------------------x--------B-----------------------------------------x#####---------x----------------x#####
--------xxx-x-x-x------------xxxe-BB-B-B-BB-B------e---e-------------------------xxxx----B-----------------------e----------------x######----------x--------------x######
-------xxpP--x-x-x-------?--xx-pP-BB------BBBB----pP--pP---------#-B--------e---####-x---BBBBB----------BB?BBBBBBBBBBBB----------x#######-----------xxx--------x-x#######
------xx-pP--#-#--xx-------xx--pP-----------------pP--pP---------#---------pP---------xxx---------xxxx--------------------------x########-----------pP-x----xxx-x########
------x--pP--#-#--#-x------x---pP-----------------pP--pP---------#---------pP--------###-x-----b--xpP-x------------------------x#########-----------pP--x---xpP-#########
--xxxx-#-pP--#-#--#--xxxxxx--e-pP---e--ee---------pP--pP---------#-----e---pP-------------xxxxxxxx-pP--xxxxxxxxxxxxxxxxxxxxxxxx##########--------#--pP---xxx-pP##########
###########-###############-#############################---####################---------############################################-###################################
###########-###############-#############################---####################---------############################################-###################################
###########-###############-#############################---####################---------############################################-###################################
