---------------------------------------------------------------------------------------------------------------------------------------------------------------------------
---------------------------------------------------------------------------------------------------------------------------------------------------------------------------
---BBBBBBBBBBBBBBBBBBBBBBBBBBBBBBBB----------------------------------------------------------------------------------------------------------------------------------------
---------------------------------------------------------------------------------------------------------------------------------------------------------------------------
---------------------------------------------------------------------------------------------------------------------------------------------------------------------------
-------------------B---------------BB-------B-----------------------------------------------------------------------------------------------------------------------##-----
--------------------------------------------------------------------------------------------------------------------------------------------------------------------##-----
------------------------------------------------------------------------------------------------------e----------------------------BB------------------------------###-----
----------------------------------------------------------e--------------------------------------------------------------------#####------BB----------------------####-----
----------------#--------B???-------eB----pP---e---------pP--------B--------------------------------B-------------------------######-BBB-----------e-----------e#-####-----
-----------###--#------------------pP-----pP--pP---------pP----------e----------------e---------------------e----------------#######------------e-pP-----------##-####-----
-----------###--#------------------pP-----pP--pP---------pP---------pP----------pP---pP--------------------pP---------------########-----------pP-pP---------e###-####-----
---------#-###--#------------------pP---e-pP--pP-ee------pP---------pP---------epP---pP------e-------------pP------------e-#########-----------pP-pP-----e---####-####-----
##############-##############-###############################################################################--##################-#------########################-#########
##############-##############-###############################################################################--##################-#------########################-#########
##############-##############-###############################################################################--##################-#------########################-#########
