-------------------------------------------------------------------------------------------------------------------------------------------------------------------------
-------------------------------------------------------------------------------------------------------------------------------------------------------------------------
---BBBBBBBBBBBBBBBBBBBB--BBBBBBBBBBBBBBBBBBBBBBBBBBBBBBBBBBBBBBBB--BBBBBBBBBBBBBBBBBBBBBBBBBBBBBBBB--BBBBBBBBBBBBBB----BBBBBBBBBBBBBBB---BBBB------BBBBBBBBBBBBBBBBBBBBB-
-------------------------------------------------------------------------------------------------------------------------------------------------------------------------
--------------------------------------------------------------------------------------e----------------------------------------------------------------------------------
-----------------B-----BB----oo---?B???------B---B------------o----------------B--------------------B------------------oo------------------------------------------------
-------------------------------------------------------------------------------------------------------------------------------------------------------------------------
----------------------------BBB-B-------------------------------------------------------------------------------------BBB------------------------------------------------
------------------------------BoB--------------------------------pe--e--------------------------B----------------------BBBB----------------------------------------------
------------------------eBB---BB--?????--------------------------pP-pP---------e----e---------e----#-------------##--------------------#---------#--#---e----------------
----------------e-e----pP-------------------e----e---------------pP-pP--------pP---pP--#--e--pP---###----------#####-----------------###----##------#--pP--------------##
------------#----pP----pP------------------pP--------------------pP-pP--------pP---pP--#-----pP---###----------#####---------------#####---###------#--pP----#--e----####
------------#-#--pP----pP---ee-------------pP--------e-----------pP-pP-----e--pP---pP--#-----pP---###-------e#-#####-----------e--e#####---###------#--pP----#-#-----####
#######-###########################################################################################################---#################---###-------#####################
#######-###########################################################################################################---#################---###-------#####################
#######-###########################################################################################################---#################---###-------#####################
