--------------------------------------------------------------------------------------------------------------------------------------------------------------------------------
--------------------------------------------------------------------------------------------------------------------------------------------------------------------------------
---BBBBBBBBBBBBBBBBBBBBBBBBBBBBBBBBBBBBBBBBBBBBBBBBBBBBBBBBBBBB--BB--BBBBBBBBBBBBBBBBBBBBBBBBBBBBBBBBBBBBBBBBBBBBBBBBBB---------------------------------------------------------
---------------------BBBB-BBB---------------------------BB----------------------------------------------------------------------------------------------------------------------
---------------------BBBB-BBB---------------------------BB-----------------------------------------------------------------------------------------xxx--------------------------
---------------------BB-B--BB----??-----??--------?-------------------oooooooooooooooooooo-oooooooooooooooooooooo-o--------------------------x----xx-Bxx------------------------
----------------------------B----------------------------------------------------------------------------------------------------------------xx--xx-----x-----------------------
----------------------------B-----------------B-----------------xx---BBBBBBBBBBBBBBBBBBBBBBBB-B-B-B-BBBBB-BBBBB-B-B-B-B---------------------x--x-x-------x---------------------x
--------------------xx---?BoB--------------------------eoo?-----x-xx--BBBBBBBBBBBBBBB-BBBBBBB-B-BBBBBBB-B-BBBBBBBBBBBBBBBBBBB--------------x#---x---------x------------------xx-
--------------------x-xxB-BBB-B????-??????------?????---BB----xx--#-x-----B-------B-------------------------------------------------------x##---#----------xx----------------xpP
------------------xx--B-x------------------------------------x##--##-x-------------------------------------------------------------------x###---##----e---pP-x---------------xpP
------------------x#--B--x-----------------------------------x##--##--x--------------------------------------------------------B----e---x####---##---pP---pP--x--e-----x-----xpP
--xxxxxxxxxxxxxxxx-#--B-ooxxxxxxxxxxxxxxxxxxxxxxxxxxxxxxxxxxxx##--##---xxxxxxxxxxxxxxxxxxxxxxxxxxxxxxxxxxxxxxxxxxxxxxxxxxxxxxxxxxxxxxxxx#####-e-##---pP---pP---xxxxxxxx-xxxxx-pP
####################--##########################################--#####################################################################################-###############-########
####################--##########################################--#####################################################################################-###############-########
####################--##########################################--#####################################################################################-###############-########
