-----------------------------------------------------------------------------------------------------------------------------------------------------------------------------
-----------------------------------------------------------------------------------------------------------------------------------------------------------------------------
---BBBBBBBBBBBBBBBBBBBBBBBBBBBBBBBBBBBBBBBBBBBBBBBBBBBBBBBBBBBBBBBBBBBBBBBBBBBBBBBBBB--BBBBBBBBBBBBBBBBBBBBBBBBBBBBBBBBBBBBBBBBBBBB------------------------------------------
---------BBBBBBBBBBBBBBBBBB---BB----------------B-------BBBBBB---------------BBB---------------------------------------------------------------------------------------------
---------BBBBBBBBBBBBBBBBBB---BB----------------B-------BBBBBB---------------BBB---------------------------------------------------------------------------------------------
---------BBBBBBBBBBBB-BBB----B--------------------------------B??------------------------B------------------------------------------------------------------##---------------
-----------------------------B-----------------------------------------------------------------------------------------------------------------------------###---------------
-----------------------------B----------------------------------------------------------------------------------------------------------------------------####---------------
-----------------------------Bo--------------------------?oo---------------------------B----------------------pe---------------------#--e---------------e#####---------------
-------?-B?B?B???????BBBBBB--BBB-?-?-??------------B?---BBBBBBBB???----------BBB----------e----------------e--pP-----e--------------##-pP--------------pP#####---------------
------------------B--BBBBBB---BB-----------####-------------BB---------------------------pP---------------pP--pP----pP------------####-pP--------------pP#####---------------
------------------B--BBBBBB---BB-----------####-------------BB---------------------------pP---------------pP--pP----pP-----------#####-pP------------#-pP#####---------------
----------oooooooo-o-----------B---------ee####----------------------------------------e-pP-------------e-pP--pP----pP-ee-------######-pP-----------##-pP#####-------#-------
#############################################----################################-----###########################--################-#--#####################################-
#############################################----################################-----###########################--################-#--#####################################-
#############################################----################################-----###########################--################-#--#####################################-
