--------------------------------------------------------------------------------------------------------------------------------------------------------------------------
--------------------------------------------------------------------------------------------------------------------------------------------------------------------------
---BBBBBBBBBBBBBBBBBBBBBBBBBBBBBBBBBBBBBB------BBBBBBBBBBBBBBBBBBBBBBBBBBBBBBBBBBBBBBBBBBBBBBBBBBBBBBBB--BBBBBBBBBBBBBBBBBBBBBBBBBBBBBBBBBBBBBBBBBBBBBBBB-----------------
--------------------------------B--------------BB------------------------------------------------------------------------------------------------BB----------------x------
--------------------------------B--------------BB------------------------------------------------------------------------------------------------BB--------xx-----x-x-----
-------------------ooooo-oo------------------BBB-------------B-----------------------------------------------------------------------------------BBB------xx#xxx-x#--x----
----------------------------------------------------------------------------------------------------------------------xx-----xx--------------------------xx-----x##---x---
--------------xx---BBBB-BBB-------------------------------------------------------------------xx--------------xx-----xx-xxx--x-x-------------------------x------###----x--
----------xx--x-xx-BBBB--BBo----o?---------------------------------B-----B-------------------xx-x------------xx-xx--xx-----xx---x----------------------xx-------###-----x-
---------xx#xx-pP-B--BB-BBBB----BB-------xxx--BBB-----xxx-------------xxx----------xxx-------x---xxx--------xx-e--x-x------pP----xxx----------xx--B-xxx##-----B####------x
--------xx-#-#-pP-x--------------------xx##-x--------xpP-x-------xx--xpP-x--------xpP-x---xxx----pP-x-------xepP---x-------pP----pP-x----e---x#-x---x####------####-------
--------x--#-#-pP--x-----------------xx###---x-------xpP--x------x-x-xpP--x-------xpP--x--xpP----pP--x-----x--pP---#-------pP----pP--x-----xx##--x-x-####------####-------
--xxxxxx---#-#-pP---xxxxxxxxxxxxxxxxx#####----xxxxxxxxpP---xxxxxx---xxpP---xxxxxxxxpP---xx-pP----pP---xxxxx#--pP---#---#---pP--e-pP---xxxxx####-#-x#-####------####-------
#########################################----####################--#################################################################--########--#########------###########
#########################################----####################--#################################################################--########--#########------###########
#########################################----####################--#################################################################--########--#########------###########
