---------------------------------------------------------------------------------------------------------------------------------------------------------------------------
-----------------xxxxxxxxxxxxxxxxxxxxxxxxxxxxxxxxxxxxxxx-------------------------------------------------------------------------------------------------------------------
---BBBBBBBBBBBB-xBBBBBBBBBBBBBBBBBBBBBBBBBBBBBBBBBBBBBB-xBBBBBBBBBBBBBBBBBBBBBBBBBBBBBBBBBBBBBBBBBBBBBBBBBBBBBBBBBB--------------------------------------------------------
----------------x--------------------------B-------------x-----------------------------------------------------------------------------------------------------------x-----
---------------xx--------------------------B--------------x--------------------------------------------------------xx-------------------------xxx-----------------xxx-x----
--------------xBB--------------------------B------------B--xoooo-ooooooooooooooooooooooooooooooooooooooxooxooxoxoxox-x----------------------xx##-x---------------x###--x---
--------------x---------------------------------------------xxxxxxxxxxxxxxxxxxxxxxxxxxxxxxxxxxxxxxxxxxx-xx-xx-x-x-x---x--------------------x####--x------------xx####---x--
--------------xx-------------------------------------------BBBBBBBBBBBBBBBBBBBBBBBBBBBBBBBBBBBBBBBBBBBB-BB-BB-B-B-B----x------------------x#####---x----------x######----x-
--------------Bx--------------B----------------------------BBBBBBBBBBB-BBBBBBBBBBBBBBBBBBBBBBBBBBBBBBBBBBBBBBBBBBBB-----x----------------x######----x--------x#######-----x
---------------xe---------------------------------e----pPB----B---B-----------BB--------------------B--------------#-----x--------------x#######-----x-----xx########------
-------xx--xx-xpP--------#---e-----------#e----#-pP----pP----------------------------------------------------------#------xxx---B------x########------x---x##########------
-------x-x-x-xxpP---#----#---------------#-----#-pP----pP----------------------------------------------------------#-#----pP-x--xx----x#########-------x-x###########------
--xxxxx---x---xpP---#----#-----e---------#-----#-pP----pP--------e---------------------------e---------------------#-b----pP--xxB-xxxx##########--------x############------
#######---#--################################################################################################################################-############################-
#######---#--################################################################################################################################-############################-
#######---#--################################################################################################################################-############################-
