---------------------------------------------------------------------------------------------------------------------------------------------------------------------------
---------------------------------------------------------------------------------------------------------------------------------------------------------------------------
---BBBBBBBBBB--BBBBBB--BBBBBBBBBBBBBBBBBBBBBBBBBBBBBBBBBBBBBBBBBB----BBBBBBBBBBBBBBBBBB--BBBBBBBBBBBBBBBBBBBBBBBBBBBBBBBBBBBBBBBBBBBBBBBB----BBBBBBBBBB----BBBBBBBBBBBBB---
---------------------------------------------------B-----------------------------------------------------------------------------------------------------------------------
----------------------------------------------------------------------------------------e----------------------------------------------------------------------------------
----------------------------------------?-------------------?---------------------------B----------------------------------------------------------------------------------
---------------------------------------------------------------------------------------------------------------------------------------------------------------------------
--------------------------B-B----------------------------------------------------------------------------------------------------------------------------------------------
--------------------------BoB-----------------------------------------------------------e---------------------------e---------B--------------B-----------------------------
-------------#--#-------BBBBB?BB?-------???---------#------B?---?----------------------pPB------------------B---e--pP-------e----------------------------------------------
-----------####-##-##--B-----------------------pP--##------------------e---------------pP-----------##-#-####--pP--pP------pP----#-----###-----#------##---------------##--
-----------####-##-##----------------e-------e-pP--##----------------------------------pP---------######-####--pP--pP------pP----###-#####-----#-----###-#------------###--
---------e-####-##-##------------e-e-e-------e-pP--##----------e--------------ee---e---pP----o----######-####--pP--pP------pP----###-#####-----#--e-####---------ee--####--
##############--#####-###########################--##############---#################################-#####-#############################---###########---B#############---
##############--#####-###########################--##############---#################################-#####-#############################---###########---##############---
##############--#####-###########################--##############---#################################-#####-#############################---###########---##############---
