------------------------------------------------------------------------------------------------------------------------------------------------------------------------
------------------------------------------------------------------------------------------------------------------------------------------------------------------------
------------------------------------------------------------------------------------------------------------------------------------------------------------------------
------------------------------------------------------------------------------------------------------------------------------------------------------------------------
---------------------------------------------------------------------------------------------------------------------o--------------------e-----------------------------
----------------------------------------------------------------------------------------------------------###-------B?-------------------pP-----------------------------
----------------------------------------------------------------------------------------------------------###----------------------------pP-----------------------------
----------------------------------------------------------------------------------------------------------###----------------------------pP-----------------------------
----------------------------------------------------------------------e--------oo--------------------#--#####----------------------------pP----------------------------#
-------------#------------------e-----------Bo---------------?-------pP-----------------------------##-######-------B?---------------pP---##---------##---e-----------##
-----------e-#----pP-----------pP--e---------------------------------pP---------------e------------###-######-------------------e----pP--------------##-BpP---------#-##
-------------#--#-pP-----------pP------------------------------------pP--------------pP-----------####-######------------------pP----pP--------------##--pP--------##-##
-------------#--b-pP-----e-----pP------------------------------------pP-e------------pP-e-e-e----#####-######----------e---#--epP----pP------------e-##--pP-------###-##
#####--###############################################################################################-##-###########################################################-##
#####--###############################################################################################-##-###########################################################-##
#####--###############################################################################################-##-###########################################################-##
