12	2
12	3
12	4
12	5
12	6
12	7
12	8
12	9
12	10
12	11
12	12
12	13
12	14
12	15
12	16
12	17
12	18
11	19
10	20
9	20
9	21
8	22
9	23
9	24
10	25
11	26
12	27
12	28
12	29
12	30
12	31
12	32
12	33
12	34
12	35
11	35
10	35
9	36
8	36
7	36
6	37
5	37
4	37
3	38
4	38
3	38
2	38
1	39
1	40
1	41
1	42
1	43
1	44
1	45
1	46
1	47
1	48
1	49
1	50
1	51
1	52
1	53
1	54
1	55
1	56
1	57
1	58
1	59
1	60
1	61
1	62
1	63
1	64
1	65
1	66
1	67
1	68
1	69
1	70
1	71
1	72
1	73
1	74
1	75
1	76
1	77
1	78
1	79
1	80
1	81
1	82
1	83
1	84
1	85
1	86
1	87
1	88
1	89
2	90
3	91
4	92
5	93
6	94
7	95
8	96
9	97
10	98
11	99
12	100
12	101
12	102
12	103
12	104
12	105
12	106
12	107
11	108
10	108
10	109
10	110
11	111
12	112
12	113
12	114
12	115
11	115
10	115
9	116
9	117
9	118
10	119
11	120
12	121
12	122
12	123
12	124
12	125
12	126
12	127
12	128
12	129
12	130
12	131
12	132
12	133
12	134
12	135
12	136
12	137
12	138
12	139
12	140
12	141
12	142
12	143
12	144
12	145
12	146
11	147
10	147
10	148
9	148
9	149
8	149
8	150
8	151
9	152
9	153
10	154
11	155
12	156
12	157
12	158
12	159
12	160
12	161
12	162
12	163
11	164
10	164
9	164
8	164
8	165
7	166
6	167
5	168
