----------------------------------------------------------------------------------------------------------------------------------------------------------------------------
----------------------------------------------------------------------------------------------------------------------------------------------------------------------------
---BBBBBBBBBBBBBBBBBBBBBBBBBBBBBBBBBBBBBBBBBBBBBBBBBBBBBBBBBBBBBBBBBBBBBBBBBBBBBBBBBBBBBBBBBBBBBBBBBBBBBBBBBBBBBBBBBBBBBBBBBBBBBBBB--------BB-------------------------------
-------------------------------BBB---B-----------------------------------------------------------------------------------------------------B--------------------------------
-------------------------------BBB---B-----------------------------------------------------------------------------------------------####--B--------------------------------
-----------?-----------------------------oo-------oBB---------B-----?-------------------------o--------------------------------------------o?B------------------------------
----------------------------------------------------------------------------------------------------------------------------------------------------------------------------
-----------------------------------B---BBBB-BBB-----------------------------------------------------------------------------------------------------------------------------
------------------------------------p--BBBBoBBB-----------------------------e----------------------------------------B--------------------B---------------------------------
---------????-----------------BBBBB-pBB-BBBBBBB--B?-???------------BB?-----pP-------------e------------e------BB--------------------------BB-BB-----------------------------
---------------------------###---------------------------------------------pP------------pP-----------pP--------------------------##-####------------------------e----------
--------------------e----#####---------------------------------------------pP------------pP-----#---e-pP-------------------------###----------------------------------------
-------------e------ee########---------------------------------------------pP------------pP-----#-----pP---e-------e----ee---o-#####-------------e--e-------e---e-e--e------
#############################-#########################--####################--#############################--#--##################-------#################################-
#############################-#########################--####################--#############################--#--##################-------##################################
#############################-#########################--####################--#############################--#--##################-------##################################
