---------------------------------------------------------------------------------------------------------------------------------------------------------------------
---------------------------------------------------------------------------------------------------------------------------------------------------------------------
---------------------------------------------------------------------------------------------------------------------------------------------------------------------
---------------------------------------------------------------------------------------------------------------------------------------------------------------------
---------------------------------------------------------------------------------------------------------------------------------------------------------------------
--------------------------------------------------------------BBBBBBBB--------------------------------BBB------------------------------------------------------------
-------------------------------------------------------------------------------------------------------------------xxxxxxxxx-----------------------------o-----------
------------------------------------------------------------------------------------------------------------------xx#######-x----------------------------------------
-----xx---------------------------xxx--------------------xxx-----------------------------------------------------xx----------x-----o---------------xx----------------
----xx-xxx-----------------------xxpPxx-----------------xxpPxxBBBBBBBBB-------------------------------BBB--------x------------x------------xxx----xx-xxxxx-----------
---xx----ex----xx---------------xx-pP--x---------------xx-pP--x--------------------------------------------x--xxx--------------x----------xpP-x--xx#---pP-x----------
---x----pP-x---x-x--------------x--pP---x--------------x--pP---x-------------------------------------------xx-x###--------------x---x-----xpP--x-x-#---pP--x--------x
--x-----pP--xxx---xxxxxxxxxxxxxx-e-pP----xxxxxxxxxxxxxx---pP----xxxxxxxxxxxxxxxxxxxxxxxxxxxxxxxxxxxxxxxxxxx--x-------------------xxx-xxxxxxpP---x--#---pP---xxxxxxxx-
###----########--##########################################################################################--#-----------------#####-###############################-
###----########--##########################################################################################--#-----------------#####-###############################-
###----########--##########################################################################################--#-----------------#####-###############################-
