12	2
11	3
10	3
10	4
9	4
9	5
8	5
8	6
9	7
9	8
9	9
10	10
11	11
12	12
12	13
12	14
11	15
10	15
10	16
11	17
12	18
12	19
12	20
12	21
12	22
12	23
12	24
12	25
12	26
12	27
12	28
12	29
12	30
12	31
11	32
10	32
10	33
9	33
9	34
8	34
8	35
8	36
9	37
9	38
10	39
11	40
12	41
12	42
12	43
12	44
12	45
12	46
12	47
12	48
12	49
12	50
12	51
12	52
12	53
12	54
11	55
10	55
10	56
9	56
9	57
8	57
8	58
8	59
9	60
9	61
10	62
11	63
12	64
12	65
12	66
12	67
12	68
12	69
12	70
12	71
12	72
12	73
12	74
12	75
12	76
12	77
12	78
12	79
12	80
12	81
12	82
12	83
12	84
12	85
12	86
12	87
12	88
12	89
12	90
12	91
12	92
12	93
12	94
12	95
12	96
12	97
12	98
12	99
12	100
12	101
12	102
12	103
12	104
12	105
12	106
11	107
10	107
11	108
12	109
11	110
10	110
10	111
10	112
9	113
8	113
8	114
7	114
7	115
6	115
6	116
6	117
6	118
6	119
6	120
6	121
6	122
6	123
7	124
8	125
9	126
10	127
11	128
12	129
12	130
12	131
11	132
12	133
12	134
12	135
12	136
12	137
12	138
11	138
10	138
9	139
9	140
9	141
10	142
11	143
12	144
11	145
10	145
10	146
9	146
9	147
8	147
8	148
9	149
9	150
9	151
9	152
9	153
10	154
11	155
12	156
12	157
12	158
12	159
12	160
12	161
12	162
12	163
11	164
