--------------------------------------------------------------------------------------------------------------------------------------------------------------------
--------------------------------------------------------------------------------------------------------------------------------------------------------------------
--------------------------------------------------------------------------------------------------------------------------------------------------------------------
--------------------------------------------------------------------------------------------------------------------------------------------------------------------
--------------------------------------------------------------------------------------------------------------------------------------------------------------------
-----------------------------------------------------------------------------------------BBB------------------------------------------------------------------------
--------------------------------------------------------------------------------------------------------------------------------------------------------------------
--------------------------------------------------------------------------------------------------------------------------------------------------------------------
--------------------------------------------------------------------------------------------------------------------------------------------------------------------
-----------------------------------------------------------------------------------------BBB----------------------------##------------------------------------------
------------------------------------e----------------------------------e--------#--##-----------e----------------------###-------------#----------------------------
---#-------------------------------pP-------------------------------------------#--##----------pP---------------------#####------------#----------------------------
---#------------e-e-------ee-------pPe---e-----ee-------e--------e-------------e#--##----------pP--------------------#######--e--------#------------e---------------
#############################################################################################--#####-----###---#####################################################
#############################################################################################--#####-----###---#####################################################
#############################################################################################--#####-----###---#####################################################
