12	2
11	2
10	2
9	3
10	4
11	5
11	6
10	7
10	8
9	9
8	10
8	11
8	12
9	13
10	14
11	15
12	16
12	17
12	18
12	19
12	20
12	21
12	22
12	23
12	24
12	25
12	26
12	27
12	28
11	28
10	28
9	29
9	30
10	31
11	32
12	33
12	34
12	35
11	35
10	35
9	36
9	37
9	38
10	39
11	40
12	41
12	42
12	43
12	44
11	45
10	45
10	46
11	47
12	48
12	49
12	50
12	51
12	52
11	52
10	52
9	53
9	54
8	55
7	55
7	56
6	56
6	57
7	58
8	59
9	60
10	61
11	62
12	63
12	64
12	65
12	66
11	67
10	67
10	68
9	68
9	69
8	69
8	70
8	71
9	72
9	73
10	74
11	75
12	76
11	77
10	77
10	78
10	79
10	80
11	81
12	82
12	83
12	84
12	85
12	86
12	87
12	88
12	89
12	90
12	91
12	92
12	93
12	94
12	95
12	96
12	97
11	98
10	98
10	99
9	99
9	100
8	100
8	101
8	102
9	103
9	104
10	105
12	106
11	107
10	107
10	108
10	109
10	110
11	111
12	112
12	113
12	114
12	115
12	116
12	117
12	118
12	119
12	120
12	121
12	122
12	123
12	124
12	125
12	126
12	127
12	128
12	129
12	130
12	131
12	132
12	133
12	134
12	135
12	136
12	137
12	138
12	139
12	140
12	141
12	142
11	143
10	143
9	143
8	143
8	144
8	145
7	146
6	146
7	147
6	148
5	148
5	149
4	149
4	150
3	150
3	151
4	152
4	153
4	154
5	155
6	156
7	157
8	158
8	159
7	160
8	161
9	162
10	163
11	164
