12	2
12	3
12	4
12	5
12	6
12	7
12	8
11	9
10	9
11	10
12	11
11	12
12	13
12	14
12	15
12	16
12	17
12	18
12	19
12	20
12	21
11	22
12	23
12	24
12	25
12	26
12	27
12	28
12	29
12	30
12	31
12	32
12	33
12	34
12	35
11	36
12	37
12	38
12	39
12	40
11	41
10	41
10	42
9	42
9	43
10	44
11	45
12	46
12	47
11	48
10	48
10	49
11	50
12	51
12	52
12	53
12	54
12	55
12	56
12	57
12	58
12	59
12	60
12	61
12	62
12	63
12	64
12	65
12	66
12	67
12	68
12	69
12	70
12	71
11	71
10	71
9	72
9	73
8	74
7	74
7	75
7	76
7	77
8	78
9	79
10	80
11	81
12	82
12	83
12	84
12	85
12	86
12	87
12	88
12	89
12	90
12	91
12	92
12	93
11	94
10	94
10	95
10	96
9	97
8	97
8	98
7	98
7	99
6	99
6	100
7	101
7	102
7	103
8	104
9	105
10	106
10	107
11	108
12	109
12	110
12	111
12	112
11	112
10	112
9	113
9	114
9	115
10	116
11	117
12	118
12	119
12	120
11	121
10	122
9	123
8	124
7	125
6	126
5	127
4	128
4	129
4	130
3	131
4	132
5	133
6	134
7	135
8	136
9	137
10	138
11	139
11	140
12	141
12	142
12	143
12	144
12	145
12	146
12	147
12	148
12	149
12	150
12	151
12	152
12	153
12	154
12	155
12	156
12	157
11	158
10	158
10	159
11	160
12	161
12	162
12	163
12	164
12	165
12	166
12	167
12	168
12	169
12	170
12	171
12	172
12	173
12	174
12	175
12	176
12	177
12	178
12	179
11	180
