----------------------------------------------------------------------------------------------------------------------------------------------------------------------
----------------------------------------------------------------------------------------------------------------------------------------------------------------------
----------------------------------------------------------------------------------------------------------------------------------------------------------------------
----------------------------------------------------------------------------------------------------------------------------------------------------------------------
----------------------------------------------------------------------------------------------------------------------------------------------------------------------
----------------------------------------------------------------------------------------------------------------------------------------------------------------------
----------------------------------------------------------------------------------------------------------------------------------------------------------------------
----------------------------------------------------------------------------------------------------------------------------------------------------------------------
----------------------------------------------------------------------------------------------------------------------------------------e-----------------------------
----------##--------B------------------------------------e-----------------------------------e---------------------------------#-------pP----------e------------------
---------###--------------------------------------------pP----e-------------------#---------pP---------------------------------#-------pP--------epP------------------
---#-#--#####-------------------------------------------pP---pP-------------------#---------pP-----------e---------------------#-------pP-------pPpP-------#----------
---##########-----------------------------------e-------pP---pP------eee----------#---------pP----eee----ee----ee-------ee-----#-------pP-------pPpP-------#---e-----#
################################################################################--####################################################################################
################################################################################--####################################################################################
################################################################################--####################################################################################
