--------------------------------------------------------------------------------------------------------------------------------------------------------------------
--------------------------------------------------------------------------------------------------------------------------------------------------------------------
--------------------------------------------------------------------------------------------------------------------------------------------------------------------
--------------------------------------------------------------------------------------------------------------------------------------------------------------------
--------------------------------------------------------------------------------------------------------------------------------------------------------------------
-------------------------------------BBBBBBBBBBBBBBBB-----------------------------------------------------------------------------------------------------##--------
---------------------------------------------------------------------------------------------------------------------------------------------------------###--------
-------------------------------------------------------------------------------------------------------------------------------------------------------#####--------
--------------e------------------------------------------------------------------------------------e---------------------------------------------------#####--------
-------------pP--------e-------------?BBB-----------------e#--------------------------------------pP-------------B-----------------------------BB----#######--------
-------------pP-------pP-----------#------e--------------###-------e------------------------------pP---------------------e---------------------------#######--------
---#---------pP-------pP-----------#--------------------####------pP------------------------------pP--------------------pP------------------------#--#######--------
---#---------pP-------pP----------e#-----e-------------#####------pP-------------e--e--------e----pP----------ee-e------pP---------------------------#######-------#
######################################################-####------#################################################################--################################
######################################################-####------#################################################################--################################
######################################################-####------#################################################################--################################
