--------------------------------------------------------------------------------------------------------------------------------------------------------------------------------------
--------------------------------------------------------------------------------------------------------------------------------------------------------------------------------------
--------------------------------------------------------------------------------------------------------------------------------------------------------------------------------------
--------------------------------------------------------------------------------------------------------------------------------------------------------------------------------------
--------------------------------------------------------------------------oo----------------------------------------------------------------------------------------------------------
---------------------------------------------BBBBBB---BBBBB-------------------------------------------------------------------------##------------------------------------------------
-----------------------------------------------------------------------------------------------------------------------------------###----------------------------------------------e-
----------------------------------------------------------------------------------------------------------------------------------####--------------------------------------------####
----------------------------------------------------------------e-----e------e---------------------------------------------------#####------------------------------------------------
---------------------------oo-----------e----BBBBBB------------pP----pP-----pP--------------------------------------------e-----######----------------------??-------------###--------
---------------------------------------pP----------------------pP----pP-----pP-----------------------------e-------------pP----#######------------------------------------####--------
---------------------------------------pP----------------------pP----pP-----pP--------e-------------------pP-------------pP---########---------------------------------########-------
---------------------e-e---------------pP-e--e-----------------pP----pP----epP---e---------------------e--pP-----------e-pP--#########---------#---------------------#########--------
######################################################-----###############################--##################---#-#-########################################################---------
######################################################-----###############################--##################---#-#-########################################################---------
######################################################-----###############################--##################---#-#-########################################################---------
