-----------------------------------------------------------------------------------------------------------------------------------------------------------------------
-----------------------------------------------------------------------------------------------------------------------------------------------------------------------
-----------------------------------------------------------------------------------------------------------------------------------------------------------------------
-----------------------------------------------------------------------------------------------------------------------------------------------------------------------
---------------------------------------------------------------------------------------e-------------------------------------------------------------------------------
--------------------------------------------------------------------------------------BBBBBBBB-------------------------------------------------------------------------
-----------------------------------------------------------------------------------------------------------------------------------------------------------------------
---------------------------------------------------------------------------------------------------------------------------------------------------------xx------------
----------xx---------xxx--------------------o---------------------------------xx----------------------------------------------------------x-------------x#-x-----------
---x-----x#-x-------x##-x-----------e---------------------xxx----------------xx#xxx--BBBBBBBBB--xx----------xxx------xx------------#----xx-xx----------x##--x----------
--x--xxxx##--x-----x###--x-------------------------------xpP-x--------------xx-#---x-----------xx-x--------xpP-x----xx-x-----------#-xxxpP-#-x--------x###---x---------
--x#x######---x---x#####--x------------------------------xpP--x-------------x--#----x----------x---x-------xpP--x---x---x----------#-xpPpP-#--x------x####----x-------x
--x########----xxx######---xxxxxxxxxxxxxxxxxxxxxxxxxxxxxxxpP---xxxxxxxxxxxxxe--#-----xxxxxxxxxx-----xxxxxxxxpP---xxx-----xxxxxxxxxxxx-pPpP-#---xxxxxx#####-----xxxxxxx-
###########--##################################################################################----#################----###############################################
###########--##################################################################################----#################----###############################################
###########--##################################################################################----#################----###############################################
