12	2
11	2
10	2
9	3
11	4
10	5
10	6
10	7
10	8
9	9
8	10
8	11
9	12
10	13
11	14
12	15
12	16
12	17
11	18
10	19
9	20
8	21
8	22
8	23
9	24
10	25
11	26
12	27
12	28
12	29
12	30
12	31
12	32
12	33
12	34
12	35
12	36
12	37
12	38
12	39
12	40
12	41
12	42
12	43
12	44
12	45
12	46
12	47
12	48
12	49
12	50
12	51
12	52
12	53
12	54
12	55
12	56
12	57
11	57
10	57
9	58
9	59
9	60
10	61
11	62
12	63
12	64
12	65
12	66
12	67
12	68
12	69
12	70
12	71
12	72
12	73
12	74
12	75
11	76
10	76
10	77
9	77
9	78
8	78
8	79
9	80
9	81
9	82
10	83
11	84
12	85
12	86
12	87
12	88
12	89
12	90
12	91
12	92
12	93
12	94
11	95
10	95
10	96
9	96
9	97
10	98
11	99
12	100
12	101
12	102
12	103
12	104
12	105
12	106
12	107
11	107
10	107
9	108
9	109
9	110
10	111
11	112
12	113
12	114
12	115
11	116
10	116
10	117
9	117
9	118
10	119
11	120
12	121
12	122
12	123
12	124
12	125
12	126
12	127
12	128
12	129
12	130
12	131
12	132
11	133
10	133
10	134
10	135
9	136
9	137
8	138
9	139
9	140
10	141
11	142
12	143
12	144
12	145
12	146
12	147
12	148
11	149
10	150
9	151
8	152
7	153
7	154
8	155
9	156
10	157
11	158
12	159
12	160
12	161
12	162
12	163
12	164
12	165
11	166
