--------------------------------------------------------------------------------------------------------------------------------------------------------------------
--------------------------------------------------------------------------------------------------------------------------------------------------------------------
--------------------------------------------------------------------------------------------------------------------------------------------------------------------
--------------------------------------------------------------------------------------------------------------------------------------------------------------------
-------------------------------------------------------------e------------------------------------------------------------------------------------------------------
--------------------------------------------------BBBBB?B?BBBBB------------------------------------------BBBBBBB-------BBB--------BBBBBBBB--------------------------
--------------------------------------------------------------------------------------------------------------------------------------------------------------------
--------------------------------------------------------------------------------------------------------------------------------------------------------------------
---------------------------------------------------------------------------------e--------------------------------------------------------------e-------------------
-----------pP----pP---------------pP--------------BBBBBBBBBBBBBB----------------pP-----------------------BBBBBBB-------BBB-----------BBBBB-----pP---e--------e------
-----------pP----pP---------------pP------------e--------------------e----------pP-------------------------------------------------------------pP--pP-------pP------
-----------pP----pP---------------pP-----------pP----------------------#--------pP-------------pP-----------------------------#----------------pP--pP-------pP------
--------e--pP----pP----e-------e--pP-------e---pP-e----------e---------#------e-pP---------e---pP-------------------e---------#----------------pP--pP-------pP------
#########################################################################---########-----########################--##############################--#################
#########################################################################---########-----########################--##############################--#################
#########################################################################---########-----########################--##############################--#################
