12	2
11	2
10	2
9	2
8	2
8	3
8	4
8	5
8	6
8	7
8	8
8	9
8	10
9	11
10	12
11	13
12	14
12	15
12	16
11	17
12	18
12	19
11	20
12	21
12	22
12	23
12	24
11	25
12	26
12	27
11	28
12	29
12	30
12	31
12	32
12	33
12	34
12	35
12	36
12	37
12	38
12	39
12	40
12	41
12	42
12	43
12	44
12	45
12	46
12	47
12	48
12	49
11	49
10	49
9	50
9	51
10	52
11	53
12	54
12	55
12	56
12	57
12	58
12	59
12	60
12	61
12	62
12	63
12	64
12	65
11	65
10	65
9	66
9	67
9	68
10	69
11	70
12	71
12	72
12	73
12	74
12	75
12	76
12	77
12	78
11	79
10	79
10	80
9	80
9	81
8	81
8	82
8	83
8	84
8	85
8	86
8	87
7	88
8	89
9	90
8	91
8	92
8	93
8	94
8	95
8	96
8	97
8	98
8	99
8	100
8	101
7	102
6	102
7	103
8	104
9	105
10	106
11	107
10	108
10	109
10	110
10	111
9	112
8	112
8	113
7	113
7	114
6	114
6	115
7	116
7	117
7	118
8	119
9	120
8	121
8	122
8	123
8	124
8	125
8	126
8	127
8	128
8	129
8	130
7	131
6	131
6	132
7	133
8	134
9	135
8	136
7	136
7	137
6	137
6	138
5	138
5	139
6	140
5	141
4	141
4	142
4	143
3	144
4	145
5	146
6	147
7	148
8	149
9	150
10	151
11	152
11	153
11	154
12	155
12	156
12	157
12	158
12	159
12	160
12	161
12	162
12	163
12	164
12	165
12	166
12	167
12	168
12	169
12	170
12	171
12	172
12	173
12	174
11	175
