----------------------------------------------------------------------------------------------------------------------------------------------------------------------
----------------------------------------------------------------------------------------------------------------------------------------------------------------------
----------------------------------------------------------------------------------------------------------------------------------------------------------------------
----------------------------------------------------------------------------------------------------------------------------------------------------------------------
----------------------------------------------------------------------------------------------------------------------------------------------------------------------
------------------------------------------------B--------------------------------------------------------------------------B----------------------------##------------
-------------------------------------------------------------------------------------------------------------------------------------------------------###------------
------------------------------------------------------------------------------------------------------------------------------------------------------####------------
---------------------------------------------------------------------------------------------------------o-------------------------------------------#####------------
---------------------------------------------------------------------------------e------------------B?---------------------B------------------------######------------
--------------------------------------------------------------e-----------------pP-----------------------------------------------------------------#######------------
---#-------------pP-------------------------------------------b-------e---e-----pP---------------------------------------------------------------#########------------
---#-----e-------pP---e-------------------------e----------e--b--e----------e---pP-e---------------------------------ee---------------e--------e##########--------#---
########################################################################################################---###########################################################
########################################################################################################---###########################################################
########################################################################################################---###########################################################
