---------------------------------------------------------------------------------------------------------------------------------------------------------------------
---------------------------------------------------------------------------------------------------------------------------------------------------------------------
---------------------------------------------------------------------------------------------------------------------------------------------------------------------
---------------------------------------------------------------------------------------------------------------------------------------------------------------------
---------------------------------------------------------------------------------------------------------------------------------------------------------------------
---BBBB-----------------------------------------B-----BBB--BBBBBB------------BBBBB-----------------------------------------------------------------------------------
---------------------------------------------------------------------------------------------------------------------------------------------------------------------
---------------------------------------------------------------------------------------------------------------------------------xxxx------------------xx------------
----------------------------------------------------------------------------------xxx-ooooo--------------------------------------xpP-x----------------x#-x-----------
---------xx---------xx-------xx---------------------------B-BBBBB-----------B----xxpPxx---------------xxx---------------------xxx-pP--x--------------x##--x----------
--------xx-xx------x#-x-----x#-x------------------------------------------------xx-pP--x----xx-------xpP-x-------------------xxpP-pP---x------------x###---x--xxx----
--------x--#-x-----x#--x----x#--x----------------e----------------------e-------x--pP---x---x-x------xpP--x------------------x-pP-pP----x----------x####----x-x#-x--x
--xxxxxx---#--xxxxxx#---xxxxx#---xxxxxxxxxxxxxxxxxxxxxxxxxxxxxxxxxxxxxxxxxxxxxxx---pP----xxx---xxxxxxxpP---xxxxxxxxxxxxxxxxxx--pP-pP-----xxxxxxxxxx#####---e-x-#--xx-
########--##################################################################################--################################-######################################
########--##################################################################################--################################-######################################
########--##################################################################################--################################-######################################
