12	2
11	3
12	4
12	5
12	6
12	7
12	8
12	9
12	10
12	11
12	12
12	13
12	14
12	15
12	16
12	17
12	18
12	19
12	20
12	21
12	22
12	23
12	24
11	25
10	26
9	27
8	28
7	29
6	30
5	30
4	30
3	31
4	31
3	32
2	32
2	33
3	34
4	35
5	36
6	37
7	38
8	39
8	40
9	41
10	42
11	43
12	44
12	45
12	46
12	47
12	48
11	49
10	49
10	50
9	50
9	51
8	51
8	52
8	53
9	54
9	55
10	56
11	57
12	58
12	59
12	60
12	61
12	62
12	63
12	64
12	65
12	66
12	67
12	68
12	69
12	70
12	71
12	72
12	73
12	74
12	75
12	76
12	77
12	78
12	79
12	80
12	81
11	81
10	81
9	82
9	83
9	84
10	85
11	86
12	87
12	88
12	89
12	90
12	91
12	92
12	93
12	94
12	95
12	96
11	97
10	97
10	98
10	99
10	100
11	101
12	102
12	103
12	104
12	105
12	106
12	107
12	108
11	108
10	108
9	109
9	110
10	111
11	112
12	113
12	114
12	115
12	116
12	117
11	117
10	117
9	118
9	119
8	120
9	121
10	122
11	123
10	124
9	125
8	126
7	127
7	128
6	129
6	130
7	131
8	132
9	133
10	134
11	135
12	136
12	137
12	138
12	139
12	140
12	141
12	142
12	143
12	144
12	145
12	146
12	147
12	148
12	149
12	150
11	151
10	152
9	153
8	154
7	155
6	156
6	157
7	158
8	159
9	160
10	161
11	162
12	163
11	164
