12	2
11	2
10	2
9	3
10	4
11	5
12	6
12	7
12	8
12	9
12	10
12	11
12	12
11	13
10	13
10	14
9	15
10	16
11	17
12	18
12	19
12	20
12	21
12	22
12	23
12	24
12	25
12	26
12	27
12	28
12	29
12	30
12	31
12	32
12	33
12	34
12	35
12	36
12	37
12	38
12	39
12	40
12	41
12	42
12	43
12	44
12	45
12	46
12	47
12	48
12	49
12	50
12	51
12	52
11	52
10	52
9	53
9	54
9	55
10	56
11	57
12	58
12	59
12	60
12	61
12	62
12	63
12	64
12	65
12	66
12	67
12	68
12	69
12	70
12	71
12	72
12	73
12	74
12	75
12	76
12	77
12	78
12	79
12	80
12	81
11	82
10	82
9	82
8	82
8	83
8	84
7	85
8	86
9	87
10	88
10	89
11	90
12	91
12	92
12	93
12	94
12	95
12	96
12	97
11	98
10	98
10	99
9	99
9	100
8	100
8	101
8	102
9	103
9	104
10	105
11	106
12	107
12	108
12	109
12	110
12	111
12	112
12	113
12	114
12	115
11	115
10	115
9	116
9	117
9	118
10	119
11	120
12	121
12	122
12	123
12	124
12	125
12	126
12	127
12	128
12	129
12	130
12	131
12	132
12	133
12	134
11	135
10	136
9	137
8	138
7	138
7	139
6	139
6	140
5	140
5	141
6	142
6	143
6	144
7	145
8	146
9	147
9	148
10	149
11	150
12	151
12	152
12	153
12	154
12	155
12	156
12	157
12	158
12	159
12	160
12	161
12	162
12	163
11	164
