--------------------------------------------------------------------------------------------------------------------------------------------------------------------------------
--------------------------------------------------------------------------------------------------------------------------------------------------------------------------------
--------------------------------------------------------------------------------------------------------------------------------------------------------------------------------
--------------------------------------------------------------------------------------------------------------------------------------------x-----------------------------------
------------------------------------------------------------------------------------------------------------------------------------------xx-x----------------------------------
---BBBB----------------------------------------------------------------------------------------------------------------------------------x##--x-------------------------------x-
-----------------------------------------------xx-xxx--------------------------------------------oooo----------------------xx-----------x###---x------------------------xxxxxx-x
-----------------------------------------------x-x##-x---------------------------------------------------------------------x-x---------x####----x----------------------x######--
----------------------xx----------------------x--###--x---------------------------xxx--------xxx------------------xx-----xx---x-------x#####-----x---------------------x--------
--------------xxx----xx-xxx------------------x#--###---x-------------------------x##-x------xxpPxx---------------x#-x---x##--#-x-----x######------x-----------------xxxx--------
-------------xpP-x--xx-pP--x----------------x##--###----x--------xxxx-----------x####-x----xx-pP--x-------------x##--x-x###--##-xxxxx#######-------x---------------xx####-------
-------------xpP--x-x--pP---x--------------x###--###-----x-------xpP-x---------x######-x---x--pP---x-----------x###---x####--###############--------xx-------------x------------
--xxxxxxxxxxxxpP---x---pP---exxxxxxxxxxxxxx####--###------xxxxxxx-pP--xxxxxxxxx########-xxxe--pP----xxxxxxxxxxx####--e#####--###############--------#-xxxxxxxxxxxxx-------------
####################---########################--##########################################################################--######################################-------------
####################---########################--##########################################################################--######################################-------------
####################---########################--##########################################################################--######################################-------------
