---------------------------------------------------------------------------------------------------------------------------------------------------------------------------------------
---------------------------------------------------------------------------------------------------------------------------------------------------------------------------------------
---------------------------------------------------------------------------------------------------------------------------------------------------------------------------------------
---------------------------------------------------------------------------------------------------------------------------------------------------------------------------------------
-------------------------------------------------------------------------------------------------------------------------------xxxxx-----------------------------------------------e---
----------------xx------------------------BBB---------------------------------------------------------------------------------xx###-x-------------------------------------------------#
---------------xx-xxx---------------------------------------------------oo----------------------------------------------------x-###--x------------------------------------xx-----------
--------------xx-----x-------------------------------------------------------------------------------------------------------x--###---x-----------------------------------x-x----------
--------------x-----e-x-----------------------------------------------------------------------------------------------------x##-###----x--------------------------xx--xxxx---xxxx------
-------------x-----pP--x-----------xxx-----------------xx-----------e-xx---------------------------------------------------x###-###-----x------------------------xx-xx####--####-x-----
------------x#-----pP---x-------xxxpP-x--xxxx---------x#-x-----------x#-x-------------------------xxxx--------------------x####-###------x----------------------xx--##------------x---x
------------x#-----pP----x------xpPpP--x-xpP-x--------x#--x----------x#--x------------------------xpP-x------------------x#####-###-------x-xx------------------x------------------xxxo
--xxxxxxxxxxx#-----pP-----xxxxxx-pPpP---x-pP--xxxxxxxxx#---xxxxxxxxxxx#---xxxxxxxxxxxxxxxxxxxxxxxx-pP--xxxxxxxxxxxxxxxxxx######-###--------x#-xxxxxxxxxxxxxxxxxx-------------------####
##############################################################################################################################--#################################----------------------
##############################################################################################################################--#################################----------------------
##############################################################################################################################--#################################----------------------
