----------------------------------------------------------------------------------------------------------------------------------------------------------------------
----------------------------------------------------------------------------------------------------------------------------------------------------------------------
----------------------------------------------------------------------------------------------------------------------------------------------------------------------
----------------------------------------------------------------------------------------------------------------------------------------------------------------------
----------------------------------------------------------------------------------------------------------------------------------------------------------------------
------------------------------------------------------------------------------------------------------------------------------B---------------------------------------
--------------------------------------------------------------------------------oo-------------------------------------------------------o----------------------------
-------------------------------------------------------------------------------------------------------------------------#BB------------------------------------------
------------------------------------------------------------------------------e-----------------------------------------###-----------------------------------------e-
---------------#-----------------------------------#-------------------------pP----------------------------------------####--BBB--------------------------------------
---------------##----------------------------------#-----------------B----e--pP---------------------------------------#####-----B-------------------------------pP----
---------------###---------------------------------#-----------------b-------pP--------------------------------------######----B--------------------------------pP----
---------------###----------------------ee----ee-e-#------e----e-----B-----e-pP--------e-e---ee-e----e-e---eee--e---#######---------------------------e-------e-pP----
##########################################################################################################################---------###################################
##########################################################################################################################---------###################################
##########################################################################################################################---------###################################
