12	2
12	1
11	2
10	2
10	3
9	3
9	4
8	4
8	5
9	6
9	7
9	8
10	9
10	10
10	11
10	12
10	13
10	14
10	15
10	16
10	17
10	18
10	19
10	20
10	21
10	22
10	23
10	24
10	25
10	26
10	27
10	28
10	29
10	30
10	31
10	32
10	33
9	34
8	34
8	35
7	35
8	36
7	37
7	38
7	39
7	40
7	41
7	42
7	43
7	44
6	45
6	46
7	47
7	48
7	49
7	50
7	51
7	52
7	53
6	54
5	54
5	55
4	55
4	56
5	57
6	58
7	59
8	60
8	61
7	62
6	62
6	63
5	63
6	64
7	65
8	66
9	67
8	68
8	69
7	70
6	70
6	71
5	71
5	72
6	73
7	74
8	75
9	76
10	77
11	78
12	79
12	80
12	81
12	82
11	83
10	83
10	84
9	84
9	85
8	86
8	87
8	88
8	89
8	90
8	91
8	92
7	93
8	94
9	95
8	96
8	97
8	98
8	99
8	100
8	101
8	102
8	103
9	104
10	105
11	106
10	107
10	108
10	109
10	110
10	111
10	112
10	113
10	114
10	115
11	116
11	117
11	118
11	119
12	120
12	121
12	122
12	123
11	124
12	125
12	126
11	127
12	128
11	129
12	130
11	131
12	132
12	133
12	134
12	135
12	136
12	137
12	138
12	139
11	139
10	139
9	140
9	141
8	142
9	143
10	144
10	145
10	146
11	147
12	148
12	149
12	150
12	151
12	152
12	153
12	154
12	155
12	156
12	157
11	158
10	158
10	159
10	160
11	161
12	162
11	163
