---------------------------------------------------------------------------------------------------------------------------------------------------------------------------
---------------------------------------------------------------------------------------------------------------------------------------------------------------------------
---------------------------------------------------------------------------------------------------------------------------------------------------------------------------
---------------------------------------------------------------------------------------------------------------------------------------------------------------------------
------------------------------------------------------------------------------------------------------------------------------------------xx----xxxx-----------------------
--------------------------------------BBBBBBBB-----------BB-------------------------------------------------------------xx---------------xx-xxx-x##-x----------------------
-----------------------------------------------------------------------------------------------------------------------xx-x-------------xx-----x-##--x---------------------
-----------------------------------------------------------------------------------------------------------------------x---x------------x------####---x--------------------
-----xx--xxx----------------------------e--------------xxxxxx--------------------------------------------------------xx-----x--------xxx-------####----x-------------------
----xx-xx##-x--------------------------BBBBBBB---------x####-x-------------------------------------------------------x#----#-x-------xpP-----######-----x------------------
----x--####--x-------xx--------------------------------x#-----x-----------B--------------------------xxxx------------x#----#--x------xpP-----######------x----------------x
---x---#####--x------x-x---e-----B---------------------x#------x----------xx-------------------------xpP-xB----------x#----##--x-----xpP-----######-------x------------x-x-
--x#---#####---xxxxxx---xxxxxxxxxxxxxxxxxxxxxxxxxxxxxxx-#-------xxxxxxxxxxB-xxxxxxxxxxxxxxxxxxxxxxxxx-pP--xxxxxxxxxxx-#----##---xxxxxepP-----######------#-xxxxxxxxxxxx-x#-
####---#####-#-######--###################################------#######################################################################################################-###
####---#####-#-######--###################################------#######################################################################################################-###
####---#####-#-######--###################################------#######################################################################################################-###
