--------------------------------------------------------------------------------------------------------------------------------------------------------------------
--------------------------------------------------------------------------------------------------------------------------------------------------------------------
--------------------------------------------------------------------------------------------------------------------------------------------------------------------
--------------------------------------------------------------------------------------------------------------------------------------------------------------------
--------------------------------------------------------------------------------------------------------------------------------------------------------------------
----------------------------------------------------BBBBBBBB----------------------------------------------------B---------------------------------------------------
--------------------------------------------------------------------------------------------------------------------------------------------------------------------
--------------------------------------------------------------------------------------------------------------------------------------------------------------------
---------o-----------------------------------o--------------------e-------------------------------------------------------------------------------------------------
--------o-o-----------------------------------##----BBBBBBBB-----pP---------e---##-----------------------e------B------e-----------------#--------------------------
----------------------------------------------##-----------------pP--------pP---##--------e---ee----e---pP------------pP------e----------#----------#---------------
---------------e-e----------------------------###----------------pP--------pP---###------pP---pP---pP---pP------------pP-----------------#----------#---------------
-------------------e--ee----------------------###---e------------pP--------pP---###------pP---pP---pP---pP-ee---------pP----------e------#---------e#---------------
#########################################################################################################################################################-####---##-
#########################################################################################################################################################-####---##-
#########################################################################################################################################################-####---##-
