---------------------------------------------------------------------------------------------------------------------------------------------------------------------
---------------------------------------------------------------------------------------------------------------------------------------------------------------------
---------------------------------------------------------------------------------------------------------------------------------------------------------------------
---------------------------------------------------------------------------------------------------------------------------------------------------------------------
------------------------------o--------------------------------------------------------------------------------------------------------------------------------------
-------ooooo-----o---------o-o-o-----------------------------------ooo---ooo-------ooooooooooo---ooooooooo-oooooooo--------------------?-----------------------------
------------------o-------------o--------------------------------------------------------------------------------------------oo--------------------------------------
---------------------------------------------------------------------------------------------------------------------------------------------------------------------
----------------------------------------------------------------------------------------e---------------------------------------###########--------------------------
---################################-----##----------###-#-------########################################################---##--#############-------------------------
---#################################---####--------####-##-----##########################################################--##--#-----------##------------------------
-----------------------------------#---#--#--------#-----#-----#--------------------------------------------------------#------#-----------###-----------------------
-----------------------------------#---#--#--------#-----#-----#--------------------------------------------------------#------#-----------####-----e-------e--------
###--------------------------------#---#--#--------#-----#-----#--------------------------------------------------------#------#-----------##########################
###------------------------------------#-----------#-----------#--------------------------------------------------------#------#------------#########################
###------------------------------------#-----------#-----------#--------------------------------------------------------#------#------------#########################
