------------------------------------------------------------------------------------------------------------------------------------------------------------------------
------------------------------------------------------------------------------------------------------------------------------------------------------------------------
------------------------------------------------------------------------------------------------------------------------------------------------------------------------
------------------------------------------------------------------------------------------------------------------------------------------------------------------------
------------------------------------------------------------------------------------------------------------------------------------------------------------------------
----------------------------------------------------------------------------------BBBBBBB--------------------------------------ooooooooooo------------------------------
-------------------------------------------------------------------------------------------------------------------------------------------------------oo---------------
------------------------------------------------------------------------------------------------------------------------------------------------------------------------
------------------------------------------------------------------------------------------------------------------------------------------------------------------------
-------------------#-----------------------------e-----------e--------------##----------------------------------####---#----#####################----##----#############
---------e---------#----------------------------pP-----e----pP----------e--####------------------------e-e------#####--##--#######################---##---##############
--------pP---------#----------------------------pP----------pP------------######------------------------------------#---#--#---------------------#--------#-------------
------e-pP---------#-----e------------e---------pP----------pP-----------#######------------e--e----------e---------#---#--#---------------------#--------#-------------
####################--########################################################################################------#---#--#---------------------#--------#--------#----
####################--########################################################################################------#---#--#---------------------#--------#-------------
####################--########################################################################################------#---#--#---------------------#--------#-------------
