12	2
11	3
11	4
12	5
12	6
12	7
12	8
12	9
12	10
12	11
12	12
12	13
12	14
12	15
12	16
12	17
12	18
12	19
12	20
11	21
10	21
10	22
9	22
9	23
8	23
8	24
8	25
9	26
9	27
10	28
11	29
12	30
12	31
12	32
12	33
12	34
12	35
12	36
12	37
12	38
12	39
12	40
12	41
12	42
12	43
12	44
12	45
12	46
12	47
12	48
12	49
12	50
11	50
10	50
9	51
9	52
10	53
11	54
12	55
12	56
12	57
12	58
12	59
12	60
12	61
12	62
12	63
12	64
12	65
12	66
11	67
10	67
10	68
9	68
9	69
8	69
8	70
9	71
9	72
9	73
10	74
11	75
12	76
12	77
11	78
10	79
9	80
8	81
7	82
6	83
6	84
5	85
4	85
4	86
3	86
3	87
2	87
2	88
3	89
3	90
3	91
4	92
5	93
6	94
7	95
8	96
9	97
10	98
11	99
12	100
12	101
12	102
12	103
12	104
12	105
12	106
12	107
12	108
12	109
12	110
11	110
10	110
9	111
9	112
9	113
10	114
11	115
12	116
12	117
12	118
12	119
12	120
12	121
12	122
12	123
12	124
12	125
12	126
12	127
12	128
11	128
10	128
9	129
9	130
10	131
11	132
12	133
12	134
12	135
12	136
11	137
10	137
10	138
10	139
11	140
12	141
12	142
12	143
12	144
12	145
12	146
12	147
12	148
12	149
12	150
11	151
10	151
10	152
10	153
10	154
11	155
12	156
12	157
12	158
12	159
12	160
12	161
12	162
11	163
