12	2
11	2
10	2
9	3
10	4
11	5
12	6
12	7
12	8
12	9
12	10
12	11
12	12
12	13
12	14
12	15
12	16
12	17
12	18
12	19
12	20
11	21
10	21
10	22
10	23
9	24
8	24
8	25
7	25
7	26
6	26
6	27
7	28
7	29
7	30
8	31
8	32
8	33
8	34
8	35
8	36
8	37
8	38
8	39
8	40
8	41
8	42
8	43
8	44
8	45
9	46
10	47
10	48
10	49
11	50
12	51
12	52
12	53
12	54
12	55
11	56
10	56
10	57
9	57
9	58
8	58
8	59
8	60
9	61
9	62
10	63
11	64
12	65
12	66
12	67
12	68
12	69
12	70
12	71
12	72
12	73
12	74
12	75
12	76
12	77
12	78
12	79
12	80
12	81
12	82
12	83
12	84
12	85
12	86
12	87
12	88
11	89
10	90
9	91
8	92
7	93
6	94
5	95
4	95
4	96
4	97
3	98
2	98
2	99
1	99
1	100
0	100
0	101
1	102
1	103
1	104
2	105
3	106
4	107
5	108
6	109
7	110
8	111
8	112
8	113
8	114
9	115
10	116
11	117
11	118
12	119
12	120
12	121
12	122
12	123
12	124
12	125
12	126
12	127
12	128
12	129
12	130
12	131
11	132
10	132
10	133
9	133
9	134
9	135
9	136
9	137
8	137
7	137
6	138
6	139
6	140
6	141
6	142
6	143
6	144
8	145
9	146
10	147
11	148
11	149
11	150
11	151
11	152
10	152
9	152
8	153
8	154
8	155
8	156
8	157
8	158
8	159
8	160
7	161
6	161
6	162
6	163
6	164
6	165
7	166
8	167
9	168
10	169
11	170
12	171
12	172
12	173
12	174
11	175
10	175
10	176
11	177
12	178
12	179
12	180
12	181
12	182
12	183
11	184
10	184
10	185
9	185
9	186
8	186
8	187
9	188
9	189
9	190
