-------------------------------------------------------------------------------------------------------------------------------------------------------------------------
-------------------------------------------------------------------------------------------------------------------------------------------------------------------------
-------------------------------------------------------------------------------------------------------------------------------------------------------------------------
-------------------------------------------------------------------------------------------------------------------------------------------------------------------------
-------------------------------------------------------------------------------------------------------------------------------------------------------------------------
-------------------------------------------------------------------------------------------------------------------------------------------------------------------------
-------------------------------------------------------------------------------------------------------------------------------------------------------------------------
-----------------------------------------------------------------------------------------------------------------------------------------#-------------------------------
--------e----------------------------------------------------e----------------------e---------------------------------------------------##-------------------------------
-------pP---------------------------------------------------pP---------------------pP--------------------------------------------------###---------------e---------------
-------pP------------------------e--------------------------pP---------------------pP------------#------------------------------------####-------------------------------
-------pP-------e--------B----------------------------------pP---------------------pP------------#-----------------------------------#####-------------------------------
-------pP-------------e--b--------------e--------e---e------pP----e-----------e----pP------------#-----------e-e------------eee----e######--e--------e-------------------
########################################################################################################################################################################-
########################################################################################################################################################################-
########################################################################################################################################################################-
