12	2
12	3
12	4
12	5
12	6
12	7
12	8
12	9
12	10
12	11
12	12
12	13
12	14
12	15
12	16
12	17
12	18
12	19
12	20
12	21
12	22
12	23
12	24
12	25
12	26
12	27
11	28
10	28
10	29
11	30
12	31
11	32
10	32
9	32
8	32
8	33
7	34
6	34
6	35
5	35
5	36
4	36
4	37
5	38
5	39
5	40
6	41
7	42
8	43
8	44
8	45
9	46
10	47
11	48
12	49
12	50
12	51
12	52
12	53
11	54
10	54
10	55
11	56
12	57
12	58
12	59
12	60
12	61
11	61
10	61
9	62
9	63
9	64
10	65
11	66
12	67
12	68
12	69
12	70
12	71
12	72
12	73
12	74
12	75
12	76
12	77
12	78
12	79
12	80
12	81
12	82
12	83
12	84
11	85
10	85
10	86
10	87
10	88
11	89
12	90
12	91
11	92
10	93
9	94
8	95
7	96
7	97
7	98
7	99
8	100
9	101
10	102
11	103
12	104
12	105
12	106
12	107
12	108
12	109
12	110
12	111
12	112
12	113
11	113
10	113
9	114
9	115
9	116
10	117
11	118
12	119
12	120
12	121
12	122
12	123
12	124
12	125
12	126
12	127
12	128
11	129
10	129
10	130
9	130
9	131
10	132
11	133
12	134
12	135
12	136
11	136
10	136
9	137
9	138
10	139
11	140
12	141
12	142
12	143
12	144
12	145
12	146
12	147
11	148
10	149
9	150
8	151
7	152
6	153
5	154
4	155
4	156
3	157
4	158
5	159
6	160
7	161
8	162
9	163
10	164
