12	2
11	3
10	3
11	4
12	5
12	6
12	7
12	8
12	9
12	10
12	11
12	12
12	13
12	14
12	15
12	16
12	17
12	18
12	19
12	20
12	21
12	22
12	23
11	24
10	24
10	25
9	25
9	26
8	26
8	27
8	28
9	29
9	30
10	31
11	32
12	33
12	34
12	35
12	36
12	37
12	38
12	39
12	40
12	41
12	42
12	43
12	44
11	44
10	44
9	45
9	46
8	47
8	48
8	49
9	50
10	51
11	52
12	53
12	54
12	55
12	56
12	57
12	58
12	59
12	60
12	61
12	62
12	63
12	64
11	65
10	65
10	66
9	66
9	67
10	68
11	69
12	70
12	71
12	72
12	73
12	74
12	75
12	76
12	77
12	78
12	79
12	80
12	81
12	82
12	83
12	84
12	85
12	86
12	87
12	88
12	89
12	90
12	91
11	92
10	92
10	93
9	93
9	94
8	94
8	95
8	96
9	97
10	98
12	99
11	100
10	100
10	101
9	101
9	102
8	102
8	103
9	104
9	105
9	106
10	107
11	108
12	109
12	110
12	111
12	112
12	113
12	114
12	115
12	116
12	117
12	118
12	119
12	120
12	121
12	122
12	123
12	124
12	125
12	126
12	127
12	128
12	129
12	130
12	131
12	132
12	133
12	134
12	135
12	136
12	137
12	138
12	139
12	140
12	141
12	142
12	143
12	144
12	145
12	146
12	147
12	148
12	149
12	150
11	151
10	152
9	153
8	154
7	155
7	156
7	157
8	158
9	159
10	160
11	161
12	162
12	163
11	164
12	165
13	166
