---------------------------------------------------------------------------------------------------------------------------------------------------------------------
---------------------------------------------------------------------------------------------------------------------------------------------------------------------
---------------------------------------------------------------------------------------------------------------------------------------------------------------------
---------------------------------------------------------------------------------------------------------------------------------------------------------------------
---------------------------------------------------------------------------------------------------------------------------------------------------------------------
----------------------------------------------------BBB-------------------------------------------------------------------------------------------------xx-----------
------------------------------------------------------------------------------------e-------------------------------------------------------------------x-x----------
-------------------------------------------------------------------------------------------------------------------------------------------------------x---x---------
--------------------------------------------------xxxxxx----------------------------------------------------------------------------------------------x#----x--------
---x----------------------------------------------x####-x------xx-------------------------------xxx--------------------------------------------------x##-----x-------
--x-x---------------------------------------------x#-----x----x#-xe----------e--------xx-------xpP-x---------------xxxx--------xxxx-----xx----------x###------xxx---x
--x#-x--------------------------------------------x#---#--x---x#--x-------------------x-x------xpP--x--------------xpP-x-------xpP-x----x-x--------x####------pP-x-x-
--x#--xxxxxxxxxxxxxxxxxxxxxxxxxxxxxxxxxxxxxxxxxxxx-#-------xxxx#---xxxxxxxxxxxxxxxxxxx---xxxxxxxpP---xxxxxxxxxxxxxxepP--xxxxxxx-pP--xxxx---xxxxxxxx#####------pP--x#-
######################################################---#############################---###############################################--##########################-
######################################################---#############################---###############################################--##########################-
######################################################---#############################---###############################################--##########################-
