12	2
12	3
12	4
12	5
12	6
12	7
12	8
12	9
12	10
12	11
12	12
12	13
12	14
12	15
12	16
12	17
12	18
12	19
12	20
12	21
12	22
12	23
12	24
12	25
12	26
12	27
12	28
12	29
12	30
12	31
12	32
12	33
12	34
12	35
12	36
12	37
12	38
11	38
10	38
9	39
9	40
9	41
10	42
11	43
12	44
12	45
12	46
12	47
12	48
12	49
12	50
12	51
12	52
12	53
11	54
10	54
10	55
9	55
9	56
10	57
11	58
12	59
12	60
12	61
11	62
10	62
9	62
8	62
8	63
8	64
7	65
6	65
6	66
5	66
5	67
6	68
7	69
8	70
7	71
6	71
6	72
5	72
5	73
6	74
7	75
8	76
8	77
8	78
9	79
10	80
11	81
12	82
12	83
12	84
12	85
12	86
12	87
12	88
12	89
11	90
10	90
10	91
11	92
12	93
12	94
12	95
12	96
12	97
12	98
12	99
12	100
12	101
12	102
12	103
12	104
11	105
10	105
10	106
10	107
9	108
8	108
8	109
9	110
10	111
11	112
12	113
11	114
12	115
11	116
12	117
12	118
12	119
12	120
11	120
10	120
9	121
9	122
9	123
10	124
11	125
10	126
9	127
8	128
7	129
6	130
5	131
4	132
4	133
4	134
5	135
6	136
7	137
8	138
9	139
10	140
11	141
12	142
11	143
11	144
12	145
12	146
12	147
12	148
12	149
12	150
12	151
12	152
12	153
12	154
12	155
12	156
12	157
12	158
12	159
12	160
12	161
12	162
12	163
12	164
11	165
11	166
10	167
10	168
10	169
9	170
8	171
8	172
8	173
7	174
8	175
9	176
10	177
11	178
12	179
13	180
14	181
