-----------------------------------------------------------------------+------------------------------------------------------------------------------------------------------------------------------------------
------------------------------------------------------------------------------------------------------------???---------------------------------------------------------------------------------------------------
---------------------------------------------------------------------------------------------------?-----------------?-----------------------------------------------------------------------------BB-------------
---------------------------------------------------------t---------------------------#----------------------------------------------------------------------------------------------------------------------------
--------------------------------------------------------BBB?-------------------------------------------------------------------+----------------------------------------------------------------------------------
-------------ooooooo----------------------*-----------B-----------------------??----------------------------------------------------------------------------------------------------------------------------------
------------------------------------------------------------------------------------------------------------------------------------------------------------------------------------------*B-------??-------------
---------------------------------------------------------------------------------------------------------------------##-----------------------------------------------------------------#-------------------------
----------------------------------------------------------------------------?----------------------------------------##--BHBBBB------------------V--------------------------------------#-------------------------
----------------------V---------------------------------------------------------?B-----------------------------------##--------------------------[]-------------------------------------#-------------------------
----------------------[]---------------------------------------------------------------------#--K----------#----+BB--##--------------------------pP-------------------------------------#-------V-----------BB?-V-
---------------g------pP-------Y--------#####------------------------------------------------#-------------#---------##-------------#######------pP-----------#-------------------####--#-------[]--------------[]
---ggg------################---y---t----########---------------g------####-------------------#------########---------##-k---#####---#######------pPk----------#-----#########-----#######-------pP-#####--------pP
################################################################################-----#########------#######################################---###############################---##################################
