12	2
12	3
12	4
12	5
12	6
12	7
12	8
12	9
12	10
12	11
12	12
12	13
12	14
11	15
10	15
10	16
9	16
8	16
7	17
6	18
5	18
4	19
3	19
2	20
3	21
4	22
5	23
6	24
7	25
8	26
9	27
10	28
11	29
12	30
12	31
12	32
12	33
12	34
12	35
12	36
12	37
12	38
12	39
12	40
12	41
12	42
12	43
12	44
12	45
12	46
12	47
12	48
12	49
12	50
12	51
12	52
12	53
12	54
12	55
12	56
12	57
11	58
11	59
12	60
12	61
12	62
12	63
11	63
10	63
9	64
9	65
8	66
8	67
8	68
9	69
10	70
11	71
12	72
12	73
12	74
12	75
12	76
12	77
12	78
12	79
12	80
12	81
12	82
12	83
12	84
12	85
12	86
12	87
12	88
12	89
12	90
12	91
12	92
11	93
11	94
12	95
12	96
12	97
12	98
12	99
12	100
12	101
12	102
12	103
12	104
12	105
12	106
12	107
12	108
12	109
12	110
12	111
12	112
12	113
12	114
12	115
12	116
12	117
12	118
12	119
12	120
12	121
12	122
12	123
12	124
12	125
12	126
12	127
12	128
12	129
12	130
12	131
12	132
12	133
11	134
11	135
12	136
12	137
12	138
12	139
12	140
12	141
12	142
12	143
12	144
12	145
12	146
12	147
12	148
12	149
12	150
12	151
12	152
12	153
12	154
12	155
12	156
12	157
12	158
12	159
11	160
11	161
10	161
9	161
8	162
7	162
6	162
5	163
5	164
4	165
5	166
6	167
6	168
6	169
5	170
4	170
4	171
5	172
6	173
7	174
8	175
8	176
7	177
6	177
6	178
7	179
8	180
9	181
9	182
10	183
11	184
12	185
12	186
12	187
12	188
12	189
12	190
12	191
12	192
12	193
12	194
12	195
12	196
12	197
12	198
11	199
10	199
10	200
10	201
10	202
11	203
12	204
12	205
12	206
12	207
12	208
11	209
