------------------------------------------------------------------------------------------------------------------------------------------------------------------------------------------------
------------------------------------------------------------------------------------------------------------------------------------------------------------------------------------------------
----------------o-------------------------------------------------------------------------------------------------------------------------------------------------------------------------------
------------------------------------------------------------------------------------------------------------------------------------------------------------------------------------------------
-------eoooo----------o-------------------------------------------------------------------------------------------------------------------------------------------------------------------------
-------######--##-------------------------------------------?--BB?--BBB----------------------------------------------------##-------------------------------------------------------------------
---------------------------------------------------------------------------------------------------------------------------##-------------------------------------------------------------------
-------------------------------------------------------------------------------------------------------------------------####-------------------------------------------------------------------
--------------------------------------------------------------------------------e----------------------------------------####--------------------------------------------------e----------------
----##########---####------------------------------------BB??--BBBB?B?B?B------e???BB-------------?--------------------######-------------------------------------------------pP----------------
---------------------------------------------------------------------------------------------------------------B------#######-------------------------------------------------pP----------------
---------------------------------------------------------------------------------------------------------------b-##-#########-------------------------------------------------pP-------B--------
---------------#------##-----------------------------e----------------------------------------------------e----b#############-------------------------------------------------pP-------b--------
###---------------------######################################################################--################################################################################################
###---------------------######################################################################--################################################################################################
###---------------------######################################################################--################################################################################################
