-------------------------#------------------------------------------------------------------------------------------------------------------------------------------------------------
-------------------------#------------------------------------------------------------------------------------------------------------------------------------------------------------
-------------------o-o---#----------o-------------------------------------------------------------------------------------------------------------------------------------------------
--------------------------#------------e----------------------------------------------------------------------------------------------------------------------------------------------
---o---oo------------e-e---------------####-------------------------------------------------------------------------------------------------------------------------------------------
--------###------#######--------------------------------------------------------------------------------------------------------------------------------------------------------------
-----------------------------------------------oo-------------------------------------------------------------------------------------------------------------------------------------
--------------------------------------------------------------------------------------------------------------------------------------------------------------------------------------
-----o------o-------------------------------------------------------------------------------------------e--------------------------------------------------------#--------------------
----#############--------------------------------------------------B---------------------B-------------pP-------------------------##-------------#--------------##-----------------##-
-----------------------------------------------------------------------B------------e----------#-------pP-------------------------##------------##-------------###----------------##--
------------------------------------#----------------------------------B-----------------------#-------pP-------------------------##-----------###------------####---------------###--
-------------------------#-#########-#---------------------------------B--------e------------#-#-------pP-------------e----------e##----------####-----------#####--e-----------####--
###--------------------------------------------####-##########################################-######################################################################################-
###--------------------------------------------####-##########################################-######################################################################################-
###--------------------------------------------####-##########################################-######################################################################################-
