-------------------------------------------------------------------------------------------------------------------------------------------------------------------------------
-------------------------------------------------------------------------------------------------------------------------------------------------------------------------------
-------------------------------------------------------------------------------------------------------------------------------------------------------------------------------
-------------------------------------------------------------------------------------------------------------------------------------------------------------------------------
---------------##--------------------------------------------------------------------------------------------------------------------------------------------------------------
---------------------------------------------------------------------B------------------------B------------------B-BBBB-?B-B---------------------------------------------------
-----------xxxxx----------------------------------------------------------------------------xx------------xx-------------------------------------------------------------------
----------x####-x-----------------------------------#--------------------------------------x#-x-----------x-x------------------------------------------------------------------
----------x------x-------------------------------------------------------------------xx--xx##--x--------xx---x-----------------------------------------------------------------
---xxxxxxxx-------x-------------------------------------xx-----------B--???---------xx-xx####---?------x##----x-BBBBB-BBBBB-B?---------------o--------e-----------B------------
--x#########-------x--------------------------e--------xx-x--------------------xx--xx---#####---x-----x###-----x--------------------------------------b------------eexxxx------
--x-----------------x--------------x---x---------------x---x-------------------x-x-x----#####----x---x####------x---------x-------------------e-------xx-------------xpP-x----x
--x------------------xxxxxxxxxxxxxx-xxx-xxxxxxxxxxxxxxx-----xxxxxxxxxxxxxxxxxxx---x-----#####-----xxx#####-------xxxxxxxxx-xxxxxxxxxxxxxxxxxxxxxxxxxxxB-xxxxxxxxxxxxx-pP--xxxx-
###--------------##################-###-###############-----###################---#--####################--###--##########-####################################################
###--------------##################-###-###############-----###################---#--####################--###--###############################################################
###--------------##################-###-###############-----###################---#--####################--###--###############################################################
