---------------------------------------------------------------------------------------------------------------------------------------------------------------------------
---------------------------------------------------------------------------------------------------------------------------------------------------------------------------
---------------------------------------------------------------------------------------------------------------------------------------------------------------------------
---------------------------------------------------------------------------------------------------------------------------------------------------------------------------
---------------eooo----------e---------------------------------------------------------------------------------------------------------------------------------------------
---------------####----#----------------------B-------B-------------------------------------------------------------------------???----------------------------------------
----------------------xx-------o-------------------------------------------------------------------------------------------------------------------------------------------
------xx----------x---x-x---------------------------------x-x-----------------------------------------------------------------------------------------------------------x--
------x-xxxxxxxxxx-xxx---x-------------------------------x-x-x------------------------------------------------------------------------------------------------------xxxx-x-
---xxx--##########-###----x-x--------------?e----B-e-----x##--x--------------B--------------xx----------------------------------BBBB-------------------------------xx-##--x
--x###---------------------x-x---------------------------x##---x----------------B----------xx-x------------------------------------------------------e------------xx--##---
--x-----------------------##--x------x--------------B-e-x###----x---------------xx---------x---x-----------e--------------B-------------------------------------b-x---##---
--x-------------------#--------xxxxxx-xxxxxxxxxxxxxxxxxx####-----xxxxxxxxxxxxxxxB-xxxxxxxxx-----xxxxxxxxxxxxxxxxxxxxxxxxxxxxxxxxxxxxxxxxxxxxxxxxxxxxxxxxxxxxxxxxxx----##---
###-------------------#--------######-#####################------##########################----###################################################################---###---
###-------------------#--------######-#####################------##########################----###################################################################---###---
###-------------------#--------######-#####################------##########################----###################################################################---###---
