-------------------------------------------------------------------------------------------------------------------------------------------------------------------------------------------------------
-------------------------------------------------------------------------------------------------------------------------------------------------------------------------------------------------------
-------------------------------------------------------------------------------------------------------------------------------------------------------------------------------------------------------
-------------------------------------------------------------------------------------------------------------------------------------------------------------------------------------------------------
---------------##--------------------------------------------------------------------------------------------------------------------------------------------------------------------------------------
----------------------------------------------------------------------------------------------------------------------##-------------------------------------------------------------------------------
-------------ee-------------------------------------------------------------------------------------------------------##-------------------------------------------------------------------------------
---------######---------------------------------------------------------------------e--------------------------------###-------------------------------------------------------------------------------
-----------------------------------------------------------------------------------pP-------------------------e-----####--------------------------------------e---------e----------------------e-------
----------------------------------------------#---##-----------o-------------------pP--------oB?-------------pP----#####--------------------------?----------pP--------pP---------------------pP-------
---######-----------------------------------###---###---------------------------e--pP------------------------pP---######-------------------------------------pP--------pP---------------------pP----B--
--------##----------------------------------###---####-------------------------pP--pP------------------------pP--#######-------------------------------------pP--------pP--------B--------B---pP----b--
-------------------o---e--------e----------####---####----e-------e-----e--e---pP--pP-e--ee-ee---------------pP-########------------------------------e--ee--pP--------pP----e---b--------b---pP----B--
###--------------############-#-##############----################################################################################################################################################-###-
###--------------############-#-##############----################################################################################################################################################-###-
###--------------############-#-##############----################################################################################################################################################-###-
