----------------------------------------------------------------------------------------------------------------------------------------------------------------------------
----------------------------------------------------------------------------------------------------------------------------------------------------------------------------
----------------------------------------------------x-----------------------------------------------------------------------------------------------------------------------
----------------------------------------------xxxxxx-x----------------------------------------------------------------------------------------------------------------------
------------------------------oo----------o--x######--x---------------------------------------------------------------------------------------------------------------------
----------------o-B-o------------xx--------xxx---------xxxxxx---------------------------------------------------------------------------BB----------------------------------
--------------------------------xx-x------xx-x---------#####-x--------------------------------------------------------------------------------------------------------------
---------x-------------###---xx-x---x-----x--#----------------x----------------------------------------------------------------------------------------------------xxx------
--xxxxxxx-xxxxxx------------xx-x-----xxxxx--o-----------------ox-------------------------------------------------------xxxx---------------------------------------x##-x-----
--x######-#####-x------xx---x--#-----#####----------------------x---------xx--------xxx-----B--------------------------x##-x------------B------------------------x###--x----
--x------#-------xxx---x-xxx-------------------------------------x-------xx-x----e-xpP-x---------xxxx---------------xxx-##--x-----------------------------------x####---x---
--x--------------##-xxx--###--------------------------------------x------x---x---B-xpP--x------e-xpP-x--------------xpP-##---x-------------B------------xxx----x#####----x-x
--x-------------#-#####------------------------------------------ooxxxxxx-----xxxxxxpP---xxxxxxxx-pP--xxxxxxxxxxxxxx-pP-##----xxxxxxxxxxxxxxxxxxxxxxxxxx##-xxxx######-----x-
###---------------------------#----------------------------------########----#############################################--########################################----###-
###---------------------------#----------------------------------########----#############################################--########################################----###-
###---------------------------#----------------------------------########----#############################################--########################################----###-
