---------------------------------------------------------------------------------------------------------------------------------------------------------------------------
---------------------------------------------------------------------------------------------------------------------------------------------------------------------------
------------xx----xx-------------------------------------------------------------------------------------------------------------------------------------------------------
-----------xx-xxx-x-xxxxx--------------------------------------------------------------------------------------------------------------------------------------------------
----------xx-----x-#####-x------------------------------------------------------------------------------------------------------------------------------------xx-----------
----------x--o---#--------xo--------------------B-----BBB--BBBB-----------------------------B----------------------------------------------------------------xx-xxx--------
-------xxx-----------------x----------------------------------------------------------------------------------------xx----------------x---------------xx----xx-----x-------
------x####-----------------x---------------------------------------------------------------------------------------x-x-------x-------xx-------------xx-xxx-x-------x-x----
------x--------o-------------x-----------e---------------------xxx--------------------------------------------xxxxxx---x-xxxxx-x-xxxxx--x-xxx-x-----xx-----x---------x-x---
---xxxx-------###-----------#-x---------xx------------BBB-BBB-xxpPxx----xxx-----------------B----------------xx#####----x#####--x#####---x##-x-xx---x------#-------BBB--x--
--x#####---------------------#-x--xxB--xx-x------------------xx-pP--x--xpP-x----------------------xxxx------xx-######---######--######---#####-#-xxx---#---#-------------x-
--x-----------------------------x-x-x--x---x------B----------x--pP---x-xpP--x----------xx---------xpP-x-----x-------#---#-------#--------#--##-#####---#---#--#-----------x
--x------------------------------x---xx-----xxxxxxxxxxxxxxxxx---pP-e--xxpP---xxxxxxxxxx#-xxxxxxxxx-pP--xxxxx--------#---#-------#--------#--##-######--#---#--#-------B----
###---------------------------####---##-----##################--#############################################-------#---#-------#--------#--##-##---#--#---#--#--------####
###---------------------------####---##-----##################--#############################################-----------#-------#-------------------#------#--#--------####
###---------------------------####---##-----##################--#############################################-----------#-------#-------------------#------#--#--------####
