12	2
11	2
10	2
9	3
9	4
9	5
9	6
8	6
7	6
6	7
6	8
6	9
5	10
4	10
4	11
3	11
3	12
2	12
2	13
3	14
3	15
3	16
4	17
3	18
2	18
2	19
3	20
3	21
3	22
3	23
3	24
4	25
5	26
6	27
7	28
8	29
9	30
10	31
11	32
12	33
11	34
10	34
10	35
11	36
12	37
12	38
11	39
10	39
10	40
9	40
9	41
10	42
11	43
12	44
12	45
12	46
12	47
12	48
12	49
12	50
12	51
12	52
12	53
12	54
12	55
12	56
12	57
12	58
12	59
12	60
11	61
10	61
10	62
9	62
9	63
8	63
8	64
8	65
9	66
9	67
10	68
11	69
12	70
12	71
11	71
10	71
9	72
9	73
9	74
10	75
11	76
12	77
12	78
12	79
12	80
12	81
12	82
12	83
12	84
12	85
12	86
11	87
11	88
12	89
12	90
12	91
12	92
12	93
12	94
12	95
12	96
12	97
11	98
10	98
10	99
10	100
10	101
11	102
12	103
12	104
12	105
12	106
12	107
11	108
10	108
10	109
9	109
9	110
8	110
8	111
8	112
8	113
8	114
8	115
7	116
6	116
6	117
7	118
8	119
9	120
8	121
8	122
8	123
8	124
8	125
7	126
8	127
9	128
8	129
8	130
8	131
8	132
8	133
7	134
6	134
7	135
8	136
9	137
8	138
8	139
8	140
9	141
8	142
9	143
9	144
10	145
10	146
10	147
9	148
8	148
8	149
7	149
7	150
6	150
6	151
7	152
7	153
7	154
8	155
7	156
6	156
6	157
5	157
5	158
4	158
4	159
5	160
5	161
5	162
6	163
7	164
8	165
7	166
8	167
9	168
10	169
11	170
