12	2
11	2
10	2
9	3
9	4
9	5
9	6
8	6
7	6
6	7
6	8
6	9
6	10
6	11
7	12
8	13
9	14
10	15
11	16
12	17
12	18
12	19
12	20
12	21
12	22
12	23
12	24
11	25
10	25
10	26
9	26
9	27
9	28
9	29
10	30
11	31
12	32
12	33
12	34
11	35
12	36
12	37
12	38
12	39
12	40
12	41
12	42
12	43
12	44
12	45
12	46
12	47
12	48
12	49
12	50
12	51
12	52
12	53
12	54
12	55
12	56
12	57
12	58
12	59
12	60
11	61
10	61
10	62
10	63
9	64
8	64
8	65
7	65
7	66
6	66
6	67
7	68
7	69
7	70
8	71
8	72
7	73
6	73
6	74
5	74
5	75
4	75
4	76
5	77
5	78
5	79
6	80
7	81
8	82
8	83
8	84
9	85
10	86
11	87
12	88
12	89
12	90
12	91
12	92
11	93
10	93
10	94
9	94
9	95
8	95
8	96
8	97
9	98
9	99
10	100
11	101
12	102
12	103
11	104
10	105
9	106
8	107
8	108
9	109
10	110
11	111
12	112
12	113
12	114
12	115
11	116
12	117
12	118
12	119
12	120
12	121
12	122
12	123
12	124
12	125
12	126
12	127
12	128
12	129
12	130
12	131
12	132
12	133
12	134
12	135
12	136
12	137
12	138
12	139
12	140
11	141
10	141
10	142
9	142
9	143
8	143
8	144
9	145
8	146
8	147
9	148
10	149
11	150
12	151
12	152
12	153
12	154
12	155
12	156
11	157
10	157
10	158
10	159
11	160
12	161
12	162
12	163
11	163
10	163
9	164
9	165
9	166
10	167
11	168
12	169
12	170
12	171
12	172
12	173
11	174
