-----------------------------------------------------------------------------------------------------------------------------------------------------------------------------------------
-----------------------------------------------------------------------------------------------------------------------------------------------------------------------------------------
-------------------------------------------------o---------------------------------------------------------------------------------------------------------------------------------------
-----------------------------o-------------------##--------------------------------------------------------------------------------------------------------------------------------------
---o--------------------------------------------o------#---------------------------------------------------o---o-------------------------------------------------------------------------
---###-#-------------------------------------------o----##-----####----o------------------------#-####---#########-----####------------------------##------------------------------------
----------------------------------------------------------------------------------------o---------------------------------------------------------###------------------------------------
-------------------------------------------------o---------##------------------------------------------------------------------------------------####------------------------------------
-----oo----------------------------------o------------------------------------###----------------------------------------------------#----------#####----------------------------e-------
----#####----------------------##-----###--##------###--------------##---####--------------#######----------------------------------##---------######---------------------------pP-------
------------------------------#-----------------------------------------------------#----------------------------------------------###-------########---------------------------pP-------
----------o--------e---e------------------------------------###-------------------###---------------------------------------------####-------########---------------------------pP-------
---------#####################------------------------------------------o-------------o----------------------------------------b-#####-------########------------------e-----e--pP-------
###------------------------------------------------------------------------------------------------------------------------#############################################################-
###------------------------------------------------------------------------------------------------------------------------#############################################################-
###------------------------------------------------------------------------------------------------------------------------#############################################################-
