---------------------------------xxx-------------------------------------------------------------------------------------------------------------------------------------------------------------
--------------------------------xx--xxx------------xx-x------------------------------------------------------------------------------------------------------------------------------------------
---------------------------xxxx-x------x----------xxox-x--------------------------------oooo----------------B------------------------------------------------------------------------------------
---------------------------x##-x--------x---------x-##--x-------------------------------####---------------------xx------------------------------------------------------------------------------
---o----o-o--oo--xxxxxxxxxx---##-----o---x-----xxx----#o-xx------------------------------------------------------x-x-----------------------------------------------------------------------------
---#----########-x#########-------o-##----x----x##----o--B-x-----xxe-------#####----------------xx-----------xxxx---x----------------------------------------------------------------------------
-----------------x-------------------------x---x------------xxxx-x-x--------xx-----------------xx-xxxxxxxxxxx####----x---------------------------------------------------------------------------
-----------------x--------------------------x--x------------###ex---x------xx-xxx-------------xx----#########---------x--x-x---------------------------------------------------------------------
---xxxxxxxxxxxxxx----------------------------xx-------e--------##----x----xx-----x--xx--------x---------------------e--xx-x-xx------------------------------------------------------xxxxx--------
---x##############---------------------------###-----------------#--#-x---x-------x-x-xxxxxxxx##-----------------------##-#-#-x----------------------------B?-----------------------x###-x-------
---x-------------------------------------------------------------------xxx---------x--########---------------------------------x--------------------------------------------xx------x###--x------
---x---------------------------------------------------##---#---------#####--------#-------------##-----------------------------x---#xx---xx--------------------------------x-x-----x###---x----x
--x------------------------------------------------------#-#---------------------------------------------------------------------xxxx#-xxx#-xxxxxxxxxxxxxxxxxxxxxxxxxxxxxxxx---xxxxx-###----xxxx-
###----------------------------------------------------------------------------------------------------------------------------#############################################---########----#####-
###----------------------------------------------------------------------------------------------------------------------------#############################################---########----#####-
###----------------------------------------------------------------------------------------------------------------------------#############################################---########----#####-
