-------------xx--------------------------------------------------------------------------------------------------------------------------------------------------------
------------xx-xxx------------------------------------------------xx---------------------------------------------------------------------------------------------------
-----------xx-----x----------------------------------------------xx-xxx------------------------------------------------------------------------------------------------
-----------x-----o-x-------x------------------------------------xx-----x--xx-------------------------------------------------------------------------------------------
------xxxxx------#ooxxxxxxx-x------xxxxxx---------xxx-----------x-------x-x-x--------xx--------------------------------------------------------------------------------
------x####-------#########--xxxxxx#####-x-------xx##xx----xxxxx-------o-x---x------xx-xxx---------------------------------------------------------------------BB------
------x----------------------######-------x-----xx-----x--xx#####------###----x---oxx-#---x----------------------------------------------------------------------------
------x-------------------------e----------x----x-------x-x------------------e-x---x-------xxx-------------------------------------------------------------------------
---xxx------o-------------------------------xxxx---------x---------------------oxxx------####-x------------------------------------------------------------------------
---x########----------------------------##########-------#---------------------####------------x-----------------------------------------------------------------------
---x--------------------------------------------------------------------------------------------x-----------xx---------------------------------ee-e--------------------
---x---------------------------------------#-----##-------------####-----------------------------x----------x-x-----------------------------------------------------x--
--x----------#---------------------------------------------------------------------------------e#-xxxxxxxxxx---xxxxxxxxxxxxxxxxxxxxxxxxxxxxxxxxxxxxxxxxxxxxxxxxxxxxx-x-
###-----------#######------------------------------------------------------------------------###############---#####################################################--x
###-----------#######------------------------------------------------------------------------###############---#####################################################---
###-----------#######------------------------------------------------------------------------###############---#####################################################---
