-----------------------------------------------------------------------------------------------------------------------------------------------------------------------------
-----------------------------------------------------------------------------------------------------------------------------------------------------------------------------
-----------------------------------------------------------------------------------------------------------------------------------------------------------------------------
-----------------------------------------------------------------------------------------------------------------------------------------------------------------------------
----------e---##-------------------------------------------------------------------------------------------------------------------------------------------------------------
---------------------------------------------------------------------------------------------------B---------o--------------------B----------------------------B-------------
-------xxxxxxxx-------------------------------------e----------------------------------------------------------------------------------------------------B-------------------
------x#######-x-----------------------------------pP------------------------------------------------------------------------------------------------------------------------
------x---------x##--------------xx----------------pP------------------------------------------------------------------------------------------------------------------------
---xxxx----------x--------------xx-xxx-------------p##B------------------------------------B------??--?-?---xx----xx------------------------------------------BB-----------BB
--x#####----------x-----xx----exx-----xxx--------e------xxxx-----------B-----------------------------------xx-x--xx-xx-------------------------------xxxx--------------------
--x----------------x----x-x----x------pP-x--------------xpP-x----------b-----------------------------------x---x-x--#-x------------------------------xpP-x------------------x
--x-------------oo--xxxx---xxxx-------pP--xxxxxxxxxxxxxx-pP--xxxxxxxxxxxxxxxxxxxxxxxxxxxxxxxxxxxxxxxxxxxxxx---B-x---#--xxxxxxxxxxxxxxxxxxxxxxxxxxxxxx-pP--xxxxxxxxxxxxxxxxxx-
###-------------########--#####------######################################################################----##--#####################################--###################
###-------------########--#####------######################################################################----##--#####################################--###################
###-------------########--#####------######################################################################----##--#####################################--###################
