-----------------------------------------------------------------------------------------------------------------------------------------------------------------------------
-----------------------------------------------------------------------------------------------------------------------------------------------------------------------------
-----------------------------------------------------------------------------------------------------------------------------------------------------------------------------
---------------------------------------------------------------------------------------------------------------------------------------------------------------x-------------
---------------##-----------------------------------------------------------------------------------------------------------xx-------------------------------xx-x------------
--------------------------------------------------------------------o------------------------------------------------------xx-xxx---------------------------x##--x-----------
------xxxxxxxxxx----------------------------------------------------------------------------------------------------xx----xx-----x-------------------------x###---x----------
-----xx########-x--------------------------------------------------------------------------------------------------xx-xxx-x------ox-----------------------x####----x---------
-----x-----------x---o--------------------------------------------------xx----------------------------------------xx-----x---------x---------------------x#####-----x--------
---xx-------------x----------xxx--------xxx-------------------eo?B-----xx-xxx----------------------o-----------B--x-----pP-------#--x-------------------x######------x-------
--x###-#-----------x--------xpP-x------xpP-x--------------------------xx#----xxx------------------------B-------xx------pP-----------x----xxxx---------x#######-------x------
--x---#-------------x-------xpP--x-----xpP--x-------------------------x-#----pP-x--------B----------------------xpP-----pP------------x---xpP-x-------x########--------x----x
--x------------------xxxxxxxxpP---xxxxxxpP---xxxxxxxxxxxxxxxxxxxxxxxxx-##----pP--xxxxxxxxxxxxxxxxxxxxxxxxxxxxxxxepP-----pP-------------xxx-pP--xxxxxxx#########---------xxxx-
###--------------########################################################---###############################################----------##################################-#####
###--------------########################################################---###############################################----------##################################-#####
###--------------########################################################---###############################################----------##################################-#####
