-------------------------------------------------------------------------------------------------------------------------------------------------------------------------
-------------------------------------------------------------------------------------------------------------------------------------------------------------------------
-----------?-------------------------------------------------------------------------------------------------------------------------------------------------------------
-----------------------------------------------------------------------------------##------------------------------------------------------------------------------------
---------##-o---o------------o-o-------ooo--------------------------------------o----------------------------------------------------------------------------------------
-----------#####-----##--#######-------###------------------##--##----o--------###-----------oo-----#--------------------------------------------------------------------
--------------------------------------------------------------------------------------#----------------------------------------------------------------------------------
-----####----------------------------------------------------------------------------------------------#-----------------------------------------------------------------
--------------------------------###--------------------------------o------o-----------------------------e----------------------------------------------------------B-BBBB
------------#-------#--#--#---------------------###----####--------##-#---#####----------####-####----------------------------------------------------------------B------
---###---------------------------------------------------------------------------------------------------------------------e-----------------e---------e-----------------
-----------------o#--------------------------------------------------------------------------------------------b----------pP----------------pP--------pP-----------------
-----------------###-------------------------------------------------------------------------------------------b------e---pP----------------pP-e------pP-----------BBBBBB
###-----------------------------------####-#####-----------------------------------------------------#########################################-#---###########-----------
###-----------------------------------####-#####-----------------------------------------------------#########################################-#---###########-----------
###-----------------------------------####-#####-----------------------------------------------------#########################################-#---###########-----------
