12	2
11	3
10	3
10	4
11	5
11	6
11	7
10	8
9	8
9	9
8	9
8	10
7	10
7	11
8	12
8	13
8	14
8	15
8	16
8	17
8	18
8	19
8	20
8	21
8	22
8	23
7	24
6	25
5	25
5	26
6	27
7	28
8	29
7	30
8	31
7	32
6	32
6	33
5	33
5	34
4	34
4	35
4	36
4	37
3	38
2	38
2	39
1	39
1	40
0	40
0	41
1	42
1	43
1	44
2	45
3	46
4	47
5	48
6	49
7	50
8	51
9	52
9	53
9	54
10	55
11	56
12	57
12	58
12	59
12	60
12	61
12	62
12	63
12	64
12	65
12	66
11	67
10	67
9	67
8	67
8	68
8	69
8	70
8	71
7	72
6	72
6	73
5	73
5	74
6	75
7	76
7	77
7	78
6	79
6	80
6	81
6	82
6	83
6	84
5	85
4	85
4	86
5	87
6	88
6	89
6	90
6	91
6	92
6	93
6	94
6	95
6	96
6	97
6	98
5	99
6	100
6	101
6	102
6	103
6	104
6	105
6	106
6	107
6	108
6	109
6	110
6	111
6	112
6	113
6	114
6	115
6	116
6	117
6	118
6	119
7	120
8	121
9	122
10	123
11	124
12	125
12	126
12	127
12	128
12	129
12	130
12	131
12	132
12	133
12	134
12	135
12	136
12	137
12	138
12	139
12	140
12	141
11	142
10	143
9	144
8	145
7	145
7	146
6	146
6	147
6	148
5	149
4	149
4	150
3	150
3	151
4	152
5	153
6	154
7	155
8	156
9	157
8	158
7	158
7	159
6	159
6	160
5	160
5	161
6	162
6	163
6	164
7	165
8	166
9	167
10	168
11	169
12	170
12	171
12	172
12	173
11	174
