-----------------------------------------------------------------------------------------------------------------------------------------------------------------------------------------
---------xx------------------------------------------------------------------------------------------------------------------------------------------------------------------------------
--------xx-x-----------------------------------------------------------------------------------------------------------------------------------------------------------------------------
--------x--exxxxxxxxxxxxx----------------------------------------------------------------------------------------------------------------------------------------------------------------
---xxxxx---#############-x-------------------------------------------------------------------------------------------------------------------------------------------------------#o-o----
---x####------------------x--------------------------------------------------------------------------------------------------------------------xxx--------------------------------######-
---x-----------------------xo-----------------------------------------------------------------------------------------------------------------x##-x--------------------------------------
---x------------------------x----------------------------------------------------------------------------------------------------------------x####-x---------------------------------x--x
--xx-------------------------x----------------------------------------------------------------------------------------------xxx------------xx#####--x-------------------------xxxxxxx-xx-
--x#---##---------------------x----------------------------------------xxx--------------------------xxx-----------xxx------xxpPxx---------x#######---x---------------------o-xx######-##-
--x----------------------------x---------B--------------B--------------x#-x-------xxxx--xxxx-------xpP-x---------xpP-x----xx-pP--x-------x########----x----------------xx----x-----------
--x-----------------------------x--------xx-----x-------b-------------x-#--x---B--xpP-x-xpP-x------xpP--x--------xpP--x---x--pP---xe----x#########-----x---------------x-xxxx------------
--x---------------------------e--xxxxxxxxB-xxxxx-xxxxxxxxxxxxxxxxxxxxx#-#---xxxxxx-pP--x-pP-exxxxxxxpP--exxxxxxxxxpP---xxx---pP----xxxxx##########------xxxxxxxxxxxxxxx--####------------
#####----------------------####--###############-######################-###############################################################################################------------------
#####----------------------####--###############-######################-###############################################################################################------------------
#####----------------------####--###############-######################-###############################################################################################------------------
