------------------------------------------------------------------------------------------------------------------------------------------------------------------------------
------------------------------------------------------------------------------------------------------------------------------------------------------------------------------
-----------------------e------xx---------xx--------------------oo-------------------------------------------------------------------------------------------------------------
------------------x---------x-x-x--------x-x-----------e-------##-------------------------------------------------------------------------------------------------------------
------xxxxxxxxxxxx-xxxxxxxxx-x---xxxxxxxx---x---------------------------------------------------------------------------------------------------------------------------------
------x##########B-#########-#---########----x----------------------------------------------------------------------------------------------------------------BBBBBB----------
------x---------------------------------------xxxxxxxxxxxxxxxx------------xx--------------------------------------------------------------------------------------------------
------x---------------------------------------###############-x-------x---x-x-------------------------------------------------------------------------------------------------
----xx---o-----------------------------------e-----------------x--xxxx-xxx---x----------------------------------------------------------------------------------------xxx-----
---xx#####-####--###--------------------------------------------xx####-###----x-------------B?---------------------------------------B--------------------------BBB--xxpPxx---
--xx------------------------------------------------------------##-------------x-----------e--------------------------------e----------------------------xxxxe------xx-pP--x--
--x---------------------------------------------------------------------------o-x-------------------------------------------B------------------------B---xpP-x------x--pP---x-
-xx----------------------------###-----------------------------------------------xxxxxxxxxxxxxxxxxxxxxxxxxxxxxxxxxxxxxxxxxxxxxxxxxxxxxxxxxxxxxxxxxxxxxxxx-pP--xxxxxx---pP----x
###-----------------------------------------------------------------------------######################################################################################-###-###
###-----------------------------------------------------------------------------######################################################################################-###-###
###-----------------------------------------------------------------------------######################################################################################-###-###
