------------------------------------------------------------------------------------------------------------------------------------------------------------------------
------------------------------------------------------------------------------------------------------------------------------------------------------------------------
--------------------o--o------------------------------------------------------------------------------------------------------------------------------------------------
-----------------------##-----------------------------------------------------------------------------------------------------------------------------------------------
-----------##------------------------------------------------------------------------------------------------------------------------e----------------------------------
--------------------B----------------------------------------------------BBBBBB----------------------------------------------------BBBBB--------------------------------
----------e--------o-----------------------------------------------------o----------------------------------------------------------------------------------------------
------#####---------------------------------------------------------P---------------------------------------------------------------------------------e-----------------
---------------###-##----------------------------e-----------------pP---------------------------------------------------------------------------------------------------
--------------------##--------------------------pP-----------------pP------BBB-----------------------------------------------oB?BB?BBBBBB-----------------------------#-
---####-----------------------------------------pP-----------------pP-----------#-#-------------------------------------------------------------------------------------
------------------------------------------------pP----------B------pP----------####-------pP-----p------------------------------------------------B-----------e---------
-------------o--o-----##--##---------e--e-------pP----------b--e---pP----------####-------pP-----#---------e-----------------e--------------------B---------------------
###----------####-----------#####--##################################---##########-#################################################################----############----
###----------####-----------#####--##################################---##########-#################################################################----############----
###----------####-----------#####--##################################---##########-#################################################################----############----
