----------------------------------------xx-------------------------------------------------------------------------------------------------------------------------------------
---------------------------------------xx-xxx----------------------------------------------------------------------------------------------------------------------------------
--------------------------------------xx-----x---------------------------------------------------------------------------------------------------------------------------------
--------------------------------------x-------x-------------------------------------------------------------------------------------------------------xx-----------------------
-------------eoooo-ooo------------xxxx---------x-------------------------------------xx--------------------------------------------------------------xx-x----------------------
-------------##########--xx------xx###----------x--BB--------------------xx-o--------x-x-----------x----------------------B-##-----------------------x---x------xxB------------
-------------------------x-x----xx------oo-------x----------------------xx-x---xxxxxx---xxxxxxxxxxx-xxxxxxxxxxxxxxxxxxxx--------------------------xxx-----x----xx-xxx----------
----------xx------------x---x-x-x-----------------x---------------------x---xxx######--############-###################-x------------------------xxpP------x--xx-----x---------
---------xx-xxxxxxxxxxxx#----x-x-------------------x-----o---------xxxxx----###------------------------------------------x-----------------------x-pP-------x-x-------x--------
--------xx--############-----#-B-#-----------pP-----xxx------------x####--------------------------------------------------x---------------------x--pP--------x-----##--x-------
---xx---x------------------------------------pP-----pP-x-----------x-------------------------------------------------------x-------------------x##-pP-----e--#-----##---x------
---x-xxx-----------------------#-------------pP-----pP--x----------x--------------------------------------------------------x-----------------x###-pP--------#-----###---x----x
--x--####-----------------##----#-----------epP-----pP---xxxxxxxxxx-----------------------------------------------------o-oo-xxxxxxxxxxxxxxxxx####-pP--------#-----###----xxxx-
###-----------------------------#-------############################----------------------------------------------------#########################--############----###########-
###-----------------------------#-------############################----------------------------------------------------#########################--############----###########-
###-----------------------------#-------############################----------------------------------------------------#########################--############----###########-
