12	2
11	3
10	3
9	3
8	3
8	4
8	5
8	6
8	7
8	8
8	9
8	10
8	11
9	12
10	13
11	14
12	15
11	16
11	17
10	18
11	19
12	20
12	21
12	22
12	23
11	24
10	24
10	25
9	25
9	26
8	26
8	27
8	28
9	29
10	30
12	31
11	32
10	32
10	33
9	33
9	34
8	34
8	35
8	36
9	37
9	38
10	39
11	40
12	41
12	42
12	43
12	44
12	45
12	46
12	47
12	48
12	49
12	50
12	51
11	52
10	52
10	53
9	53
9	54
8	54
8	55
8	56
9	57
9	58
9	59
9	60
10	61
11	62
12	63
12	64
12	65
12	66
12	67
12	68
12	69
12	70
12	71
12	72
12	73
12	74
11	75
10	75
10	76
10	77
10	78
11	79
12	80
12	81
12	82
12	83
12	84
12	85
12	86
11	87
10	87
10	88
10	89
10	90
11	91
12	92
11	93
10	93
10	94
9	94
9	95
10	96
11	97
12	98
12	99
12	100
12	101
11	101
10	101
9	102
9	103
9	104
10	105
11	106
12	107
12	108
11	109
10	110
10	111
10	112
10	113
11	114
12	115
12	116
12	117
12	118
12	119
12	120
11	121
10	121
10	122
10	123
11	124
12	125
12	126
12	127
12	128
12	129
11	129
10	129
9	130
9	131
9	132
10	133
11	134
12	135
12	136
12	137
12	138
11	139
10	139
10	140
10	141
11	142
12	143
12	144
12	145
12	146
12	147
12	148
12	149
12	150
12	151
11	152
10	152
10	153
10	154
10	155
11	156
12	157
12	158
12	159
12	160
12	161
12	162
12	163
12	164
12	165
12	166
12	167
12	168
12	169
11	170
