12	2
11	3
10	3
10	4
11	5
11	6
11	7
11	8
10	9
9	9
9	10
8	10
8	11
8	12
8	13
8	14
7	15
8	16
8	17
8	18
8	19
8	20
8	21
8	22
8	23
8	24
8	25
9	26
10	27
11	28
11	29
11	30
11	31
11	32
11	33
11	34
11	35
11	36
11	37
10	38
9	39
8	39
8	40
7	41
6	41
6	42
7	43
7	44
8	45
7	46
8	47
9	48
10	49
11	50
12	51
12	52
12	53
12	54
12	55
12	56
12	57
12	58
12	59
11	59
10	59
9	60
9	61
9	62
10	63
11	64
12	65
12	66
12	67
12	68
12	69
12	70
12	71
12	72
11	73
10	73
10	74
9	74
9	75
9	76
8	77
8	78
9	79
10	80
11	81
12	82
12	83
12	84
12	85
12	86
12	87
11	88
10	88
9	88
8	88
8	89
8	90
7	91
6	91
6	92
5	92
5	93
6	94
7	95
8	96
8	97
8	98
9	99
10	100
11	101
12	102
12	103
12	104
11	105
10	105
10	106
10	107
9	108
8	108
8	109
7	109
7	110
8	111
9	112
10	113
11	114
12	115
11	116
10	116
10	117
9	117
9	118
10	119
11	120
12	121
12	122
12	123
12	124
12	125
12	126
12	127
12	128
12	129
12	130
12	131
12	132
12	133
11	134
10	134
10	135
11	136
12	137
12	138
12	139
11	140
10	140
10	141
11	142
12	143
12	144
12	145
12	146
12	147
12	148
12	149
12	150
12	151
12	152
12	153
12	154
12	155
12	156
12	157
12	158
12	159
12	160
12	161
12	162
12	163
12	164
12	165
12	166
12	167
12	168
12	169
12	170
11	171
10	172
9	173
8	174
8	175
7	176
8	177
9	178
10	179
