------------------------------------------------------------------------------------------------------------------------------------------------------------------------------------------------
------------------------------------------------------------------------------------------------------------------------------------------------------------------------------------------------
----------------o-------------------------------------------------------------------------------------------------------------------------------------------------------------------------------
------------------------------------------------------------------------------------------------------------------------------------------------------------------------------------------------
-------eoooo----------o---------------------------------------------------------------------------------------------------xxxx------------------------------------------------------------------
-------######--##-------------------------------------------?--BB?--BBB---------------------------------------------------x##-x-----------------------------------------------------------------
--------------xx--------------------------------------------------------------------------------------------------------xx-##--x----------------------------------------------------------------
--------------x-x-------------------------------------------------------------------------------------------------------x####---x---------------------------------------------------------------
---xxxxxxxxxxx---xxxxx----------------------------------------------------------e--------------------------------------x-####----x-------------------------------------------xxx----------------
---x##########---####-x----------------------------------BB??--BBBB?B?B?B------e???BB-------------?----------------x--x######-----x-----------------------------------------xxpPxx--------------
---x-------------------x----------------------------------------------------------------------xx---------------B-xx-xx#######------x---------------------------------------xx-pP--x-------------
---x--------------------x---------------------------------------------------------------------x-x--------------bx##-#########-------x--------------------------------------x--pP---x---B-------x
--x------------#------##-xxxxxxxxxxxxxxxxxxxxxxxxxxxxxxxxxxxxxxxxxxxxxxxxxxxxxxxxxxxxxxxxxxxxx---xxxxxxxxxxxxxxx#############--------xxxxxxxxxxxxxxxxxxxxxxxxxxxxxxxxxxxxxx---pP----xxxxxxxxxxx-
###---------------------######################################################################--################################################################################################
###---------------------######################################################################--################################################################################################
###---------------------######################################################################--################################################################################################
