---------------------------------------------------------------------------------------------------------------------------------------------------------------#-----------
---------------------------------------------------------------------------------------------------------------------------------------------------------------#-----------
---------------------------------------------------------------------------------------------------------------------------------------------------------------p-----------
---------------------------------------------------------------------------------------------------------------------------------------------------------------p-----------
------------------o--------------------------------------------------------------------------------------------------------------------------------------------p-----------
---#-------------###------------------------------------------------------------------------------------------------B------------------------------------------p-----------
------------------------o--------------------------------------------------------------------------------------------------------------------------------------------------
----------------------------------------------------------B----------------------------------------------------------------------------------------------------------------
---------------------------------------------------------------------------------------------------------------------------------------------------------------------------
----######-###-----------------------pP---------------pP----------##-----------------B------------B??---------------B-----------------------------------e------------e--#--
----##----#--------------------------pP---------------pP----------##------------------------------------------------------e-----------------------e----pP-------e---pP--#--
-------------------------------------pP---------------pP--------####----------B------------------------------------------------------------------------pP-------P---pP--#--
-------------------------------------pP---------------pP-------#####----------b------e-ee---------e-----e-eee----------------------e--e----------------pP----e--P---pP--#--
###-------------###-----#######--#########--#############-#########--#################################################################################################--##-
###-------------###-----#######--#########--#############-#########--#################################################################################################--##-
###-------------###-----#######--#########--#############-#########--#################################################################################################--##-
