12	2
11	2
10	2
9	3
9	4
9	5
9	6
8	6
7	6
6	7
6	8
6	9
6	10
5	10
4	10
3	11
3	12
3	13
4	14
4	15
3	16
2	16
2	17
1	17
1	18
0	18
0	19
1	20
1	21
1	22
2	23
3	24
4	25
4	26
4	27
4	28
4	29
4	30
3	31
2	31
2	32
3	33
4	34
5	35
5	36
5	37
5	38
4	39
5	40
6	41
7	42
7	43
7	44
6	45
6	46
6	47
6	48
6	49
6	50
5	51
4	51
4	52
3	52
3	53
2	53
2	54
3	55
3	56
3	57
4	58
3	59
3	60
2	61
1	61
1	62
0	62
0	63
1	64
2	65
3	66
4	67
5	68
6	69
7	70
8	71
8	72
9	73
10	74
11	75
12	76
12	77
12	78
12	79
12	80
12	81
12	82
12	83
12	84
11	85
10	85
10	86
9	86
9	87
8	87
8	88
8	89
9	90
9	91
10	92
11	93
12	94
12	95
12	96
12	97
12	98
12	99
12	100
12	101
12	102
12	103
12	104
12	105
12	106
12	107
12	108
12	109
12	110
12	111
12	112
11	113
10	113
10	114
10	115
11	116
12	117
12	118
12	119
12	120
12	121
12	122
12	123
12	124
12	125
12	126
12	127
12	128
12	129
12	130
12	131
12	132
12	133
12	134
12	135
12	136
12	137
11	138
10	138
10	139
10	140
10	141
11	142
12	143
12	144
12	145
12	146
12	147
12	148
12	149
12	150
12	151
12	152
12	153
12	154
11	155
10	156
9	156
9	157
10	158
11	159
12	160
12	161
11	162
10	162
10	163
10	164
9	165
10	166
11	167
12	168
