12	2
11	3
10	3
10	4
9	4
9	5
9	6
9	7
9	8
9	9
9	10
8	10
7	10
6	11
6	12
6	13
6	14
6	15
6	16
5	16
4	16
3	17
3	18
3	19
4	20
4	21
4	22
4	23
5	24
6	25
7	26
8	27
8	28
8	29
8	30
8	31
7	32
6	32
5	32
4	32
4	33
4	34
3	35
2	35
2	36
1	36
1	37
0	37
0	38
1	39
1	40
1	41
2	42
3	43
4	44
4	45
3	46
4	47
4	48
5	49
6	50
6	51
6	52
6	53
6	54
6	55
6	56
6	57
7	58
8	59
9	60
10	61
10	62
10	63
10	64
10	65
10	66
10	67
10	68
10	69
10	70
10	71
10	72
10	73
9	74
9	75
9	76
9	77
8	78
7	78
7	79
6	79
6	80
6	81
6	82
6	83
6	84
6	85
6	86
6	87
6	88
6	89
6	90
5	91
5	92
6	93
7	94
8	95
9	96
10	97
11	98
12	99
12	100
12	101
12	102
12	103
12	104
12	105
12	106
11	107
10	107
10	108
9	108
9	109
8	109
8	110
8	111
8	112
8	113
8	114
8	115
9	116
10	117
11	118
12	119
12	120
11	121
10	121
10	122
9	122
9	123
10	124
11	125
12	126
12	127
12	128
12	129
11	130
10	130
10	131
11	132
11	133
12	134
12	135
11	136
10	136
10	137
11	138
12	139
11	140
10	140
10	141
11	142
12	143
12	144
12	145
12	146
12	147
12	148
12	149
12	150
12	151
12	152
12	153
12	154
12	155
12	156
12	157
12	158
12	159
11	160
10	160
10	161
10	162
10	163
11	164
12	165
12	166
12	167
12	168
12	169
11	170
10	171
9	172
8	173
7	174
6	175
7	176
