12	2
11	2
10	2
9	2
8	2
8	3
8	4
8	5
8	6
8	7
7	8
6	8
6	9
5	9
5	10
4	10
4	11
5	12
5	13
5	14
6	15
7	16
7	17
7	18
7	19
7	20
7	21
7	22
7	23
7	24
7	25
7	26
6	27
5	27
4	27
3	27
3	28
3	29
3	30
2	31
1	31
1	32
2	33
3	34
3	35
3	36
2	37
1	37
1	38
0	38
0	39
0	39
0	40
1	41
1	42
1	43
2	44
3	45
4	46
4	47
4	48
3	49
4	50
5	51
6	52
7	53
7	54
7	55
8	56
8	57
9	58
10	59
10	60
9	61
9	62
9	63
9	64
9	65
10	66
11	67
12	68
12	69
12	70
11	71
10	71
10	72
10	73
10	74
11	75
12	76
12	77
12	78
12	79
11	80
10	80
10	81
10	82
10	83
11	84
12	85
12	86
12	87
12	88
12	89
12	90
12	91
12	92
12	93
12	94
12	95
12	96
11	96
10	96
9	97
9	98
8	99
7	99
7	100
6	100
6	101
7	102
8	103
9	104
9	105
10	106
11	107
12	108
12	109
12	110
12	111
12	112
11	113
10	113
10	114
9	115
10	116
11	117
10	118
9	119
8	120
7	121
7	122
6	123
7	124
8	125
8	126
8	127
8	128
8	129
9	130
10	131
11	132
12	133
11	134
12	135
12	136
12	137
12	138
12	139
12	140
12	141
12	142
12	143
12	144
12	145
12	146
12	147
12	148
12	149
11	150
10	150
9	150
8	150
8	151
7	152
6	152
6	153
7	154
8	155
9	156
10	157
11	158
12	159
12	160
12	161
12	162
12	163
12	164
12	165
12	166
12	167
12	168
12	169
12	170
12	171
12	172
11	173
