---------------------------------------------------------------------------------------------------------------------------------------------------------------------------
---------------------------------------------------------------------------------------------------------------------------------------------------------------------------
----------------------xx---------------------------------------------------------------------------------------------------------------------------------------------------
---------------------xx-xxx---------xx----------------------------------------------------------------------------------------------------------------------------------x--
--------------------xx-----xxxxx----x-x-xxxxxxxx--------o-------------------------------------------------------------------------------------------------------------xx-x-
--------------------x------####-x--x---x#######-x---------------?----------------------------------------------------------------------------------------------------x##--x
-------xxxxxxxxxxxxx-----------#-xx#---#---------x--xx-----------------xx-------------------------------------------------------------------------------------------x###---
------x###############-----------##-#-------------xx#-x---------------x#-x-----------------------------------------------------------------------------------------x####---
------x-------------------------------------------###--x-------------x###-x---------------------------------------------------------------------------------------x#####---
---xxxx-------------------------------------------------x----------xx#####-x??-----xxx----xx---------------------------------------------------------------------x######---
--x#####-------------------------------------------------x--------xx######--x-----xpP-x--xx-x---------xxxx--------xxxx-----------------------------xx-----------x#######---
--x-----------------------------##--##--------------------x-------x-######---x----xpP--x-x---x--------xpP-x-------xpP-x----b-----------------------x-x---------x########---
--x---------------------####-------------------------------xxxxxxx-#######----xxxxxpP---x-----xxxxxxxx-pP--xxxxxxx-pP--xxxxxxxxxxxxxxxxxxxxxxxxxxxx---xxxxxxxxx#########---
###-----------------------------------###----------------################################----######################################################--######################
###-----------------------------------###----------------################################----######################################################--######################
###-----------------------------------###----------------################################----######################################################--######################
