12	2
11	2
10	2
9	3
9	4
8	5
7	5
7	6
6	6
6	7
6	8
6	9
6	10
6	11
6	12
6	13
6	14
6	15
7	16
8	17
9	18
10	19
11	20
12	21
12	22
12	23
12	24
12	25
12	26
12	27
12	28
11	28
10	28
9	29
9	30
9	31
10	32
11	33
12	34
12	35
12	36
12	37
12	38
12	39
11	39
10	39
9	40
9	41
9	42
10	43
11	44
12	45
12	46
12	47
12	48
12	49
12	50
12	51
12	52
12	53
12	54
12	55
12	56
12	57
12	58
12	59
12	60
12	61
12	62
12	63
12	64
12	65
12	66
12	67
12	68
12	69
11	70
10	70
10	71
9	71
9	72
8	72
8	73
9	74
9	75
9	76
10	77
10	78
10	79
11	80
12	81
12	82
12	83
12	84
12	85
12	86
12	87
12	88
12	89
12	90
12	91
12	92
12	93
12	94
12	95
12	96
12	97
12	98
12	99
12	100
12	101
12	102
12	103
12	104
12	105
12	106
12	107
12	108
12	109
12	110
12	111
11	112
10	112
10	113
9	114
8	114
8	115
7	115
7	116
6	116
6	117
7	118
7	119
7	120
8	121
7	122
6	122
6	123
5	123
5	124
4	124
4	125
5	126
5	127
5	128
6	129
7	130
8	131
9	132
10	133
11	134
12	135
12	136
12	137
11	138
10	138
10	139
10	140
10	141
11	142
12	143
12	144
12	145
12	146
12	147
12	148
12	149
11	150
10	151
9	152
8	153
7	154
6	155
5	156
4	157
4	158
3	159
4	160
5	161
6	162
7	163
8	164
9	165
10	166
11	167
12	168
12	169
12	170
12	171
11	172
