12	2
12	3
12	4
12	5
12	6
12	7
12	8
12	9
12	10
12	11
12	12
11	13
10	14
9	14
8	14
7	15
8	16
7	17
7	18
8	19
9	20
10	21
11	22
11	23
10	24
9	24
9	25
8	25
8	26
7	26
7	27
8	28
8	29
8	30
9	31
10	32
11	33
11	34
12	35
11	36
10	36
10	37
9	37
9	38
8	38
8	39
8	40
9	41
9	42
10	43
11	44
12	45
12	46
12	47
12	48
12	49
12	50
12	51
11	52
11	53
11	54
12	55
12	56
11	57
11	58
12	59
11	60
11	61
10	62
9	62
9	63
8	63
8	64
7	64
7	65
8	66
8	67
8	68
9	69
10	70
11	71
12	72
12	73
12	74
12	75
11	76
10	77
11	78
11	79
11	80
12	81
12	82
12	83
12	84
11	85
10	85
10	86
9	86
9	87
10	88
11	89
12	90
12	91
12	92
11	93
10	94
9	94
9	95
8	95
8	96
8	97
8	98
9	99
10	100
11	101
12	102
12	103
12	104
12	105
11	106
10	107
9	107
9	108
10	109
9	110
10	111
11	112
10	113
9	113
9	114
8	114
8	115
8	116
7	117
8	118
9	119
9	120
8	121
7	121
7	122
6	122
6	123
7	124
7	125
8	126
9	127
10	128
11	129
12	130
12	131
11	132
10	132
10	133
11	134
12	135
12	136
12	137
12	138
12	139
12	140
12	141
12	142
12	143
12	144
11	145
10	145
10	146
9	146
9	147
9	148
10	149
11	150
12	151
12	152
11	153
11	154
11	155
12	156
12	157
12	158
12	159
12	160
12	161
12	162
12	163
12	164
12	165
12	166
12	167
12	168
11	168
10	168
9	169
9	170
9	171
10	172
11	173
12	174
12	175
12	176
12	177
12	178
12	179
11	180
10	180
10	181
9	181
8	181
7	181
6	181
5	181
4	181
3	181
2	181
1	182
2	183
2	184
2	185
3	186
4	187
5	188
6	189
7	190
8	191
9	192
10	193
11	194
12	195
11	196
