---------------------------------------------------------------------------------------------------------------------------------------------------------------------------
---------------------------------------------------------------------------------------------------------------------------------------------------------------------------
---------------------------------------------------------------------------------------------------------------------------------------------------------------------------
---------------------------------------------------------------------------------------------------------------------------------------------------------------------------
---------------------------------------------------------------------------------------------------------------------------------------------------------------------------
--------------BB-------------------------------------------------------------BBBBBB?BBBBBBBBBBB?B--BBBBBBBBBB--------------------------------------------------------------
---------------------------------------------------------------------------------------------------------------------------------------------------------------------------
------------------------------------------------##-----------------B-------------------------------------------------------------------------------------------------------
-----------------------------------------------###----------------##-------------------------------------------------------------------------------------------------------
----------##-####-----------------#----------#####---------------###---------BBBBBBBBBBBBBBBBBBBBBBBBBBBBBBBBB-------------------------------------------------------------
--------e######-----------------###---------######--------------####------------------------------------------------------------------------------------#------------------
--------#####------------------####--------#######-------------#####------------------------------------------------------------------------------------#------------------
------######------------------#####----e--########------------######-------e----------------------------------------------------------------------------#------------------
###########----##----##############--##########-###################-######################################################--##################---######-########---#######-
###########----##----##############--##########-###################-######################################################--##################---######-########---#######-
###########----##----##############--##########-###################-######################################################--##################---######-########---#######-
