12	2
12	3
12	4
12	5
12	6
12	7
12	8
12	9
11	10
10	11
10	12
10	13
10	14
9	15
8	15
8	16
8	17
8	18
8	19
8	20
8	21
8	22
8	23
8	24
7	25
8	26
8	27
8	28
8	29
8	30
8	31
8	32
8	33
8	34
8	35
8	36
7	37
8	38
8	39
7	40
6	40
6	41
7	42
8	43
9	44
10	45
11	46
12	47
12	48
12	49
11	50
10	50
10	51
9	51
9	52
8	52
8	53
7	54
6	54
6	55
5	55
5	56
4	56
4	57
5	58
5	59
5	60
5	61
5	62
4	63
3	63
3	64
3	65
2	66
1	66
1	67
2	68
3	69
3	70
3	71
4	72
5	73
6	74
7	75
8	76
9	77
9	78
9	79
9	80
9	81
9	82
9	83
9	84
9	85
9	86
8	87
9	88
10	89
11	90
12	91
12	92
12	93
12	94
12	95
12	96
11	97
10	97
9	97
8	97
8	98
8	99
8	100
7	101
6	101
6	102
5	102
5	103
4	103
4	104
5	105
5	106
5	107
6	108
7	109
8	110
9	111
8	112
7	112
7	113
8	114
8	115
8	116
7	117
6	117
6	118
5	118
5	119
5	120
4	121
5	122
6	123
6	124
6	125
7	126
8	127
9	128
10	129
11	130
12	131
12	132
12	133
12	134
12	135
12	136
12	137
12	138
12	139
12	140
11	141
11	142
12	143
12	144
12	145
12	146
12	147
12	148
12	149
12	150
12	151
12	152
12	153
12	154
12	155
12	156
11	157
12	158
12	159
12	160
12	161
12	162
12	163
12	164
12	165
12	166
12	167
11	168
10	169
9	170
8	171
7	171
7	172
6	172
6	173
5	173
5	174
6	175
6	176
6	177
7	178
8	179
9	180
10	181
10	182
10	183
11	184
12	185
12	186
12	187
12	188
12	189
12	190
12	191
11	192
