12	2
12	3
12	4
12	5
12	6
12	7
12	8
12	9
12	10
12	11
12	12
12	13
12	14
12	15
12	16
12	17
12	18
12	19
12	20
12	21
12	22
12	23
12	24
12	25
12	26
11	26
10	26
9	27
9	28
8	29
7	29
7	30
6	30
6	31
5	31
5	32
6	33
6	34
6	35
7	36
8	37
8	38
9	39
10	40
11	41
12	42
12	43
12	44
12	45
12	46
12	47
11	48
10	49
9	50
8	51
7	52
7	53
6	54
6	55
7	56
8	57
8	58
9	59
9	60
9	61
9	62
9	63
9	64
10	65
11	66
12	67
12	68
12	69
12	70
12	71
12	72
12	73
12	74
11	75
10	75
9	75
8	75
8	76
8	77
8	78
8	79
8	80
7	81
6	81
6	82
5	82
5	83
4	83
4	84
4	85
4	86
4	87
5	88
6	89
7	90
8	91
8	92
8	93
8	94
8	95
8	96
8	97
9	98
10	99
11	100
12	101
12	102
12	103
12	104
12	105
12	106
12	107
11	108
10	109
9	110
8	111
7	112
6	113
6	114
6	115
7	116
8	117
9	118
10	119
11	120
12	121
12	122
12	123
12	124
12	125
12	126
12	127
12	128
12	129
12	130
12	131
11	132
10	133
9	134
8	135
7	136
6	137
5	138
4	139
4	140
4	141
5	142
6	143
7	144
8	145
9	146
10	147
11	148
12	149
12	150
11	151
11	152
12	153
12	154
12	155
12	156
12	157
12	158
12	159
12	160
12	161
12	162
12	163
12	164
12	165
12	166
12	167
12	168
12	169
12	170
12	171
12	172
12	173
12	174
12	175
12	176
12	177
12	178
12	179
12	180
12	181
12	182
12	183
12	184
11	185
