--------------------------------------------------------------------------------------------------------------------------------------------------------------------------------------------
--------------------------------------------------------------------------------------------------------------------------------------------------------------------------------------------
--------------------------------------------------------------------------------------------------------------------------------------------------------------------------------------------
--------------------------------------------------------------------------------------------------------------------------------------------------------------------------------------------
---------------------------------------------------------------------------------------------------------------------------------------xxx--------------------------------------------------
-----------------------------------------------------------BBBBBB-----------------------------B---------------------------------------x##-x---------------------------------------BBB-------
-------------------------------------------------------------------------------------------------------------------------------------x###--x------------------------------------------------
------------------------------------------------------------------------------------------------------------------------------------x####---x-----------------------------------------------
------------------------------------------------------------B------------------xx-----------------xx-------------------------------x#####----x----------------------------------------------
--------------------xxx------xx-----------------------------B-----xxx---------xx-xxx----------B--xx-xxx---------------------------x######-----x-----------------------------------BBB-BB-?--
-------------------xx#-x----xx-x---------------------------------xpP-x-------xx--pP-x-----------xx#---#x-----xx-----------B------x#######------x--------------------------------------------
-------------------x-#--x---x---x------#-------------------------xpP--x------x---pP--x----------x-#---#-x----x-x----------xx----x########-------xxx--------------------------------#-------x
--xxxxxxxxxxxxxxxxx-##---xxx-----xxxxxxxxxxxxxxxxxxxxxxxxxxxxxxxxxpP---xxxxxx----pP---xxxxxxxxxx-e#---#--xxxx---xxxxxxxxxxB-xxxx#########-------##-xxxxxxxxxxxxxxxxxxxxxxxxxxxxxxxxxxxxxxxx-
############################-----############################################--##############################--############################################################################-
############################-----############################################--##############################--############################################################################-
############################-----############################################--##############################--############################################################################-
