12	2
12	3
12	4
12	5
12	6
11	7
10	7
10	8
9	8
9	9
8	10
8	11
8	12
8	13
8	14
8	15
9	16
10	17
11	18
12	19
12	20
12	21
12	22
12	23
12	24
11	25
10	25
10	26
9	26
9	27
8	27
8	28
8	29
9	30
9	31
10	32
11	33
12	34
12	35
11	36
10	36
10	37
11	38
12	39
12	40
12	41
11	42
10	43
9	44
8	45
7	46
6	47
5	47
5	48
4	49
4	50
3	51
2	51
2	52
3	53
4	54
5	55
6	56
7	57
8	58
9	59
10	60
11	61
12	62
12	63
12	64
12	65
12	66
12	67
12	68
12	69
12	70
12	71
12	72
12	73
12	74
12	75
12	76
12	77
12	78
12	79
12	80
12	81
12	82
12	83
12	84
12	85
12	86
12	87
11	88
10	88
10	89
10	90
10	91
11	92
12	93
12	94
12	95
12	96
12	97
12	98
12	99
12	100
12	101
12	102
12	103
12	104
12	105
12	106
12	107
12	108
12	109
12	110
12	111
11	112
10	113
9	114
8	115
7	116
6	117
6	118
7	119
8	120
9	121
10	122
11	123
12	124
12	125
12	126
12	127
12	128
12	129
12	130
12	131
11	132
10	132
10	133
9	133
9	134
8	134
8	135
8	136
9	137
9	138
10	139
11	140
12	141
12	142
12	143
12	144
12	145
11	146
10	147
9	148
8	149
7	150
6	151
5	152
4	152
4	153
4	154
4	155
5	156
6	157
7	158
8	159
9	160
10	161
11	162
11	163
12	164
12	165
12	166
12	167
12	168
12	169
12	170
12	171
12	172
12	173
12	174
12	175
12	176
11	177
