---------------------------------------------------------------------------------------------------------------------------------------------------------------------------
---------------------------------------------------------------------------------------------------------------------------------------------------------------------------
---------------------------------------------------------------------------------------------------------------------------------------------------------------------------
---------------------------------------------------------------------------------------------------------------------------------------------------------------------------
---------------------------------------------------------------------o-----------------------------------------------------------------------------------------------------
-----------BBBBBB-------------------------------------------##-----##-#----------------------------------------####--------------------------------------------------------
-------------------------------------------------------------------------o---o--------####---o---------------##----------------##--#---------------------------------------
------------------------------------------------------#-----------------###-#-------------------------------------------------------##########-----------------------------
-----------------------------------------------------#--oB-------------------------------------o---------------------------------------------------------------------------
------------B------e--------##---B-----------------###--------------------------####---------####----######----------------------------------------------------------------
------------------pP------e###--------------------####--------------------------------------------------------------------######------------------------#------------------
------------------pP------####-------------------#####--------------------------------------------------------------------------------------------------#------------------
-------------e----pP-----#####------e-e------e--######--------------------------------------------------------------------------------------------------#----------e-------
##############################---####################----##-------------######-------------------####---------###########----------------------##########--###########--###
##############################---####################----##-------------######-------------------####---------###########----------------------##########--###########--###
##############################---####################----##-------------######-------------------####---------###########----------------------##########--###########--###
