12	2
12	3
12	4
12	5
12	6
12	7
11	8
10	8
9	8
8	8
8	9
8	10
8	11
8	12
8	13
8	14
8	15
9	16
10	17
11	18
12	19
12	20
12	21
12	22
12	23
11	23
10	23
9	24
9	25
9	26
10	27
11	28
12	29
12	30
12	31
12	32
12	33
12	34
11	35
10	35
10	36
11	37
12	38
12	39
12	40
12	41
11	42
10	43
9	44
8	45
8	46
8	47
9	48
10	49
11	50
12	51
12	52
11	53
10	53
10	54
9	54
9	55
8	55
8	56
8	57
9	58
9	59
10	60
11	61
12	62
12	63
12	64
12	65
12	66
12	67
12	68
12	69
12	70
12	71
11	71
10	71
9	72
9	73
9	74
9	75
10	76
11	77
12	78
12	79
12	80
12	81
12	82
11	83
10	83
9	83
8	83
8	84
8	85
7	86
6	86
6	87
5	87
5	88
6	89
7	90
8	91
9	92
10	93
11	94
12	95
12	96
12	97
12	98
12	99
12	100
12	101
12	102
12	103
12	104
12	105
12	106
12	107
12	108
12	109
12	110
12	111
12	112
12	113
12	114
12	115
12	116
12	117
12	118
12	119
12	120
12	121
12	122
12	123
12	124
12	125
11	126
10	126
10	127
11	128
12	129
12	130
12	131
12	132
12	133
12	134
12	135
12	136
12	137
11	138
10	138
10	139
9	139
9	140
8	140
8	141
9	142
9	143
9	144
10	145
11	146
12	147
11	148
10	148
10	149
9	149
9	150
8	150
8	151
9	152
9	153
9	154
10	155
10	156
9	157
8	157
8	158
7	158
7	159
6	159
6	160
7	161
7	162
7	163
8	164
9	165
9	166
10	167
11	168
12	169
11	170
