12	2
12	3
12	4
12	5
12	6
11	7
10	7
9	7
8	7
8	8
8	9
8	10
7	11
6	11
6	12
5	12
5	13
6	14
7	15
7	16
7	17
7	18
6	19
5	19
5	20
4	20
4	21
4	22
4	23
4	24
4	25
3	26
2	26
2	27
1	27
1	28
0	28
0	29
1	30
1	31
1	32
2	33
3	34
3	35
4	36
5	37
6	38
7	39
8	40
7	41
6	41
6	42
5	42
5	43
4	43
4	44
4	45
4	46
4	47
5	48
6	49
7	50
7	51
8	52
8	53
8	54
7	55
6	55
6	56
5	56
5	57
4	57
4	58
4	59
5	60
4	61
5	62
6	63
6	64
6	65
6	66
6	67
6	68
6	69
6	70
6	71
6	72
6	73
6	74
6	75
6	76
7	77
8	78
9	79
10	80
9	81
10	82
10	83
10	84
9	85
10	86
11	87
12	88
12	89
11	90
10	90
9	90
8	90
8	91
8	92
8	93
8	94
8	95
7	96
8	97
9	98
10	99
11	100
12	101
11	102
10	102
10	103
9	103
9	104
8	104
8	105
9	106
9	107
9	108
10	109
9	110
8	110
8	111
7	111
7	112
6	112
6	113
6	114
6	115
5	116
6	117
7	118
8	119
9	120
9	121
9	122
9	123
8	124
7	124
7	125
6	125
6	126
7	127
8	128
8	129
8	130
7	131
8	132
9	133
10	134
11	135
12	136
12	137
12	138
12	139
12	140
12	141
12	142
12	143
11	144
10	145
11	146
11	147
11	148
12	149
12	150
12	151
12	152
12	153
12	154
12	155
12	156
12	157
12	158
12	159
11	160
12	161
11	162
10	163
9	164
8	165
7	166
6	166
6	167
5	168
4	169
4	170
3	171
2	171
2	172
1	172
1	173
0	173
0	174
1	175
1	176
1	177
2	178
3	179
4	180
5	181
6	182
7	183
