--------------------------------------------------------------------------------------------------------------------------------------------------------------------------xx-------------
-----------------------------------------------------------------------------xxxxxxxxxxxxxxxxxxxxxxxxxxxxxxxxxxxxxxxxxxxxxxx#--------------------------------------------xx-xxx----------
----------------------------------------------------------------------------xBBBBBBBBBBBBBBBBBBBBBBBBBBBBBBBBBBBBBBBBBBBBBB-x-------------------------------------------xx-----x---------
----------------------------------------------------------------------------x------------------------------------------------x------------------------------------------x-------x--------
---------------------------------------------------------------------------xx-------------------------------------------------xx---------------------------------------x---------x-------
------------------------------------------------------------------------x--xB------------------------------------------------BB-x-------------------------------------x##---------x------
-----------------------------------------------------------------------xxx-x-----------------------------------------------------x----------------------------------xx###----------x-----
----------------------------------------------------o------------------x--xx------------------------------------------------------x---------------------------------x####-----------x-x--
---------------xx----------------xxxx-----------xxx-----------------xxx----x-------------------------------------------------------x---------xx--------------------x-####------------x-x-
----------xxx-x#-x-------o-------xpP-x---------x##-x------B---------xpP----#----------------------------e-----e---------------------x-------xx-xxx----------------x#-####-----------pP--x
---------xpP-x###-x----------xx--xpP--x-------x###--x----xxx--------xpP----#---------------------------pP--e-pP-----------##---------x-----xx-----x--------------x##-####-----------pP---
---------xpP-####--x---------x-x-xpP---x-----x####---x---xB-x-------xpP----#-#-#--#--------------------pP----pP----------###----------x----x-------x------------x###-####-----------pP---
--xxxxxxxxpP#####---xxxxxxxxx---x-pP----xxxxx#####----xxx-#--xxxxxxx-pP----#-#e#--#--------------------pP----pP---ee--e-####-----------xxxx---------xxxxxxxxxxxx####-####-----------pP---
###############-#############--##################---##################################--###################################----############-#-------################-########--#########-
###############-#############--##################---##################################--###################################----############-#-------################-########--#########-
###############-#############--##################---##################################--###################################----############-#-------################-########--#########-
