12	2
12	3
12	4
12	5
11	6
11	7
10	8
10	9
10	10
9	11
8	11
8	12
7	12
7	13
6	13
6	14
7	15
7	16
7	17
8	18
8	19
8	20
9	21
10	22
11	23
12	24
12	25
12	26
12	27
12	28
12	29
12	30
12	31
12	32
12	33
12	34
12	35
12	36
12	37
12	38
12	39
12	40
12	41
12	42
11	43
12	44
12	45
12	46
12	47
12	48
12	49
12	50
12	51
12	52
12	53
12	54
12	55
12	56
12	57
12	58
12	59
11	60
10	61
9	62
8	63
7	64
7	65
7	66
6	67
7	68
7	69
8	70
9	71
10	72
11	73
12	74
12	75
12	76
12	77
12	78
12	79
12	80
12	81
12	82
11	83
10	83
9	83
8	83
8	84
8	85
8	86
8	87
8	88
8	89
7	90
6	91
5	92
4	93
4	94
4	95
5	96
6	97
7	98
8	99
9	100
10	101
11	102
12	103
12	104
12	105
12	106
12	107
12	108
12	109
11	110
10	110
10	111
10	112
10	113
11	114
12	115
12	116
12	117
12	118
12	119
12	120
12	121
12	122
12	123
12	124
11	125
10	126
9	127
8	128
8	129
8	130
9	131
10	132
9	133
8	133
8	134
9	135
9	136
9	137
9	138
9	139
9	140
10	141
11	142
12	143
12	144
12	145
12	146
12	147
12	148
12	149
12	150
12	151
12	152
12	153
12	154
12	155
12	156
11	157
10	158
9	159
8	160
8	161
7	162
8	163
9	164
10	165
11	166
