12	2
12	3
12	4
12	5
12	6
12	7
12	8
12	9
12	10
12	11
12	12
12	13
12	14
12	15
12	16
12	17
12	18
12	19
12	20
12	21
12	22
11	23
12	24
11	25
12	26
11	27
12	28
11	29
12	30
12	31
12	32
12	33
12	34
12	35
12	36
12	37
12	38
12	39
12	40
11	41
10	41
10	42
9	42
9	43
8	43
8	44
8	45
9	46
9	47
10	48
11	49
12	50
12	51
12	52
12	53
12	54
12	55
12	56
12	57
12	58
12	59
12	60
12	61
12	62
12	63
12	64
12	65
12	66
12	67
12	68
12	69
12	70
12	71
12	72
12	73
12	74
12	75
12	76
12	77
12	78
12	79
12	80
12	81
12	82
12	83
12	84
12	85
12	86
12	87
12	88
12	89
12	90
12	91
12	92
11	93
10	93
10	94
9	94
9	95
8	95
8	96
9	97
8	98
7	98
7	99
6	100
7	101
8	102
9	103
9	104
9	105
10	106
11	107
12	108
12	109
12	110
12	111
12	112
12	113
12	114
12	115
12	116
12	117
12	118
12	119
12	120
12	121
12	122
12	123
12	124
12	125
11	126
10	126
10	127
9	127
9	128
8	128
8	129
9	130
9	131
9	132
8	133
7	134
6	135
5	136
4	137
4	138
4	139
5	140
6	141
7	142
8	143
9	144
10	145
11	146
12	147
12	148
12	149
12	150
12	151
12	152
12	153
11	154
10	154
10	155
11	156
12	157
12	158
11	159
10	160
9	161
8	162
7	163
6	164
5	164
5	165
4	165
4	166
4	167
3	168
