-----------------------------------------------------------------------------------xx------------xx----------------------------------------------------------------------------------------------
----------------------------------------------------------------------------------xx-xxx--------xx-xxx-------------------------------------------------------------------------------------------
--------------------------------------------------------------------------xx-----xx-----x------xx-----x------------------------------------------------------------------------------------------
---------------xx------------o-------------------------------------------xx-xxx--x-------x-----x-------x-----------####--------------------------------------------------------------------------
--------------xx-xxxxxxxx----##----------------------xx------xx---------xx-----xx---------xxxxx---------x----xxxxxxx-----------------------------------------------------------------------------
-------------xx----#####-x-----------------xxxxxxx---x-x----xx-xxx------x------##---------#####------##--x--xx#####-x----------------------------------------------------------------------------
-------------x------------xo--------------xx#####-xxx---x--xx-----xxxxxx----------------------------------x-x--------x---------------------------------------------------------------------------
-----------xx--------------x--------------x-------###----x-x---e--########-------------------------------o-x----------x------x-------------------------------------------------------------------
----------x##---------------x---------xxxx----------------x----------------o------------#----------------####-----------xxxxx-x------------------------------------------------------------------
---------x##--#####----------x--------x###----------------###-----------------------####----------###------------#-----x#####--x---------------------------------------------o-------------------
--------x###------------------x-------x--------------------------------------##---------------------------------------##--------x-----------------------e---------------------------------xx-----
-------x####-------------------x------x-------------------------------------#----------------------------------------------------x----xx------------------------------------------xx------x-x---x
--xxxxx#####--------------------xxxxxx--------------------------------------------------------------------------------------------xxxx#-xxxxxxxxxxxxxxxxxxxxxxxxxxxxxxxxxxxxxxxxxx#-xxxxxx---xxx-
###########----------------####-#######-----------####----------------------------------------------------------##----------------########################################################--#####
###########----------------####-#######-----------####----------------------------------------------------------##----------------########################################################--#####
###########----------------####-#######-----------####----------------------------------------------------------##----------------########################################################--#####
