---------------------------------------------------------------------------------------------------------------------------------------------------------------------------
---------------------------------------------------------------------------------------------------------------------------------------------------------------------------
---------------------------------------------------------------------------------------------------------------------------------------------------------------------------
---------------------------------------------------------------------------------------------------------------------------------------------------------------------------
---------------------------------------------------------------------------------------------------------------------------------------------------------------------------
--------------BB-------------------------------------------------------------BBBBBB?BBBBBBBBBBB?B--BBBBBBBBBB--------------------------------------------------------------
------------------------------------------------xxx----------------xx------------------------------------------------------------------------------------------------------
------------x----------------------------------x##-x--------------xB-x-----------------------------------------------------------------------------------------------------
----------xx-xxxxx----------------xx---------xx###--x------------x##--x----------------------------------------------------------------------------------------------------
---------x##-####-x-------------xx#-x-------x#####---x----------x###---x-----BBBBBBBBBBBBBBBBBBBBBBBBBBBBBBBBB-----------------------------------------xxx-----------------
--------x######----x-----------x###--x-----x######----x--------x####----x-------------------------------------------------xx------------------xx------xx#-x-----xx---------
------xx#####-------x---------x####---x---x#######-----x------x#####-----x------------------------------------------------x-x-----------------x-x-----x-#--x----x-x-------x
--xxxx######---------xxxxxxxxx#####----xxx########------xxxxxx######------xxxxxxxxxxxxxxxxxxxxxxxxxxxxxxxxxxxxxxxxxxxxxxxx---xxxxxxxxxxxxxxxxx---xxxxx--#---xxxx---xxxxxxx-
###########----##----##############--##########-###################-######################################################--##################---######-########---#######-
###########----##----##############--##########-###################-######################################################--##################---######-########---#######-
###########----##----##############--##########-###################-######################################################--##################---######-########---#######-
