12	2
12	3
12	4
12	5
12	6
11	7
10	7
10	8
9	8
9	9
8	9
8	10
8	11
8	12
8	13
8	14
8	15
8	16
8	17
8	18
7	19
7	20
7	21
7	22
6	23
7	24
7	25
7	26
7	27
8	28
8	29
7	30
6	30
6	31
5	31
5	32
4	32
4	33
4	34
5	35
5	36
6	37
7	38
8	39
9	40
8	41
7	41
7	42
6	42
6	43
5	43
5	44
6	45
6	46
6	47
7	48
7	49
7	50
6	51
5	51
5	52
4	52
4	53
5	54
5	55
4	56
3	56
3	57
2	57
2	58
1	58
1	59
2	60
2	61
2	62
3	63
4	64
4	65
5	66
6	67
7	68
8	69
8	70
7	71
6	71
6	72
5	72
5	73
6	74
7	75
8	76
8	77
8	78
8	79
7	80
6	80
6	81
5	81
5	82
4	82
4	83
5	84
5	85
5	86
6	87
7	88
8	89
8	90
7	91
6	91
6	92
7	93
8	94
8	95
7	96
7	97
7	98
7	99
8	100
8	101
8	102
9	103
9	104
9	105
8	106
7	106
7	107
6	107
6	108
5	108
5	109
6	110
6	111
5	112
4	112
4	113
3	113
3	114
2	114
2	115
3	116
3	117
3	118
4	119
4	120
4	121
4	122
4	123
4	124
4	125
5	126
6	127
7	128
8	129
9	130
10	131
11	132
12	133
12	134
11	135
11	136
12	137
12	138
12	139
12	140
12	141
12	142
12	143
12	144
12	145
12	146
12	147
12	148
12	149
12	150
12	151
11	152
10	152
10	153
9	153
9	154
10	155
11	156
11	157
11	158
10	159
9	159
9	160
8	160
8	161
8	162
7	163
8	164
8	165
8	166
8	167
8	168
7	169
8	170
8	171
7	171
6	171
5	172
5	173
5	174
4	175
4	176
3	177
2	177
2	178
1	178
1	179
2	180
3	181
3	182
3	183
3	184
3	185
2	186
3	187
4	188
5	189
6	190
7	191
