---------------------------------------------------------------------------------------------------------------------------------------------------------------------------
---------------------------------------------------------------------------------------------------------------------------------------------------------------------------
---------------------------------------------------------------------------------------------------------------------------------------------------------------------------
---------------------------------------------------------------------------------------------------------------------------------------------------------------------------
---------------------------------------------------------------------------------------------------------------------------------------------------------------------------
---------------------------------------------------------------------------------------------------------------------------------------------------------------------------
---------------------------------------------------------------------------------------------------------------------------------------------------------------------------
-----------------------------------------------------------------------------------------------------------------------------------##--------------------------------------
----------------------------------------------------------------------------------------------------------------------------------###--------------------------------------
----------------------------------------------------B-pP----------------pP-------------------------------------e-----------------####--------------------------------------
------------------------------------------------------pP----------------pP------------------------------------pP----------------#####------#-----------#-------------------
------------------------------------------------------pP----------------pP---------------------------B--------pP---------------######------#--------#--#-------------------
------------------------------------------------------pP----------------pP--------------eee-------e--b--------pP--------------#######------#-------##--#---------------e---
#################-#-###############-#############################--#######---#######################################################--###--##########--###################-
#################-#-###############-#############################--#######---#######################################################--###--##########--###################-
#################-#-###############-#############################--#######---#######################################################--###--##########--###################-
