-----------xx-------------------------------------------------------------------------------------------------------------------------------------------------------------
----------xx-xxx----------------------------------------------------------------------------------------------------------------------------------------------------------
---------xx-----x-------x-------------------------------------------------------------------------------------------------------------------------------------------------
---------x-------xxxxxxx-x------------------------------------------------------------------------------------------------------------------------------------------------
-------oxx-----#########--x-------------------------------xx-oo---------------xx---------------------xx----------------------------------------------------------xx-------
-----####x-----------------x--------o-------xxxxxx-------xx-xxx---------o----xxoxxx----------o-o----xx-xxx--o------oooo-----------------------e------o----------xx-xxx----
--------x------------------ox----------o---xx####-x-----xx-----x------xx----xx-----x---------------xx-----x-----------------------------xx--------o-------xx---xx-----x---
--------x--------------------x--------xx---x-------x----x-------x-----x-x---x-------x--------------x-------x---------------------------xx-xxx----x--------x-x--x-------x--
-------xxo-oe-----------------x------xx-xxx---------xxxx---------xxxxx---xxx---------xxxxxxxxxxxxxx---------x-xxxxxxxxxxxxxxxxxx-----oxx-----xxxx-x-xxxxxx---xx---------x-
-------x#######----------------x-----x-####--------#####-------#######---###--------###############----------x#################-x-----x------####--x######---##------##--x
-------x------------------------xxxxx-------#-----------#------########--###-------#################---------###################-x-xxx-------#####-########--##---#--##---
-------x------------------------#####------#--------------------------#--#---------#---------------#---------#-----------------#--x######--------#-#------#-------#-------
--xxxxx---------------------------------------------------------------#--#---------#---------------#---------#-----------------#--########-------#-#------#-------#-------
#######--------------------####---------------------------------------#--#---------#---------------#---------#-----------------#--#------#-------#-#------#-------#-------
#######--------------------####---------------------------------------#------------------------------------------------------------------#----------------#---------------
#######--------------------####---------------------------------------#------------------------------------------------------------------#----------------#---------------
