12	2
12	3
12	4
12	5
12	6
12	7
12	8
12	9
12	10
11	11
10	11
10	12
9	12
9	13
8	13
8	14
8	15
9	16
9	17
10	18
11	19
12	20
11	21
12	22
12	23
12	24
12	25
12	26
12	27
12	28
12	29
12	30
12	31
12	32
12	33
12	34
11	35
10	35
10	36
11	37
12	38
12	39
12	40
11	41
10	41
10	42
9	42
9	43
8	43
8	44
8	45
9	46
9	47
10	48
11	49
12	50
12	51
12	52
11	52
10	52
9	53
9	54
8	55
7	55
7	56
6	56
6	57
7	58
8	59
8	60
8	61
9	62
10	63
11	64
12	65
12	66
12	67
12	68
12	69
12	70
12	71
12	72
12	73
12	74
12	75
12	76
12	77
12	78
12	79
12	80
12	81
12	82
12	83
12	84
12	85
12	86
12	87
12	88
11	89
10	89
10	90
11	91
12	92
12	93
12	94
12	95
12	96
12	97
12	98
12	99
12	100
12	101
12	102
11	103
10	103
10	104
11	105
12	106
12	107
12	108
12	109
11	110
10	111
9	112
8	113
7	114
7	115
7	116
6	117
7	118
7	119
7	120
8	121
9	122
10	123
11	124
12	125
12	126
12	127
12	128
12	129
12	130
12	131
12	132
12	133
12	134
12	135
12	136
12	137
12	138
12	139
12	140
12	141
12	142
12	143
12	144
12	145
12	146
12	147
11	148
10	148
10	149
9	149
10	150
9	151
8	152
7	153
6	154
5	154
5	155
4	155
4	156
4	157
4	158
4	159
5	160
6	161
7	162
8	163
9	164
10	165
11	166
12	167
11	168
10	169
