----------------
-----------l----
----------------
-------?--------
----------------
----------------
-------x--------
-------?--------
---pP-----------
---pP-----------
---pP-----------
##############--