----------------
----------lt----
----------------
------?---------
----------------
----------------
----------------
------?x--------
--pP------------
--pP------------
--pP------------
#############--#