----------------
---------l-t----
----------------
------?---------
----------------
----------------
----------------
------?---------
--pP---x--------
--pP------------
--pP------------
#############--#