----------------
------l---------
----------------
------?---------
----------------
----------------
----------------
------?---------
--pP------------
--pP------------
--pP--x---t-----
#############--#