----------------
-----l----------
----------------
------?---------
----------------
----------------
----------------
------?---------
--pP------------
--pP--x---------
--pP------t-----
#############--#