----------------
---l------------
----------------
------?---------
----------------
----------------
----------------
-----x?---------
--pP------------
--pP------------
--pP-----t------
#############--#