----------------
-------l--------
----------------
---?------------
----------------
----------------
----------------
---?------------
P---------------
P---------------
P--tt--x--------
##########--####