----------------
-------l--------
----------------
----------------
-----------oooo-
----------------
-------x--------
---t----pP------
--------pP------
--------pP------
--------pP------
################