----------------
------l---------
----------------
----------------
-----------oooo-
---t------------
----------------
-------xpP------
--------pP------
--------pP------
--------pP------
################