---t------------
-----l----------
----------------
----------------
-----------oooo-
----------------
----------------
--------pP------
--------pP------
--------pP------
-------xpP------
################