----------------
--------l-------
----------------
----------------
----------oooo--
----------------
-------x--------
-------pP-------
-------pP-------
-------pP-------
--t----pP-------
################