----------------
----------l-----
----------------
----------------
----------------
----------------
----------------
-pP----x--------
-pP-------------
-pP-------------
-pP-------------
################