----------------
----------------
----------------
-BBB----B??B----
----------------
----------------
-------x--------
---------BB-----
----------------
---------------#
-------g------##
################