----------------
----------------
----------------
---------------B
----------------
----------------
----------------
-----------pP---
-----------pP---
-----------pP---
------x----pP---
################