----------------
----------------
----------------
----------------
----------------
----------------
----------------
-------------pP-
-------------pP-
-------------pP-
------x------pP-
################