----------------
----------------
----------------
---------BBB----
-------x--------
----------------
----------------
-----pP-------pP
-----pP-------pP
-----pP-------pP
-----pP----k--pP
################