----------------
----------------
----------------
----------BBB---
----------------
-------x--------
----------------
------pP-------p
------pP-------p
------pP-------p
------pP----k--p
################