----------------
----------------
----------------
----------------
----------------
-------x--------
----------------
-------------pP-
-------------pP-
--pPpP--K----pP-
--pPpP-------pP-
################