----------------
----------------
----------------
-------BBBBB----
----------------
--pP------------
--pP------------
--##------------
--------x-------
-------pP-----pP
-------pP-----pP
################