---------x------
----------------
----------------
----------------
----------------
---pP-----------
---pP-----------
---pP-----------
---pP-----pP----
pP-pP-----pP----
pP-pPt----pP----
################