----------------
----------------
----------------
----------------
----------------
----------------
--------x-------
---------pP-----
-pP------pP-----
-pP------pP-pP--
-pP------pP-pP--
################