----------------
--------x-------
----------------
---------------B
-----------pP---
-----------pP---
-----------pP---
--pP------B##B--
--pP------------
--pP-pP--------p
--pP-pP--------p
################