---------x------
----------------
----------------
------B---BBBBBB
--pP------------
--pP------------
--pP------------
-B##B-----------
----------------
------pP--------
------pP-t------
##############--