----------------
----------------
----------------
B--------x---BB-
----------------
----------------
-----------BB---
----------------
----------------
----pP--pP------
----pP--pP------
--############-#