----------------
----------------
----------------
------?B---BB---
----------------
----------------
----BB----------
----------BBB---
--------x-------
-pP-------------
-pP------------#
#######-#-######