----------------
----------------
----------------
-----BBB--------
------------pP--
--------x---pP--
------------pP--
-#---BBB----##--
-#--------------
-##-------------
-##--t--------g-
################