----------------
----------------
----------------
----------------
----pP----------
----pP----------
----pP--x-------
----##-----pP---
-----------pP---
-----------pP---
----g------pP---
################