----------------
----------------
----------------
----------------
--pP------------
--pP------------
--pP----x-------
--##-----pP-----
---------pP-----
---------pP---pP
g--------pP---pP
################