----------------
----------------
----------------
----------------
-pP-------------
-pP-------------
-pP------x------
-##-----pP------
--------pP-----p
--------pP---pPp
--------pP---pPp
################