----------------
----------------
----------------
----------------
----------------
----------------
----------------
--------------pP
--pP----------pP
--pP---------#pP
--pP-----x--##pP
################