----------------
----------------
----------------
----------------
---------------#
--------------##
-------------###
---------x-pP###
P----------pP###
P---------#pP###
P--------##pP###
################