----------------
----------------
----------------
B---------------
----------------
----------------
----------------
---#-----------p
---#-----------p
---##--x-------p
---##----------p
################