----------------
----------------
----------------
--------?????---
----------------
--------x-------
----------------
-pP-----?????---
-pP-------------
-pP-------------
-pP----------g-g
################