----------------
----------------
----------------
-------BBBB-----
----------------
----------------
-------x--------
------B-----pP--
------------pP--
------------pP--
------------pP--
################