----------------
----------------
----------------
----BBBB--------
----------------
----------------
----------------
---B-----pP---??
-------x-pP-----
---------pP-----
---------pP-----
################