----------------
----------------
----------------
----BBBB--------
----------------
----------------
----------------
---B-----pP---??
---------pP-----
---------pP-----
---x-----pP-----
################