----------------
----------------
----------------
----BBBB--------
----------------
----------------
----------------
---------pP---??
---------pP-----
-x-------pP-----
---------pP-----
################