----------------
----------------
----------------
--BBBB--------BB
----------------
----------------
----------------
------xpP---????
-------pP-------
-------pP-------
-------pP-------
################