----------------
----------------
----------------
-BBBB--------BBB
----------------
----------------
------x---------
------pP---????-
------pP--------
------pP--------
------pP--------
################