----------------
----------------
----------------
----BBBB--------
----------------
----------------
-------x------g-
---------------p
---------------p
---------------p
---------------p
####----########