----------------
----------------
----------------
----------------
----------------
-------x--------
----------------
----------------
----------------
---------pP-----
-------g-pP---g-
---#############