----------------
----------------
----------------
-----------BBBB-
----------------
----------------
----------------
-------xpP------
--------pP--pP--
-pP-----pP--pP--
-pP-g---pP--pP--
################