----------------
----------------
----------------
-----------BBBB-
----------------
----------------
----------------
--------pP------
--------pP--pP--
-pP-----pP--pP--
-pP--g-xpP--pP--
################