----------------
----------------
----------------
-----------BBBB-
----------------
----------------
-------x--------
--------pP------
--------pP--pP--
-pP-----pP--pP--
-pP---g-pP--pP--
################