----------------
----------------
----------------
----------BBBBB-
-------x--------
----------------
----------------
-------B--------
#------------K--
#---------------
#----g-g--------
################