--------x-------
----------------
----------------
B---------------
----------------
----------------
----------------
-------------BB-
----pP----------
----pP----------
----pP------k---
################