----------------
----------------
----------------
-----------?----
----------------
----------------
----------------
-----?---B?B?B--
-------x--------
----------------
-------g--------
################