----------------
-------------##-
-------------##-
-------------##-
-------------##-
-------------##-
-------------##-
--------BB---##-
P------------##-
P------------##-
P----k--x----##-
################