----------------
----------------
----------------
--?-------------
----------------
----------------
----------------
B?B?B-----------
----------------
--------pP------
-------xpP------
################