----------------
----------------
----------------
--?-------------
----------------
----------------
----------------
B?B?B-----------
----------------
--------pP------
----x---pP------
################