----------------
----------------
----------------
--?-------------
----------------
----------------
----------------
-?B?B-----------
----------------
--------pP------
x-------pP------
################