----------------
----------------
----------------
--?-------------
-----x----------
----------------
----------------
-?B?B-----------
----------------
--------pP------
--------pP------
################