----------------
----------------
----------------
----------------
----------------
----------------
----------------
----------------
--------------pP
----pP-x------pP
----pP--------pP
################