----------------
----------------
----------------
----------------
----------------
----------------
----------------
--------pP------
pP------pP------
pP-----xpP------
pP------pP--g-g-
################