----------------
----------------
----------------
----------------
----------------
----------------
----------------
--------pP------
pP------pP------
pP------pP------
pP-----xpP-g-g--
################