----------------
----------------
----------------
----------------
----------------
----------------
-------x--------
------pP--------
------pP--------
------pP--------
------pPgg------
################