----------------
----------------
----------------
----------------
----------------
----------------
----------------
P---------pP----
P------x--pP----
P---------pP----
P---------pP----
################