----------------
----------------
----------------
----------------
----------------
----------------
------?---------
P---------------
P---------------
P---------------
P------x--------
###########--###