----------------
----------------
--------------g-
---------------B
----------------
-------x--------
----------------
------------B?B-
----------------
----------------
----------------
####--##########