----------------
----------------
-----------g----
-----------BBBBB
----------------
----------------
---------g------
--------B?B-----
----------------
----------------
-------x--------
--##############