----------------
----------------
----------------
BBBB---BBB?-----
----------------
----------------
----------------
----------B-----
----------------
----------------
-------x---g-g--
##---###########