----------------
----------------
----------------
B---BBB?--------
----------------
----------------
----------------
-------B-----BB-
----------------
------x---------
----------------
--##############